0.1 9.5553e-14
0.10029 9.518e-14
0.10058 9.4806e-14
0.10087 9.443e-14
0.10116 9.4053e-14
0.10145 9.3675e-14
0.10174 9.3295e-14
0.10204 9.2915e-14
0.10233 9.2533e-14
0.10262 9.2151e-14
0.10292 9.1768e-14
0.10322 9.1383e-14
0.10352 9.0998e-14
0.10381 9.0612e-14
0.10411 9.0225e-14
0.10441 8.9837e-14
0.10471 8.9449e-14
0.10502 8.906e-14
0.10532 8.867e-14
0.10562 8.828e-14
0.10593 8.7889e-14
0.10623 8.7498e-14
0.10654 8.7106e-14
0.10685 8.6713e-14
0.10715 8.6321e-14
0.10746 8.5927e-14
0.10777 8.5534e-14
0.10808 8.514e-14
0.10839 8.4746e-14
0.10871 8.4351e-14
0.10902 8.3956e-14
0.10934 8.3562e-14
0.10965 8.3167e-14
0.10997 8.2771e-14
0.11028 8.2376e-14
0.1106 8.1981e-14
0.11092 8.1585e-14
0.11124 8.119e-14
0.11156 8.0795e-14
0.11188 8.0399e-14
0.11221 8.0004e-14
0.11253 7.9609e-14
0.11285 7.9214e-14
0.11318 7.882e-14
0.1135 7.8425e-14
0.11383 7.8031e-14
0.11416 7.7637e-14
0.11449 7.7244e-14
0.11482 7.685e-14
0.11515 7.6457e-14
0.11548 7.6065e-14
0.11582 7.5673e-14
0.11615 7.5281e-14
0.11648 7.489e-14
0.11682 7.4499e-14
0.11716 7.4109e-14
0.11749 7.3719e-14
0.11783 7.333e-14
0.11817 7.2942e-14
0.11851 7.2554e-14
0.11886 7.2167e-14
0.1192 7.178e-14
0.11954 7.1394e-14
0.11989 7.1009e-14
0.12023 7.0625e-14
0.12058 7.0241e-14
0.12093 6.9859e-14
0.12127 6.9477e-14
0.12162 6.9095e-14
0.12198 6.8715e-14
0.12233 6.8336e-14
0.12268 6.7957e-14
0.12303 6.7579e-14
0.12339 6.7203e-14
0.12374 6.6827e-14
0.1241 6.6452e-14
0.12446 6.6079e-14
0.12482 6.5706e-14
0.12518 6.5334e-14
0.12554 6.4963e-14
0.1259 6.4594e-14
0.12626 6.4225e-14
0.12663 6.3858e-14
0.12699 6.3492e-14
0.12736 6.3127e-14
0.12773 6.2763e-14
0.12809 6.24e-14
0.12846 6.2038e-14
0.12883 6.1678e-14
0.1292 6.1319e-14
0.12958 6.0961e-14
0.12995 6.0604e-14
0.13033 6.0248e-14
0.1307 5.9894e-14
0.13108 5.9541e-14
0.13146 5.919e-14
0.13183 5.884e-14
0.13221 5.8491e-14
0.1326 5.8143e-14
0.13298 5.7797e-14
0.13336 5.7452e-14
0.13375 5.7109e-14
0.13413 5.6767e-14
0.13452 5.6426e-14
0.13491 5.6087e-14
0.1353 5.5749e-14
0.13569 5.5412e-14
0.13608 5.5077e-14
0.13647 5.4744e-14
0.13686 5.4412e-14
0.13726 5.4081e-14
0.13765 5.3752e-14
0.13805 5.3425e-14
0.13845 5.3099e-14
0.13885 5.2774e-14
0.13925 5.2451e-14
0.13965 5.213e-14
0.14005 5.181e-14
0.14045 5.1491e-14
0.14086 5.1175e-14
0.14127 5.0859e-14
0.14167 5.0546e-14
0.14208 5.0234e-14
0.14249 4.9923e-14
0.1429 4.9614e-14
0.14331 4.9307e-14
0.14373 4.9001e-14
0.14414 4.8697e-14
0.14456 4.8394e-14
0.14497 4.8094e-14
0.14539 4.7794e-14
0.14581 4.7497e-14
0.14623 4.7201e-14
0.14665 4.6906e-14
0.14708 4.6614e-14
0.1475 4.6323e-14
0.14793 4.6033e-14
0.14835 4.5746e-14
0.14878 4.546e-14
0.14921 4.5175e-14
0.14964 4.4892e-14
0.15007 4.4611e-14
0.1505 4.4332e-14
0.15094 4.4054e-14
0.15137 4.3778e-14
0.15181 4.3504e-14
0.15225 4.3232e-14
0.15268 4.2961e-14
0.15313 4.2691e-14
0.15357 4.2424e-14
0.15401 4.2158e-14
0.15445 4.1894e-14
0.1549 4.1632e-14
0.15535 4.1371e-14
0.15579 4.1112e-14
0.15624 4.0855e-14
0.15669 4.0599e-14
0.15714 4.0345e-14
0.1576 4.0093e-14
0.15805 3.9843e-14
0.15851 3.9594e-14
0.15896 3.9347e-14
0.15942 3.9102e-14
0.15988 3.8858e-14
0.16034 3.8617e-14
0.16081 3.8377e-14
0.16127 3.8138e-14
0.16173 3.7902e-14
0.1622 3.7667e-14
0.16267 3.7434e-14
0.16314 3.7202e-14
0.16361 3.6973e-14
0.16408 3.6745e-14
0.16455 3.6518e-14
0.16503 3.6294e-14
0.1655 3.6071e-14
0.16598 3.585e-14
0.16646 3.5631e-14
0.16694 3.5581e-14
0.16742 3.5661e-14
0.1679 3.5741e-14
0.16839 3.582e-14
0.16887 3.5899e-14
0.16936 3.5978e-14
0.16985 3.6057e-14
0.17034 3.6135e-14
0.17083 3.6214e-14
0.17132 3.6292e-14
0.17181 3.637e-14
0.17231 3.6448e-14
0.17281 3.6526e-14
0.1733 3.6604e-14
0.1738 3.6682e-14
0.17431 3.676e-14
0.17481 3.6838e-14
0.17531 3.6916e-14
0.17582 3.6994e-14
0.17632 3.7072e-14
0.17683 3.715e-14
0.17734 3.7228e-14
0.17785 3.7307e-14
0.17837 3.7386e-14
0.17888 3.7465e-14
0.1794 3.7544e-14
0.17991 3.7623e-14
0.18043 3.7703e-14
0.18095 3.7783e-14
0.18147 3.7863e-14
0.182 3.7944e-14
0.18252 3.8025e-14
0.18305 3.8107e-14
0.18358 3.8189e-14
0.18411 3.8272e-14
0.18464 3.8355e-14
0.18517 3.8439e-14
0.1857 3.8523e-14
0.18624 3.8608e-14
0.18677 3.8694e-14
0.18731 3.8781e-14
0.18785 3.8868e-14
0.18839 3.8956e-14
0.18894 3.9045e-14
0.18948 3.9135e-14
0.19003 3.9226e-14
0.19058 3.9318e-14
0.19113 3.9411e-14
0.19168 3.9505e-14
0.19223 3.96e-14
0.19278 3.9696e-14
0.19334 3.9794e-14
0.1939 3.9893e-14
0.19446 3.9993e-14
0.19502 4.0094e-14
0.19558 4.0198e-14
0.19614 4.0302e-14
0.19671 4.0409e-14
0.19728 4.0516e-14
0.19784 4.0626e-14
0.19841 4.0738e-14
0.19899 4.0851e-14
0.19956 4.0966e-14
0.20014 4.0956e-14
0.20071 4.0542e-14
0.20129 4.0135e-14
0.20187 3.9735e-14
0.20245 3.9343e-14
0.20304 3.8958e-14
0.20362 3.858e-14
0.20421 3.8209e-14
0.2048 3.7845e-14
0.20539 3.7488e-14
0.20598 3.7138e-14
0.20658 3.6795e-14
0.20717 3.6459e-14
0.20777 3.6129e-14
0.20837 3.5806e-14
0.20897 3.549e-14
0.20957 3.518e-14
0.21017 3.4876e-14
0.21078 3.458e-14
0.21139 3.4289e-14
0.212 3.4005e-14
0.21261 3.3727e-14
0.21322 3.3456e-14
0.21384 3.3191e-14
0.21445 3.2932e-14
0.21507 3.2679e-14
0.21569 3.2433e-14
0.21631 3.2193e-14
0.21694 3.1959e-14
0.21756 3.1731e-14
0.21819 3.151e-14
0.21882 3.1295e-14
0.21945 3.1086e-14
0.22008 3.0883e-14
0.22072 3.0686e-14
0.22135 3.0496e-14
0.22199 3.0312e-14
0.22263 3.0134e-14
0.22327 2.9962e-14
0.22392 2.9797e-14
0.22456 2.9639e-14
0.22521 2.9487e-14
0.22586 2.9341e-14
0.22651 2.9202e-14
0.22716 2.907e-14
0.22782 2.8945e-14
0.22848 2.8827e-14
0.22913 2.8715e-14
0.22979 2.8611e-14
0.23046 2.8514e-14
0.23112 2.8425e-14
0.23179 2.8343e-14
0.23246 2.8268e-14
0.23313 2.8067e-14
0.2338 2.7852e-14
0.23447 2.7648e-14
0.23515 2.7453e-14
0.23583 2.7269e-14
0.23651 2.7095e-14
0.23719 2.6932e-14
0.23787 2.678e-14
0.23856 2.6639e-14
0.23925 2.6509e-14
0.23994 2.639e-14
0.24063 2.6283e-14
0.24132 2.6188e-14
0.24202 2.6105e-14
0.24271 2.6035e-14
0.24341 2.5978e-14
0.24412 2.5935e-14
0.24482 2.5906e-14
0.24553 2.5891e-14
0.24623 2.5892e-14
0.24694 2.5909e-14
0.24766 2.5943e-14
0.24837 2.5994e-14
0.24909 2.6065e-14
0.2498 2.6156e-14
0.25052 2.6268e-14
0.25125 2.6403e-14
0.25197 2.6562e-14
0.2527 2.6748e-14
0.25343 2.6962e-14
0.25416 2.7207e-14
0.25489 2.7486e-14
0.25562 2.7802e-14
0.25636 2.8159e-14
0.2571 2.8561e-14
0.25784 2.9012e-14
0.25858 2.952e-14
0.25933 3.009e-14
0.26008 3.0731e-14
0.26083 3.1452e-14
0.26158 3.2266e-14
0.26233 3.3186e-14
0.26309 3.423e-14
0.26385 3.542e-14
0.26461 3.6782e-14
0.26537 3.8351e-14
0.26614 4.0172e-14
0.2669 4.2302e-14
0.26767 4.482e-14
0.26845 4.7833e-14
0.26922 5.1492e-14
0.27 5.6016e-14
0.27077 6.1738e-14
0.27156 6.9185e-14
0.27234 7.9251e-14
0.27312 9.3572e-14
0.27391 1.1551e-13
0.2747 1.5327e-13
0.27549 2.3329e-13
0.27629 5.1578e-13
0.27708 1.9154e-12
0.27788 3.2257e-13
0.27868 1.7244e-13
0.27949 1.1596e-13
0.28029 8.6378e-14
0.2811 6.8192e-14
0.28191 5.5897e-14
0.28272 4.7041e-14
0.28354 4.0365e-14
0.28436 3.5159e-14
0.28518 3.0991e-14
0.286 2.7583e-14
0.28682 2.4746e-14
0.28765 2.2352e-14
0.28848 2.0307e-14
0.28931 1.8541e-14
0.29015 1.7002e-14
0.29098 1.5651e-14
0.29182 1.4457e-14
0.29266 1.3394e-14
0.29351 1.2443e-14
0.29435 1.1589e-14
0.2952 1.0818e-14
0.29605 1.0118e-14
0.29691 9.4821e-15
0.29776 8.9012e-15
0.29862 8.3693e-15
0.29948 7.8809e-15
0.30034 7.4312e-15
0.30121 7.0161e-15
0.30208 6.6321e-15
0.30295 6.2762e-15
0.30382 5.9457e-15
0.3047 5.6381e-15
0.30558 5.3514e-15
0.30646 5.0838e-15
0.30734 4.8336e-15
0.30823 4.5993e-15
0.30912 4.3797e-15
0.31001 4.1735e-15
0.3109 3.9797e-15
0.3118 3.7973e-15
0.3127 3.6256e-15
0.3136 3.4636e-15
0.3145 3.3107e-15
0.31541 3.1663e-15
0.31632 3.0298e-15
0.31723 2.9005e-15
0.31815 2.7781e-15
0.31906 2.6621e-15
0.31998 2.5521e-15
0.32091 2.4476e-15
0.32183 2.3484e-15
0.32276 2.2541e-15
0.32369 2.1644e-15
0.32462 2.079e-15
0.32556 1.9977e-15
0.3265 1.9203e-15
0.32744 1.8465e-15
0.32838 1.776e-15
0.32933 1.7088e-15
0.33028 1.6447e-15
0.33123 1.5834e-15
0.33219 1.5249e-15
0.33314 1.4689e-15
0.3341 1.4154e-15
0.33507 1.3641e-15
0.33603 1.3151e-15
0.337 1.2682e-15
0.33797 1.2232e-15
0.33895 1.1801e-15
0.33992 1.1388e-15
0.3409 1.0992e-15
0.34189 1.0612e-15
0.34287 1.0247e-15
0.34386 9.897e-16
0.34485 9.561e-16
0.34585 9.2382e-16
0.34684 8.9282e-16
0.34784 8.6302e-16
0.34885 8.3438e-16
0.34985 8.0684e-16
0.35086 7.8036e-16
0.35187 7.5488e-16
0.35289 7.3036e-16
0.35391 7.0676e-16
0.35493 6.8405e-16
0.35595 6.6217e-16
0.35698 6.411e-16
0.358 6.2081e-16
0.35904 6.0125e-16
0.36007 5.824e-16
0.36111 5.6423e-16
0.36215 5.4671e-16
0.3632 5.2982e-16
0.36424 5.1352e-16
0.36529 4.978e-16
0.36635 4.8263e-16
0.3674 4.6799e-16
0.36846 4.5386e-16
0.36952 4.4022e-16
0.37059 4.2705e-16
0.37166 4.1433e-16
0.37273 4.0204e-16
0.3738 3.9017e-16
0.37488 3.7869e-16
0.37596 3.6761e-16
0.37705 3.5689e-16
0.37813 3.4654e-16
0.37922 3.3652e-16
0.38032 3.2684e-16
0.38141 3.1748e-16
0.38251 3.0842e-16
0.38362 2.9965e-16
0.38472 2.9118e-16
0.38583 2.8297e-16
0.38694 2.7503e-16
0.38806 2.6735e-16
0.38918 2.5991e-16
0.3903 2.5271e-16
0.39142 2.4574e-16
0.39255 2.3898e-16
0.39368 2.3244e-16
0.39482 2.2611e-16
0.39596 2.1997e-16
0.3971 2.1403e-16
0.39824 2.0827e-16
0.39939 2.0269e-16
0.40054 1.9728e-16
0.4017 1.9203e-16
0.40286 1.8695e-16
0.40402 1.8202e-16
0.40518 1.7724e-16
0.40635 1.7261e-16
0.40752 1.6812e-16
0.4087 1.6376e-16
0.40988 1.5953e-16
0.41106 1.5544e-16
0.41224 1.5146e-16
0.41343 1.476e-16
0.41462 1.4386e-16
0.41582 1.4022e-16
0.41702 1.3643e-16
0.41822 1.3214e-16
0.41943 1.2801e-16
0.42064 1.2403e-16
0.42185 1.2019e-16
0.42306 1.1648e-16
0.42428 1.1291e-16
0.42551 1.0947e-16
0.42673 1.0616e-16
0.42796 1.0296e-16
0.4292 9.9876e-17
0.43044 9.6902e-17
0.43168 9.4035e-17
0.43292 9.1271e-17
0.43417 8.8605e-17
0.43542 8.6035e-17
0.43668 8.3559e-17
0.43794 8.1173e-17
0.4392 7.8876e-17
0.44046 7.6667e-17
0.44173 7.4547e-17
0.44301 7.2521e-17
0.44429 7.0599e-17
0.44557 6.8809e-17
0.44685 6.7225e-17
0.44814 6.609e-17
0.44943 6.6589e-17
0.45073 8.3903e-17
0.45203 1.0007e-16
0.45333 6.2369e-17
0.45464 5.7988e-17
0.45595 5.5764e-17
0.45726 5.4046e-17
0.45858 5.253e-17
0.4599 5.1127e-17
0.46123 4.9802e-17
0.46256 4.8539e-17
0.46389 4.7329e-17
0.46523 4.6166e-17
0.46657 4.5048e-17
0.46792 4.3971e-17
0.46926 4.2933e-17
0.47062 4.1932e-17
0.47197 4.0967e-17
0.47334 4.0037e-17
0.4747 3.9139e-17
0.47607 3.8274e-17
0.47744 3.7439e-17
0.47882 3.6634e-17
0.4802 3.5858e-17
0.48158 3.5109e-17
0.48297 3.4388e-17
0.48436 3.3692e-17
0.48576 3.3022e-17
0.48716 3.2376e-17
0.48856 3.1754e-17
0.48997 3.1155e-17
0.49139 3.0579e-17
0.4928 3.0024e-17
0.49422 2.949e-17
0.49565 2.8976e-17
0.49708 2.8483e-17
0.49851 2.8008e-17
0.49995 2.7553e-17
0.50139 2.7115e-17
0.50283 2.6694e-17
0.50428 2.6288e-17
0.50574 2.5898e-17
0.5072 2.5522e-17
0.50866 2.5161e-17
0.51013 2.4814e-17
0.5116 2.4481e-17
0.51307 2.4161e-17
0.51455 2.3853e-17
0.51603 2.3558e-17
0.51752 2.3276e-17
0.51901 2.3005e-17
0.52051 2.2745e-17
0.52201 2.2497e-17
0.52352 2.2259e-17
0.52503 2.2033e-17
0.52654 2.1816e-17
0.52806 2.161e-17
0.52958 2.1414e-17
0.53111 2.1227e-17
0.53264 2.105e-17
0.53417 2.0883e-17
0.53571 2.0724e-17
0.53726 2.0575e-17
0.53881 2.0434e-17
0.54036 2.0302e-17
0.54192 2.0179e-17
0.54348 2.0065e-17
0.54505 1.9959e-17
0.54662 1.9861e-17
0.54819 1.9772e-17
0.54978 1.9691e-17
0.55136 1.9618e-17
0.55295 1.9554e-17
0.55454 1.9498e-17
0.55614 1.945e-17
0.55775 1.9411e-17
0.55935 1.938e-17
0.56097 1.9357e-17
0.56258 1.9343e-17
0.56421 1.9338e-17
0.56583 1.9342e-17
0.56746 1.9355e-17
0.5691 1.9378e-17
0.57074 1.9409e-17
0.57239 1.9451e-17
0.57404 1.9503e-17
0.57569 1.9565e-17
0.57735 1.9638e-17
0.57902 1.9722e-17
0.58069 1.9817e-17
0.58236 1.9925e-17
0.58404 2.0046e-17
0.58572 2.018e-17
0.58741 2.0329e-17
0.5891 2.0492e-17
0.5908 2.0671e-17
0.59251 2.0867e-17
0.59421 2.1081e-17
0.59593 2.1314e-17
0.59765 2.1568e-17
0.59937 2.1844e-17
0.6011 2.2143e-17
0.60283 2.2468e-17
0.60457 2.2822e-17
0.60631 2.3206e-17
0.60806 2.3624e-17
0.60981 2.4078e-17
0.61157 2.4573e-17
0.61333 2.5112e-17
0.6151 2.5702e-17
0.61688 2.6347e-17
0.61865 2.7056e-17
0.62044 2.7834e-17
0.62223 2.8694e-17
0.62402 2.9645e-17
0.62582 3.0701e-17
0.62762 3.188e-17
0.62943 3.3202e-17
0.63125 3.4693e-17
0.63307 3.6384e-17
0.63489 3.8317e-17
0.63672 4.0544e-17
0.63856 4.3136e-17
0.6404 4.6185e-17
0.64225 4.9821e-17
0.6441 5.4227e-17
0.64596 5.967e-17
0.64782 6.6557e-17
0.64969 7.5541e-17
0.65156 8.7741e-17
0.65344 1.0524e-16
0.65532 1.3243e-16
0.65721 1.8037e-16
0.65911 2.8735e-16
0.66101 7.364e-16
0.66291 1.2149e-15
0.66482 3.2636e-16
0.66674 1.8637e-16
0.66866 1.2938e-16
0.67059 9.8474e-17
0.67252 7.9087e-17
0.67446 6.5797e-17
0.67641 5.6125e-17
0.67836 4.8773e-17
0.68031 4.3e-17
0.68227 3.8348e-17
0.68424 3.4522e-17
0.68621 3.1321e-17
0.68819 2.8604e-17
0.69018 2.6272e-17
0.69217 2.4248e-17
0.69416 2.2476e-17
0.69616 2.0913e-17
0.69817 1.9523e-17
0.70018 1.8281e-17
0.7022 1.7165e-17
0.70423 1.6156e-17
0.70626 1.5241e-17
0.70829 1.4407e-17
0.71033 1.3644e-17
0.71238 1.2944e-17
0.71444 1.23e-17
0.7165 1.1704e-17
0.71856 1.1154e-17
0.72063 1.0642e-17
0.72271 1.0167e-17
0.72479 9.7235e-18
0.72688 9.3094e-18
0.72898 8.9218e-18
0.73108 8.5585e-18
0.73319 8.2173e-18
0.7353 7.8964e-18
0.73742 7.5941e-18
0.73955 7.309e-18
0.74168 7.0397e-18
0.74382 6.785e-18
0.74596 6.5439e-18
0.74812 6.3153e-18
0.75027 6.0984e-18
0.75244 5.8924e-18
0.7546 5.6965e-18
0.75678 5.5101e-18
0.75896 5.3325e-18
0.76115 5.1633e-18
0.76334 5.0018e-18
0.76555 4.8475e-18
0.76775 4.7002e-18
0.76997 4.5593e-18
0.77219 4.4244e-18
0.77441 4.2953e-18
0.77665 4.1716e-18
0.77888 4.053e-18
0.78113 3.9392e-18
0.78338 3.83e-18
0.78564 3.7252e-18
0.78791 3.6244e-18
0.79018 3.5275e-18
0.79246 3.4344e-18
0.79474 3.3447e-18
0.79703 3.2584e-18
0.79933 3.1753e-18
0.80163 3.0952e-18
0.80394 3.018e-18
0.80626 2.9435e-18
0.80859 2.8717e-18
0.81092 2.8024e-18
0.81326 2.7355e-18
0.8156 2.6709e-18
0.81795 2.6084e-18
0.82031 2.5481e-18
0.82268 2.4898e-18
0.82505 2.4334e-18
0.82743 2.3789e-18
0.82981 2.3261e-18
0.8322 2.275e-18
0.8346 2.2256e-18
0.83701 2.1777e-18
0.83942 2.1314e-18
0.84184 2.0864e-18
0.84427 2.0429e-18
0.8467 2.0007e-18
0.84915 1.9598e-18
0.85159 1.9201e-18
0.85405 1.8816e-18
0.85651 1.8443e-18
0.85898 1.8081e-18
0.86146 1.773e-18
0.86394 1.7388e-18
0.86643 1.7057e-18
0.86893 1.6736e-18
0.87144 1.6423e-18
0.87395 1.612e-18
0.87647 1.5825e-18
0.87899 1.5539e-18
0.88153 1.5261e-18
0.88407 1.499e-18
0.88662 1.4727e-18
0.88918 1.4472e-18
0.89174 1.4224e-18
0.89431 1.3982e-18
0.89689 1.3747e-18
0.89947 1.3519e-18
0.90207 1.3297e-18
0.90467 1.308e-18
0.90728 1.287e-18
0.90989 1.2666e-18
0.91252 1.2467e-18
0.91515 1.2273e-18
0.91778 1.2085e-18
0.92043 1.1902e-18
0.92308 1.1723e-18
0.92575 1.155e-18
0.92841 1.1381e-18
0.93109 1.1216e-18
0.93378 1.1057e-18
0.93647 1.0901e-18
0.93917 1.0749e-18
0.94188 1.0602e-18
0.94459 1.0459e-18
0.94731 1.0319e-18
0.95005 1.0183e-18
0.95278 1.0051e-18
0.95553 9.9227e-19
0.95829 9.7977e-19
0.96105 9.6761e-19
0.96382 9.5578e-19
0.9666 9.4428e-19
0.96939 9.3311e-19
0.97218 9.2224e-19
0.97498 9.1168e-19
0.97779 9.0141e-19
0.98061 8.9145e-19
0.98344 8.8176e-19
0.98628 8.7236e-19
0.98912 8.6324e-19
0.99197 8.5438e-19
0.99483 8.458e-19
0.9977 8.3747e-19
1.0006 8.294e-19
1.0035 8.2155e-19
1.0064 8.1388e-19
1.0093 8.0641e-19
1.0122 7.9913e-19
1.0151 7.9203e-19
1.018 7.8512e-19
1.0209 7.7839e-19
1.0239 7.7184e-19
1.0268 7.6547e-19
1.0298 7.5928e-19
1.0328 7.5326e-19
1.0357 7.4743e-19
1.0387 7.4177e-19
1.0417 7.3629e-19
1.0447 7.3099e-19
1.0477 7.2587e-19
1.0508 7.2094e-19
1.0538 7.162e-19
1.0568 7.1165e-19
1.0599 7.073e-19
1.0629 7.0317e-19
1.066 6.9927e-19
1.0691 6.9562e-19
1.0722 6.9223e-19
1.0752 6.8916e-19
1.0783 6.8644e-19
1.0815 6.8415e-19
1.0846 6.824e-19
1.0877 6.8134e-19
1.0908 6.8124e-19
1.094 6.8251e-19
1.0971 6.859e-19
1.1003 6.9283e-19
1.1035 7.062e-19
1.1067 7.329e-19
1.1098 7.9219e-19
1.113 9.5578e-19
1.1163 1.702e-18
1.1195 6.3398e-18
1.1227 1.2263e-18
1.1259 8.557e-19
1.1292 7.4802e-19
1.1324 7.0294e-19
1.1357 6.7993e-19
1.139 6.6664e-19
1.1423 6.5831e-19
1.1456 6.5283e-19
1.1489 6.4912e-19
1.1522 6.4661e-19
1.1555 6.4499e-19
1.1588 6.4403e-19
1.1622 6.4364e-19
1.1655 6.4371e-19
1.1689 6.442e-19
1.1722 6.4509e-19
1.1756 6.4635e-19
1.179 6.4796e-19
1.1824 6.4994e-19
1.1858 6.5227e-19
1.1892 6.5496e-19
1.1927 6.5803e-19
1.1961 6.6149e-19
1.1996 6.6534e-19
1.203 6.6962e-19
1.2065 6.7434e-19
1.21 6.7953e-19
1.2134 6.8521e-19
1.2169 6.9141e-19
1.2205 6.9818e-19
1.224 7.0555e-19
1.2275 7.1357e-19
1.231 7.2228e-19
1.2346 7.3175e-19
1.2381 7.4204e-19
1.2417 7.5322e-19
1.2453 7.6537e-19
1.2489 7.786e-19
1.2525 7.9299e-19
1.2561 8.0869e-19
1.2597 8.2583e-19
1.2634 8.4458e-19
1.267 8.6513e-19
1.2707 8.877e-19
1.2743 9.1257e-19
1.278 9.4004e-19
1.2817 9.7051e-19
1.2854 1.0044e-18
1.2891 1.0423e-18
1.2928 1.0849e-18
1.2965 1.1331e-18
1.3003 1.1879e-18
1.304 1.2506e-18
1.3078 1.3232e-18
1.3115 1.4079e-18
1.3153 1.5081e-18
1.3191 1.628e-18
1.3229 1.7742e-18
1.3267 1.956e-18
1.3305 2.188e-18
1.3344 2.4939e-18
1.3382 2.9154e-18
1.3421 3.5324e-18
1.346 4.5208e-18
1.3498 6.3581e-18
1.3537 1.0953e-17
1.3576 4.3084e-17
1.3615 2.1246e-17
1.3655 8.3671e-18
1.3694 5.149e-18
1.3734 3.6873e-18
1.3773 2.8529e-18
1.3813 2.3136e-18
1.3853 1.9366e-18
1.3893 1.6584e-18
1.3933 1.4448e-18
1.3973 1.2757e-18
1.4013 1.1386e-18
1.4054 1.0253e-18
1.4094 9.3017e-19
1.4135 8.4916e-19
1.4175 7.794e-19
1.4216 7.1874e-19
1.4257 6.6553e-19
1.4298 6.1851e-19
1.434 5.7668e-19
1.4381 5.3925e-19
1.4422 5.0557e-19
1.4464 4.7512e-19
1.4506 4.4748e-19
1.4548 4.2228e-19
1.459 3.9924e-19
1.4632 3.7808e-19
1.4674 3.5861e-19
1.4716 3.4064e-19
1.4759 3.2401e-19
1.4801 3.0858e-19
1.4844 2.9423e-19
1.4887 2.8087e-19
1.4929 2.684e-19
1.4972 2.5674e-19
1.5016 2.4583e-19
1.5059 2.3559e-19
1.5102 2.2598e-19
1.5146 2.1695e-19
1.519 2.0845e-19
1.5233 2.0044e-19
1.5277 1.929e-19
1.5321 1.8579e-19
1.5365 1.7909e-19
1.541 1.7277e-19
1.5454 1.6682e-19
1.5499 1.6122e-19
1.5543 1.5597e-19
1.5588 1.5106e-19
1.5633 1.4651e-19
1.5678 1.4233e-19
1.5723 1.3855e-19
1.5769 1.3525e-19
1.5814 1.3253e-19
1.586 1.3057e-19
1.5906 1.2972e-19
1.5951 1.3061e-19
1.5997 1.3453e-19
1.6044 1.4439e-19
1.609 1.6798e-19
1.6136 2.3298e-19
1.6183 5.4289e-19
1.6229 9.1124e-19
1.6276 2.5653e-19
1.6323 1.6263e-19
1.637 1.2777e-19
1.6417 1.1018e-19
1.6465 9.9575e-20
1.6512 9.2344e-20
1.656 8.6956e-20
1.6608 8.2668e-20
1.6655 7.9089e-20
1.6703 7.5992e-20
1.6752 7.3244e-20
1.68 7.0755e-20
1.6848 6.8471e-20
1.6897 6.635e-20
1.6946 6.4366e-20
1.6994 6.2497e-20
1.7043 6.0728e-20
1.7093 5.9047e-20
1.7142 5.7444e-20
1.7191 5.5912e-20
1.7241 5.4445e-20
1.7291 5.3037e-20
1.734 5.1685e-20
1.739 5.0383e-20
1.7441 4.913e-20
1.7491 4.7922e-20
1.7541 4.6756e-20
1.7592 4.563e-20
1.7643 4.4543e-20
1.7693 4.3492e-20
1.7744 4.2475e-20
1.7796 4.1491e-20
1.7847 4.0539e-20
1.7898 3.9617e-20
1.795 3.8723e-20
1.8002 3.7857e-20
1.8054 3.7018e-20
1.8106 3.6204e-20
1.8158 3.5415e-20
1.821 3.4649e-20
1.8263 3.3906e-20
1.8315 3.3184e-20
1.8368 3.2484e-20
1.8421 3.1804e-20
1.8474 3.1144e-20
1.8528 3.0502e-20
1.8581 2.9879e-20
1.8634 2.9273e-20
1.8688 2.8685e-20
1.8742 2.8112e-20
1.8796 2.7556e-20
1.885 2.7016e-20
1.8905 2.649e-20
1.8959 2.5978e-20
1.9014 2.5481e-20
1.9069 2.4997e-20
1.9124 2.4527e-20
1.9179 2.4069e-20
1.9234 2.3624e-20
1.929 2.3191e-20
1.9345 2.2769e-20
1.9401 2.2359e-20
1.9457 2.1959e-20
1.9513 2.1571e-20
1.9569 2.1193e-20
1.9626 2.0825e-20
1.9682 2.0467e-20
1.9739 2.0118e-20
1.9796 1.9779e-20
1.9853 1.9449e-20
1.991 1.9127e-20
1.9968 1.8815e-20
2.0025 1.851e-20
2.0083 1.8214e-20
2.0141 1.7926e-20
2.0199 1.7646e-20
2.0257 1.7373e-20
2.0315 1.7108e-20
2.0374 1.685e-20
2.0433 1.6599e-20
2.0492 1.6355e-20
2.0551 1.6118e-20
2.061 1.5888e-20
2.0669 1.5664e-20
2.0729 1.5446e-20
2.0789 1.5235e-20
2.0849 1.5031e-20
2.0909 1.4832e-20
2.0969 1.4639e-20
2.103 1.4452e-20
2.109 1.4271e-20
2.1151 1.4096e-20
2.1212 1.3927e-20
2.1273 1.3763e-20
2.1334 1.3605e-20
2.1396 1.3453e-20
2.1458 1.3306e-20
2.152 1.3165e-20
2.1582 1.303e-20
2.1644 1.29e-20
2.1706 1.2777e-20
2.1769 1.2659e-20
2.1832 1.2548e-20
2.1895 1.2443e-20
2.1958 1.2345e-20
2.2021 1.2254e-20
2.2084 1.2171e-20
2.2148 1.2097e-20
2.2212 1.2033e-20
2.2276 1.198e-20
2.234 1.1942e-20
2.2405 1.1922e-20
2.2469 1.1927e-20
2.2534 1.1965e-20
2.2599 1.2055e-20
2.2664 1.2231e-20
2.2729 1.2561e-20
2.2795 1.3212e-20
2.2861 1.4666e-20
2.2927 1.8849e-20
2.2993 4.2547e-20
2.3059 5.2724e-20
2.3125 1.8803e-20
2.3192 1.4051e-20
2.3259 1.2546e-20
2.3326 1.1912e-20
2.3393 1.1603e-20
2.3461 1.1443e-20
2.3528 1.1363e-20
2.3596 1.1332e-20
2.3664 1.1335e-20
2.3733 1.1363e-20
2.3801 1.1412e-20
2.387 1.1481e-20
2.3938 1.1568e-20
2.4007 1.1673e-20
2.4077 1.1798e-20
2.4146 1.1942e-20
2.4216 1.2107e-20
2.4285 1.2297e-20
2.4355 1.2512e-20
2.4426 1.2756e-20
2.4496 1.3033e-20
2.4567 1.3347e-20
2.4638 1.3704e-20
2.4709 1.411e-20
2.478 1.4574e-20
2.4851 1.5107e-20
2.4923 1.5721e-20
2.4995 1.6435e-20
2.5067 1.727e-20
2.5139 1.8257e-20
2.5212 1.9437e-20
2.5284 2.0869e-20
2.5357 2.2635e-20
2.543 2.4863e-20
2.5504 2.775e-20
2.5577 3.1629e-20
2.5651 3.7103e-20
2.5725 4.5383e-20
2.5799 5.933e-20
2.5873 8.77e-20
2.5948 1.7643e-19
2.6023 2.73e-18
2.6098 1.4944e-19
2.6173 7.4979e-20
2.6249 4.924e-20
2.6324 3.6208e-20
2.64 2.8347e-20
2.6476 2.3095e-20
2.6553 1.9344e-20
2.6629 1.6534e-20
2.6706 1.4353e-20
2.6783 1.2614e-20
2.686 1.1197e-20
2.6938 1.0021e-20
2.7015 9.0302e-21
2.7093 8.1859e-21
2.7171 7.4583e-21
2.725 6.8256e-21
2.7328 6.271e-21
2.7407 5.7814e-21
2.7486 5.3464e-21
2.7565 4.9579e-21
2.7645 4.6092e-21
2.7724 4.2947e-21
2.7804 4.01e-21
2.7884 3.7513e-21
2.7965 3.5153e-21
2.8045 3.2995e-21
2.8126 3.1016e-21
2.8207 2.9195e-21
2.8289 2.7517e-21
2.837 2.5966e-21
2.8452 2.453e-21
2.8534 2.3198e-21
2.8616 2.196e-21
2.8699 2.0807e-21
2.8782 1.9732e-21
2.8865 1.8728e-21
2.8948 1.7789e-21
2.9031 1.691e-21
2.9115 1.6085e-21
2.9199 1.5311e-21
2.9283 1.4583e-21
2.9367 1.3899e-21
2.9452 1.3254e-21
2.9537 1.2646e-21
2.9622 1.2072e-21
2.9708 1.153e-21
2.9793 1.1018e-21
2.9879 1.0533e-21
2.9965 1.0075e-21
3.0052 9.6398e-22
3.0138 9.2277e-22
3.0225 8.8367e-22
3.0312 8.4655e-22
3.04 8.1129e-22
3.0487 7.7777e-22
3.0575 7.4589e-22
3.0663 7.1556e-22
3.0752 6.8668e-22
3.0841 6.5917e-22
3.0929 6.3295e-22
3.1019 6.0796e-22
3.1108 5.8411e-22
3.1198 5.6135e-22
3.1288 5.3963e-22
3.1378 5.1888e-22
3.1468 4.9905e-22
3.1559 4.8009e-22
3.165 4.6197e-22
3.1741 4.4463e-22
3.1833 4.2804e-22
3.1925 4.1216e-22
3.2017 3.9696e-22
3.2109 3.8239e-22
3.2202 3.6844e-22
3.2294 3.5506e-22
3.2388 3.4224e-22
3.2481 3.2994e-22
3.2575 3.1814e-22
3.2668 3.0683e-22
3.2763 2.9596e-22
3.2857 2.8554e-22
3.2952 2.7552e-22
3.3047 2.659e-22
3.3142 2.5667e-22
3.3238 2.4779e-22
3.3333 2.3926e-22
3.343 2.3105e-22
3.3526 2.2317e-22
3.3623 2.1558e-22
3.372 2.0829e-22
3.3817 2.0127e-22
3.3914 1.9451e-22
3.4012 1.8801e-22
3.411 1.8176e-22
3.4208 1.7573e-22
3.4307 1.6993e-22
3.4406 1.6434e-22
3.4505 1.5896e-22
3.4605 1.5378e-22
3.4704 1.4878e-22
3.4805 1.4396e-22
3.4905 1.3932e-22
3.5005 1.3485e-22
3.5106 1.3054e-22
3.5208 1.2638e-22
3.5309 1.2236e-22
3.5411 1.185e-22
3.5513 1.1476e-22
3.5615 1.1116e-22
3.5718 1.0769e-22
3.5821 1.0433e-22
3.5924 1.011e-22
3.6028 9.7974e-23
3.6132 9.4959e-23
3.6236 9.2048e-23
3.634 8.9237e-23
3.6445 8.6522e-23
3.655 8.39e-23
3.6656 8.1368e-23
3.6761 7.8922e-23
3.6867 7.6559e-23
3.6974 7.4276e-23
3.708 7.207e-23
3.7187 6.9938e-23
3.7294 6.7877e-23
3.7402 6.5886e-23
3.751 6.3961e-23
3.7618 6.2101e-23
3.7726 6.0302e-23
3.7835 5.8563e-23
3.7944 5.6881e-23
3.8054 5.5255e-23
3.8163 5.3682e-23
3.8273 5.2161e-23
3.8384 5.069e-23
3.8494 4.9267e-23
3.8605 4.789e-23
3.8717 4.6558e-23
3.8828 4.5269e-23
3.894 4.4022e-23
3.9052 4.2816e-23
3.9165 4.1648e-23
3.9278 4.0518e-23
3.9391 3.9424e-23
3.9505 3.8366e-23
3.9619 3.7341e-23
3.9733 3.6349e-23
3.9847 3.5389e-23
3.9962 3.4459e-23
4.0078 3.3558e-23
4.0193 3.2687e-23
4.0309 3.1842e-23
4.0425 3.1025e-23
4.0542 3.0233e-23
4.0659 2.9466e-23
4.0776 2.8723e-23
4.0893 2.8003e-23
4.1011 2.7306e-23
4.113 2.663e-23
4.1248 2.5975e-23
4.1367 2.5341e-23
4.1486 2.4727e-23
4.1606 2.4131e-23
4.1726 2.3554e-23
4.1846 2.2994e-23
4.1967 2.2452e-23
4.2088 2.1926e-23
4.2209 2.1416e-23
4.2331 2.0921e-23
4.2453 2.0442e-23
4.2575 1.9977e-23
4.2698 1.9526e-23
4.2821 1.9089e-23
4.2945 1.8665e-23
4.3068 1.8254e-23
4.3193 1.7856e-23
4.3317 1.747e-23
4.3442 1.7096e-23
4.3567 1.6733e-23
4.3693 1.638e-23
4.3819 1.6038e-23
4.3945 1.5705e-23
4.4072 1.5383e-23
4.4199 1.507e-23
4.4326 1.4765e-23
4.4454 1.447e-23
4.4582 1.4183e-23
4.4711 1.3905e-23
4.484 1.3634e-23
4.4969 1.3371e-23
4.5099 1.3115e-23
4.5229 1.2867e-23
4.5359 1.2625e-23
4.549 1.2391e-23
4.5621 1.2162e-23
4.5753 1.194e-23
4.5884 1.1724e-23
4.6017 1.1514e-23
4.6149 1.131e-23
4.6282 1.1111e-23
4.6416 1.0917e-23
4.655 1.0729e-23
4.6684 1.0545e-23
4.6819 1.0366e-23
4.6953 1.0192e-23
4.7089 1.0023e-23
4.7225 9.8574e-24
4.7361 9.6964e-24
4.7497 9.5394e-24
4.7634 9.3863e-24
4.7772 9.237e-24
4.7909 9.0915e-24
4.8047 8.9494e-24
4.8186 8.8109e-24
4.8325 8.6756e-24
4.8464 8.5436e-24
4.8604 8.4147e-24
4.8744 8.2889e-24
4.8885 8.1659e-24
4.9026 8.0458e-24
4.9167 7.9284e-24
4.9309 7.8137e-24
4.9451 7.7016e-24
4.9593 7.5919e-24
4.9736 7.4847e-24
4.988 7.3798e-24
5.0024 7.2771e-24
5.0168 7.1767e-24
5.0312 7.0784e-24
5.0458 6.9821e-24
5.0603 6.8878e-24
5.0749 6.7955e-24
5.0895 6.7051e-24
5.1042 6.6165e-24
5.1189 6.5296e-24
5.1337 6.4445e-24
5.1485 6.361e-24
5.1633 6.2792e-24
5.1782 6.1989e-24
5.1931 6.1202e-24
5.2081 6.0429e-24
5.2231 5.9671e-24
5.2382 5.8927e-24
5.2533 5.8196e-24
5.2684 5.7478e-24
5.2836 5.6774e-24
5.2988 5.6081e-24
5.3141 5.5401e-24
5.3294 5.4733e-24
5.3448 5.4077e-24
5.3602 5.3431e-24
5.3757 5.2797e-24
5.3912 5.2173e-24
5.4067 5.1559e-24
5.4223 5.0955e-24
5.4379 5.0362e-24
5.4536 4.9778e-24
5.4693 4.9203e-24
5.4851 4.8637e-24
5.5009 4.808e-24
5.5168 4.7532e-24
5.5327 4.6993e-24
5.5486 4.6461e-24
5.5646 4.5938e-24
5.5807 4.5423e-24
5.5968 4.4915e-24
5.6129 4.4415e-24
5.6291 4.3922e-24
5.6453 4.3436e-24
5.6616 4.2958e-24
5.6779 4.2486e-24
5.6943 4.2021e-24
5.7107 4.1562e-24
5.7272 4.111e-24
5.7437 4.0665e-24
5.7602 4.0225e-24
5.7768 3.9792e-24
5.7935 3.9364e-24
5.8102 3.8943e-24
5.827 3.8527e-24
5.8438 3.8116e-24
5.8606 3.7711e-24
5.8775 3.7312e-24
5.8944 3.6912e-24
5.9114 3.6514e-24
5.9285 3.6122e-24
5.9456 3.5735e-24
5.9627 3.5353e-24
5.9799 3.4977e-24
5.9971 3.4605e-24
6.0144 3.4238e-24
6.0318 3.3876e-24
6.0492 3.3518e-24
6.0666 3.3166e-24
6.0841 3.2817e-24
6.1016 3.2474e-24
6.1192 3.2134e-24
6.1369 3.1799e-24
6.1546 3.1468e-24
6.1723 3.1142e-24
6.1901 3.0819e-24
6.208 3.0501e-24
6.2258 3.0186e-24
6.2438 2.9875e-24
6.2618 2.9569e-24
6.2799 2.9266e-24
6.298 2.8966e-24
6.3161 2.8671e-24
6.3343 2.8379e-24
6.3526 2.809e-24
6.3709 2.7805e-24
6.3893 2.7524e-24
6.4077 2.7246e-24
6.4262 2.6971e-24
6.4447 2.67e-24
6.4633 2.6432e-24
6.4819 2.6167e-24
6.5006 2.5905e-24
6.5193 2.5646e-24
6.5381 2.5391e-24
6.557 2.5138e-24
6.5759 2.4888e-24
6.5948 2.4642e-24
6.6139 2.4398e-24
6.6329 2.4157e-24
6.6521 2.3917e-24
6.6712 2.3678e-24
6.6905 2.3442e-24
6.7098 2.3208e-24
6.7291 2.2978e-24
6.7485 2.275e-24
6.768 2.2525e-24
6.7875 2.2302e-24
6.807 2.2082e-24
6.8267 2.1865e-24
6.8463 2.165e-24
6.8661 2.1437e-24
6.8859 2.1227e-24
6.9057 2.102e-24
6.9256 2.0815e-24
6.9456 2.0612e-24
6.9656 2.0411e-24
6.9857 2.0213e-24
7.0059 2.0018e-24
7.0261 1.9824e-24
7.0463 1.9633e-24
7.0666 1.9443e-24
7.087 1.9256e-24
7.1074 1.9071e-24
7.1279 1.8889e-24
7.1485 1.8708e-24
7.1691 1.853e-24
7.1898 1.8353e-24
7.2105 1.8179e-24
7.2313 1.8006e-24
7.2521 1.7835e-24
7.273 1.7666e-24
7.294 1.7499e-24
7.315 1.7335e-24
7.3361 1.7172e-24
7.3573 1.701e-24
7.3785 1.6851e-24
7.3998 1.6694e-24
7.4211 1.6538e-24
7.4425 1.6384e-24
7.4639 1.6232e-24
7.4855 1.6081e-24
7.507 1.5933e-24
7.5287 1.5785e-24
7.5504 1.564e-24
7.5722 1.5496e-24
7.594 1.5353e-24
7.6159 1.5213e-24
7.6378 1.5074e-24
7.6599 1.4936e-24
7.6819 1.48e-24
7.7041 1.4666e-24
7.7263 1.4533e-24
7.7486 1.4402e-24
7.7709 1.4271e-24
7.7933 1.4143e-24
7.8158 1.4016e-24
7.8383 1.389e-24
7.8609 1.3766e-24
7.8836 1.3643e-24
7.9063 1.3521e-24
7.9291 1.34e-24
7.952 1.3282e-24
7.9749 1.3164e-24
7.9979 1.3048e-24
8.021 1.2933e-24
8.0441 1.282e-24
8.0673 1.2707e-24
8.0905 1.2596e-24
8.1139 1.2486e-24
8.1372 1.2377e-24
8.1607 1.2269e-24
8.1842 1.2164e-24
8.2078 1.2058e-24
8.2315 1.1954e-24
8.2552 1.1851e-24
8.279 1.1749e-24
8.3029 1.1648e-24
8.3268 1.1549e-24
8.3508 1.145e-24
8.3749 1.1353e-24
8.3991 1.1257e-24
8.4233 1.1161e-24
8.4476 1.1067e-24
8.4719 1.0974e-24
8.4963 1.0881e-24
8.5208 1.079e-24
8.5454 1.0699e-24
8.57 1.061e-24
8.5948 1.0522e-24
8.6195 1.0434e-24
8.6444 1.0349e-24
8.6693 1.0264e-24
8.6943 1.0178e-24
8.7194 1.0094e-24
8.7445 1.0012e-24
8.7697 9.9304e-25
8.795 9.8495e-25
8.8204 9.7692e-25
8.8458 9.6897e-25
8.8713 9.6111e-25
8.8969 9.534e-25
8.9225 9.4577e-25
8.9482 9.3812e-25
8.974 9.3062e-25
8.9999 9.232e-25
9.0259 9.1587e-25
9.0519 9.0861e-25
9.078 9.0147e-25
9.1042 8.9439e-25
9.1304 8.8729e-25
9.1567 8.8037e-25
9.1831 8.735e-25
9.2096 8.6669e-25
9.2362 8.6e-25
9.2628 8.5334e-25
9.2895 8.4679e-25
9.3163 8.4028e-25
9.3431 8.3384e-25
9.3701 8.2748e-25
9.3971 8.2118e-25
9.4242 8.1495e-25
9.4514 8.088e-25
9.4786 8.0269e-25
9.5059 7.9666e-25
9.5333 7.9071e-25
9.5608 7.8482e-25
9.5884 7.7897e-25
9.616 7.7324e-25
9.6438 7.6753e-25
9.6716 7.6185e-25
9.6994 7.5629e-25
9.7274 7.5076e-25
9.7555 7.453e-25
9.7836 7.3991e-25
9.8118 7.3459e-25
9.8401 7.2931e-25
9.8684 7.2408e-25
9.8969 7.1891e-25
9.9254 7.1381e-25
9.954 7.0876e-25
9.9827 7.0376e-25
10.012 6.989e-25
10.04 6.9416e-25
10.069 6.8949e-25
10.098 6.8489e-25
10.127 6.8033e-25
10.157 6.7579e-25
10.186 6.7133e-25
10.215 6.6691e-25
10.245 6.6253e-25
10.274 6.5819e-25
10.304 6.539e-25
10.334 6.4965e-25
10.363 6.4545e-25
10.393 6.4129e-25
10.423 6.3718e-25
10.453 6.3311e-25
10.483 6.2908e-25
10.514 6.251e-25
10.544 6.2115e-25
10.574 6.1725e-25
10.605 6.1338e-25
10.635 6.0957e-25
10.666 6.0579e-25
10.697 6.0204e-25
10.728 5.9834e-25
10.759 5.9468e-25
10.79 5.9105e-25
10.821 5.8746e-25
10.852 5.8391e-25
10.883 5.804e-25
10.915 5.7693e-25
10.946 5.7348e-25
10.978 5.7008e-25
11.009 5.6671e-25
11.041 5.6338e-25
11.073 5.6008e-25
11.105 5.5682e-25
11.137 5.5359e-25
11.169 5.504e-25
11.201 5.4724e-25
11.233 5.441e-25
11.266 5.41e-25
11.298 5.3794e-25
11.331 5.3492e-25
11.364 5.3192e-25
11.396 5.2894e-25
11.429 5.2601e-25
11.462 5.231e-25
11.495 5.2023e-25
11.528 5.1739e-25
11.562 5.1457e-25
11.595 5.1179e-25
11.628 5.0903e-25
11.662 5.063e-25
11.695 5.0361e-25
11.729 5.0094e-25
11.763 4.983e-25
11.797 4.9568e-25
11.831 4.9308e-25
11.865 4.9053e-25
11.899 4.8801e-25
11.934 4.855e-25
11.968 4.8302e-25
12.002 4.8056e-25
12.037 4.7814e-25
12.072 4.7574e-25
12.107 4.7337e-25
12.141 4.7101e-25
12.176 4.687e-25
12.212 4.664e-25
12.247 4.6413e-25
12.282 4.6187e-25
12.318 4.5966e-25
12.353 4.5746e-25
12.389 4.5528e-25
12.424 4.5311e-25
12.46 4.5099e-25
12.496 4.4889e-25
12.532 4.4681e-25
12.568 4.4476e-25
12.604 4.4272e-25
12.641 4.4069e-25
12.677 4.387e-25
12.714 4.3673e-25
12.75 4.348e-25
12.787 4.3285e-25
12.824 4.3094e-25
12.861 4.2906e-25
12.898 4.2719e-25
12.935 4.2536e-25
12.973 4.2354e-25
13.01 4.2175e-25
13.048 4.1998e-25
13.085 4.1824e-25
13.123 4.165e-25
13.161 4.1479e-25
13.199 4.131e-25
13.237 4.1138e-25
13.275 4.0971e-25
13.313 4.0809e-25
13.352 4.0649e-25
13.39 4.0488e-25
13.429 4.0326e-25
13.467 4.0177e-25
13.506 4.002e-25
13.545 3.9866e-25
13.584 3.9713e-25
13.623 3.956e-25
13.663 3.9412e-25
13.702 3.9268e-25
13.742 3.9115e-25
13.781 3.898e-25
13.821 3.8841e-25
13.861 3.8695e-25
13.901 3.8547e-25
13.941 3.8407e-25
13.981 3.8269e-25
14.021 3.8129e-25
14.062 3.8003e-25
14.102 3.7874e-25
14.143 3.7736e-25
14.184 3.7591e-25
14.225 3.7469e-25
14.266 3.7333e-25
14.307 3.7208e-25
14.348 3.7071e-25
14.389 3.6948e-25
14.431 3.6825e-25
14.472 3.6686e-25
14.514 3.6568e-25
14.556 3.6449e-25
14.598 3.6319e-25
14.64 3.6199e-25
14.682 3.6092e-25
14.725 3.5958e-25
14.767 3.584e-25
14.81 3.5722e-25
14.852 3.5598e-25
14.895 3.5491e-25
14.938 3.5383e-25
14.981 3.5255e-25
15.024 3.5146e-25
15.068 3.5034e-25
15.111 3.493e-25
15.155 3.4813e-25
15.198 3.4711e-25
15.242 3.4602e-25
15.286 3.45e-25
15.33 3.4395e-25
15.374 3.4289e-25
15.419 3.4183e-25
15.463 3.4082e-25
15.508 3.3984e-25
15.552 3.3887e-25
15.597 3.3789e-25
15.642 3.3694e-25
15.687 3.3596e-25
15.733 3.3503e-25
15.778 3.341e-25
15.823 3.3317e-25
15.869 3.323e-25
15.915 3.314e-25
15.961 3.305e-25
16.007 3.2962e-25
16.053 3.2875e-25
16.099 3.2788e-25
16.146 3.2702e-25
16.192 3.2619e-25
16.239 3.2537e-25
16.286 3.2457e-25
16.333 3.2372e-25
16.38 3.2293e-25
16.427 3.2214e-25
16.474 3.2135e-25
16.522 3.2059e-25
16.569 3.1978e-25
16.617 3.1901e-25
16.665 3.1828e-25
16.713 3.1751e-25
16.761 3.1679e-25
16.81 3.1604e-25
16.858 3.1531e-25
16.907 3.1464e-25
16.955 3.1387e-25
17.004 3.1315e-25
17.053 3.1245e-25
17.102 3.1177e-25
17.152 3.1109e-25
17.201 3.1039e-25
17.251 3.0971e-25
17.301 3.0903e-25
17.35 3.0839e-25
17.4 3.0772e-25
17.451 3.0709e-25
17.501 3.0644e-25
17.551 3.058e-25
17.602 3.0517e-25
17.653 3.0455e-25
17.704 3.0394e-25
17.755 3.0332e-25
17.806 3.0272e-25
17.857 3.0212e-25
17.909 3.0153e-25
17.96 3.0094e-25
18.012 3.0036e-25
18.064 2.9979e-25
18.116 2.9922e-25
18.168 2.9865e-25
18.221 2.981e-25
18.273 2.9754e-25
18.326 2.9699e-25
18.379 2.9646e-25
18.432 2.9592e-25
18.485 2.9539e-25
18.538 2.9486e-25
18.592 2.9434e-25
18.645 2.9382e-25
18.699 2.9331e-25
18.753 2.928e-25
18.807 2.9229e-25
18.861 2.918e-25
18.916 2.913e-25
18.97 2.9082e-25
19.025 2.9033e-25
19.08 2.8985e-25
19.135 2.8938e-25
19.19 2.889e-25
19.245 2.8844e-25
19.301 2.8798e-25
19.356 2.8752e-25
19.412 2.8707e-25
19.468 2.8662e-25
19.524 2.8618e-25
19.58 2.8573e-25
19.637 2.8529e-25
19.694 2.8485e-25
19.75 2.8443e-25
19.807 2.84e-25
19.864 2.8357e-25
19.922 2.8316e-25
19.979 2.8274e-25
20.037 2.8234e-25
20.094 2.8193e-25
20.152 2.8152e-25
20.21 2.8113e-25
20.269 2.8072e-25
20.327 2.8033e-25
20.386 2.7994e-25
20.445 2.7955e-25
20.503 2.7917e-25
20.563 2.7879e-25
20.622 2.7841e-25
20.681 2.7803e-25
20.741 2.7766e-25
20.801 2.7729e-25
20.861 2.7693e-25
20.921 2.7656e-25
20.981 2.7621e-25
21.042 2.7585e-25
21.102 2.755e-25
21.163 2.7515e-25
21.224 2.748e-25
21.285 2.7445e-25
21.347 2.7412e-25
21.408 2.7378e-25
21.47 2.7344e-25
21.532 2.731e-25
21.594 2.7278e-25
21.656 2.7245e-25
21.719 2.7212e-25
21.781 2.7182e-25
21.844 2.7148e-25
21.907 2.7116e-25
21.97 2.7085e-25
22.034 2.7054e-25
22.097 2.7023e-25
22.161 2.6992e-25
22.225 2.6961e-25
22.289 2.6931e-25
22.353 2.6901e-25
22.418 2.687e-25
22.482 2.6841e-25
22.547 2.6813e-25
22.612 2.6782e-25
22.677 2.6754e-25
22.743 2.6723e-25
22.808 2.6696e-25
22.874 2.6667e-25
22.94 2.6639e-25
23.006 2.661e-25
23.072 2.6582e-25
23.139 2.6555e-25
23.206 2.6526e-25
23.272 2.6499e-25
23.34 2.6473e-25
23.407 2.6445e-25
23.474 2.6418e-25
23.542 2.6392e-25
23.61 2.6366e-25
23.678 2.634e-25
23.746 2.6313e-25
23.815 2.6288e-25
23.883 2.6262e-25
23.952 2.6237e-25
24.021 2.6212e-25
24.09 2.6187e-25
24.16 2.6162e-25
24.23 2.6138e-25
24.299 2.6114e-25
24.37 2.6089e-25
24.44 2.6065e-25
24.51 2.6042e-25
24.581 2.6017e-25
24.652 2.5994e-25
24.723 2.5971e-25
24.794 2.5947e-25
24.866 2.5924e-25
24.937 2.5901e-25
25.009 2.5879e-25
25.081 2.5857e-25
25.154 2.5834e-25
25.226 2.5812e-25
25.299 2.5789e-25
25.372 2.5768e-25
25.445 2.5745e-25
25.518 2.5724e-25
25.592 2.5702e-25
25.666 2.5681e-25
25.74 2.5661e-25
25.814 2.5639e-25
25.888 2.5618e-25
25.963 2.5598e-25
26.038 2.5577e-25
26.113 2.5557e-25
26.188 2.5536e-25
26.264 2.5516e-25
26.339 2.5496e-25
26.415 2.5476e-25
26.491 2.5457e-25
26.568 2.5436e-25
26.644 2.5417e-25
26.721 2.5398e-25
26.798 2.5378e-25
26.876 2.5359e-25
26.953 2.5339e-25
27.031 2.532e-25
27.109 2.53e-25
27.187 2.5282e-25
27.265 2.5263e-25
27.344 2.5244e-25
27.423 2.5225e-25
27.502 2.5206e-25
27.581 2.5189e-25
27.661 2.517e-25
27.74 2.5152e-25
27.82 2.5134e-25
27.9 2.5116e-25
27.981 2.51e-25
28.062 2.5079e-25
28.142 2.506e-25
28.224 2.5043e-25
28.305 2.5027e-25
28.387 2.5012e-25
28.468 2.4992e-25
28.551 2.4975e-25
28.633 2.4958e-25
28.715 2.4943e-25
28.798 2.4925e-25
28.881 2.4906e-25
28.964 2.4891e-25
29.048 2.4875e-25
29.132 2.4856e-25
29.216 2.484e-25
29.3 2.4822e-25
29.384 2.4806e-25
29.469 2.479e-25
29.554 2.4774e-25
29.639 2.4758e-25
29.725 2.4741e-25
29.81 2.4725e-25
29.896 2.4708e-25
29.983 2.4693e-25
30.069 2.4677e-25
30.156 2.4662e-25
30.243 2.4646e-25
30.33 2.463e-25
30.417 2.4615e-25
30.505 2.46e-25
30.593 2.4585e-25
30.681 2.457e-25
30.77 2.4555e-25
30.858 2.454e-25
30.947 2.4525e-25
31.037 2.451e-25
31.126 2.4495e-25
31.216 2.4481e-25
31.306 2.4466e-25
31.396 2.4452e-25
31.487 2.4437e-25
31.577 2.4423e-25
31.668 2.4409e-25
31.76 2.4395e-25
31.851 2.438e-25
31.943 2.4366e-25
32.035 2.4352e-25
32.127 2.4339e-25
32.22 2.4325e-25
32.313 2.4311e-25
32.406 2.4297e-25
32.5 2.4284e-25
32.593 2.427e-25
32.687 2.4257e-25
32.782 2.4243e-25
32.876 2.423e-25
32.971 2.4217e-25
33.066 2.4203e-25
33.161 2.419e-25
33.257 2.4177e-25
33.353 2.4164e-25
33.449 2.4151e-25
33.545 2.4138e-25
33.642 2.4125e-25
33.739 2.4113e-25
33.836 2.41e-25
33.934 2.4087e-25
34.032 2.4075e-25
34.13 2.4062e-25
34.228 2.4049e-25
34.327 2.4037e-25
34.426 2.4025e-25
34.525 2.4012e-25
34.625 2.4e-25
34.724 2.3988e-25
34.825 2.3976e-25
34.925 2.3963e-25
35.026 2.3951e-25
35.127 2.3939e-25
35.228 2.3927e-25
35.329 2.3915e-25
35.431 2.3903e-25
35.533 2.3892e-25
35.636 2.388e-25
35.739 2.3868e-25
35.842 2.3856e-25
35.945 2.3845e-25
36.049 2.3833e-25
36.153 2.3822e-25
36.257 2.381e-25
36.361 2.3799e-25
36.466 2.3787e-25
36.571 2.3776e-25
36.677 2.3765e-25
36.783 2.3754e-25
36.889 2.3743e-25
36.995 2.3732e-25
37.102 2.372e-25
37.209 2.3709e-25
37.316 2.3698e-25
37.423 2.3687e-25
37.531 2.3676e-25
37.64 2.3665e-25
37.748 2.3655e-25
37.857 2.3644e-25
37.966 2.3633e-25
38.075 2.3622e-25
38.185 2.3612e-25
38.295 2.3601e-25
38.406 2.359e-25
38.516 2.358e-25
38.628 2.357e-25
38.739 2.3559e-25
38.851 2.3549e-25
38.963 2.3538e-25
39.075 2.3528e-25
39.188 2.3518e-25
39.301 2.3508e-25
39.414 2.3497e-25
39.527 2.3487e-25
39.641 2.3477e-25
39.756 2.3467e-25
39.87 2.3457e-25
39.985 2.3447e-25
40.101 2.3437e-25
40.216 2.3427e-25
40.332 2.3417e-25
40.448 2.3408e-25
40.565 2.3398e-25
40.682 2.3388e-25
40.799 2.3379e-25
40.917 2.3369e-25
41.035 2.3359e-25
41.153 2.3349e-25
41.272 2.334e-25
41.391 2.333e-25
41.51 2.3321e-25
41.63 2.3312e-25
41.75 2.3302e-25
41.87 2.3293e-25
41.991 2.3284e-25
42.112 2.3274e-25
42.233 2.3265e-25
42.355 2.3256e-25
42.477 2.3247e-25
42.6 2.3237e-25
42.723 2.3228e-25
42.846 2.3219e-25
42.969 2.321e-25
43.093 2.3201e-25
43.217 2.3193e-25
43.342 2.3183e-25
43.467 2.3174e-25
43.592 2.3165e-25
43.718 2.3156e-25
43.844 2.3147e-25
43.97 2.3138e-25
44.097 2.3129e-25
44.224 2.3121e-25
44.352 2.3112e-25
44.48 2.3103e-25
44.608 2.3094e-25
44.737 2.3086e-25
44.866 2.3077e-25
44.995 2.3068e-25
45.125 2.306e-25
45.255 2.3051e-25
45.385 2.3043e-25
45.516 2.3034e-25
45.647 2.3026e-25
45.779 2.3017e-25
45.911 2.3009e-25
46.043 2.3001e-25
46.176 2.2993e-25
46.309 2.2984e-25
46.443 2.2976e-25
46.577 2.2968e-25
46.711 2.296e-25
46.845 2.2952e-25
46.981 2.2944e-25
47.116 2.2935e-25
47.252 2.2927e-25
47.388 2.292e-25
47.525 2.2912e-25
47.662 2.2904e-25
47.799 2.2896e-25
47.937 2.2888e-25
48.075 2.288e-25
48.214 2.2873e-25
48.353 2.2865e-25
48.492 2.2857e-25
48.632 2.2849e-25
48.772 2.2841e-25
48.913 2.2833e-25
49.054 2.2826e-25
49.195 2.2818e-25
49.337 2.281e-25
49.479 2.2802e-25
49.622 2.2795e-25
49.765 2.2787e-25
49.909 2.278e-25
50.052 2.2772e-25
50.197 2.2764e-25
50.341 2.2757e-25
50.487 2.2749e-25
50.632 2.2742e-25
50.778 2.2735e-25
50.924 2.2727e-25
51.071 2.272e-25
51.219 2.2713e-25
51.366 2.2705e-25
51.514 2.2698e-25
51.663 2.2691e-25
51.812 2.2684e-25
51.961 2.2676e-25
52.111 2.2669e-25
52.261 2.2662e-25
52.412 2.2655e-25
52.563 2.2648e-25
52.715 2.2641e-25
52.867 2.2634e-25
53.019 2.2627e-25
53.172 2.262e-25
53.325 2.2613e-25
53.479 2.2606e-25
53.633 2.2599e-25
53.788 2.2592e-25
53.943 2.2585e-25
54.098 2.2578e-25
54.254 2.2571e-25
54.411 2.2565e-25
54.568 2.2558e-25
54.725 2.2551e-25
54.883 2.2544e-25
55.041 2.2538e-25
55.2 2.2531e-25
55.359 2.2524e-25
55.518 2.2518e-25
55.678 2.2511e-25
55.839 2.2505e-25
56 2.2498e-25
56.161 2.2492e-25
56.323 2.2485e-25
56.486 2.2479e-25
56.648 2.2472e-25
56.812 2.2466e-25
56.976 2.2459e-25
57.14 2.2453e-25
57.305 2.2447e-25
57.47 2.244e-25
57.636 2.2434e-25
57.802 2.2428e-25
57.968 2.2422e-25
58.135 2.2415e-25
58.303 2.2409e-25
58.471 2.2403e-25
58.64 2.2397e-25
58.809 2.2391e-25
58.978 2.2385e-25
59.148 2.2378e-25
59.319 2.2372e-25
59.49 2.2366e-25
59.661 2.236e-25
59.833 2.2353e-25
60.006 2.2347e-25
60.179 2.2341e-25
60.352 2.2335e-25
60.526 2.2329e-25
60.701 2.2323e-25
60.876 2.2317e-25
61.052 2.2311e-25
61.228 2.2305e-25
61.404 2.2299e-25
61.581 2.2293e-25
61.759 2.2287e-25
61.937 2.2281e-25
62.115 2.2275e-25
62.294 2.227e-25
62.474 2.2264e-25
62.654 2.2258e-25
62.835 2.2252e-25
63.016 2.2247e-25
63.198 2.2241e-25
63.38 2.2235e-25
63.562 2.2229e-25
63.746 2.2224e-25
63.93 2.2218e-25
64.114 2.2213e-25
64.299 2.2207e-25
64.484 2.2201e-25
64.67 2.2196e-25
64.856 2.219e-25
65.043 2.2185e-25
65.231 2.2179e-25
65.419 2.2174e-25
65.608 2.2168e-25
65.797 2.2163e-25
65.986 2.2158e-25
66.177 2.2152e-25
66.368 2.2147e-25
66.559 2.2141e-25
66.751 2.2136e-25
66.943 2.2131e-25
67.136 2.2125e-25
67.33 2.212e-25
67.524 2.2115e-25
67.719 2.211e-25
67.914 2.2104e-25
68.11 2.2099e-25
68.306 2.2094e-25
68.503 2.2089e-25
68.7 2.2084e-25
68.898 2.2079e-25
69.097 2.2073e-25
69.296 2.2068e-25
69.496 2.2063e-25
69.696 2.2058e-25
69.897 2.2053e-25
70.099 2.2048e-25
70.301 2.2043e-25
70.504 2.2038e-25
70.707 2.2033e-25
70.911 2.2028e-25
71.115 2.2023e-25
71.32 2.2018e-25
71.526 2.2014e-25
71.732 2.2009e-25
71.939 2.2004e-25
72.146 2.1999e-25
72.354 2.1994e-25
72.563 2.1989e-25
72.772 2.1984e-25
72.982 2.198e-25
73.192 2.1975e-25
73.403 2.197e-25
73.615 2.1965e-25
73.827 2.1961e-25
74.04 2.1956e-25
74.254 2.1951e-25
74.468 2.1947e-25
74.682 2.1942e-25
74.898 2.1938e-25
75.114 2.1933e-25
75.33 2.1929e-25
75.547 2.1924e-25
75.765 2.192e-25
75.984 2.1915e-25
76.203 2.1911e-25
76.422 2.1906e-25
76.643 2.1902e-25
76.864 2.1897e-25
77.085 2.1893e-25
77.308 2.1888e-25
77.53 2.1884e-25
77.754 2.1879e-25
77.978 2.1875e-25
78.203 2.187e-25
78.428 2.1866e-25
78.655 2.1862e-25
78.881 2.1857e-25
79.109 2.1853e-25
79.337 2.1849e-25
79.566 2.1844e-25
79.795 2.184e-25
80.025 2.1836e-25
80.256 2.1832e-25
80.487 2.1827e-25
80.719 2.1823e-25
80.952 2.1819e-25
81.185 2.1815e-25
81.419 2.1811e-25
81.654 2.1807e-25
81.89 2.1803e-25
82.126 2.1799e-25
82.362 2.1795e-25
82.6 2.1791e-25
82.838 2.1787e-25
83.077 2.1783e-25
83.316 2.1779e-25
83.557 2.1775e-25
83.797 2.1772e-25
84.039 2.1768e-25
84.281 2.1764e-25
84.524 2.176e-25
84.768 2.1756e-25
85.012 2.1752e-25
85.258 2.1748e-25
85.503 2.1743e-25
85.75 2.1739e-25
85.997 2.1736e-25
86.245 2.1732e-25
86.494 2.1728e-25
86.743 2.1724e-25
86.993 2.172e-25
87.244 2.1717e-25
87.495 2.1713e-25
87.748 2.1709e-25
88.001 2.1706e-25
88.254 2.1702e-25
88.509 2.1698e-25
88.764 2.1695e-25
89.02 2.1691e-25
89.277 2.1688e-25
89.534 2.1684e-25
89.792 2.168e-25
90.051 2.1677e-25
90.311 2.1673e-25
90.571 2.167e-25
90.832 2.1666e-25
91.094 2.1662e-25
91.357 2.1659e-25
91.62 2.1655e-25
91.884 2.1652e-25
92.149 2.1649e-25
92.415 2.1645e-25
92.681 2.1642e-25
92.948 2.1638e-25
93.216 2.1635e-25
93.485 2.1632e-25
93.755 2.1628e-25
94.025 2.1625e-25
94.296 2.1622e-25
94.568 2.1618e-25
94.841 2.1615e-25
95.114 2.1612e-25
95.388 2.1608e-25
95.663 2.1605e-25
95.939 2.1602e-25
96.216 2.1599e-25
96.493 2.1596e-25
96.771 2.1592e-25
97.05 2.1589e-25
97.33 2.1586e-25
97.611 2.1583e-25
97.892 2.158e-25
98.174 2.1577e-25
98.457 2.1574e-25
98.741 2.1571e-25
99.026 2.1568e-25
99.311 2.1565e-25
99.598 2.1562e-25
99.885 2.1559e-25
100.17 2.1556e-25
100.46 2.1553e-25
100.75 2.155e-25
101.04 2.1547e-25
101.33 2.1544e-25
101.63 2.1541e-25
101.92 2.1538e-25
102.21 2.1535e-25
102.51 2.1532e-25
102.8 2.153e-25
103.1 2.1527e-25
103.4 2.1524e-25
103.69 2.1521e-25
103.99 2.1518e-25
104.29 2.1516e-25
104.59 2.1513e-25
104.9 2.151e-25
105.2 2.1508e-25
105.5 2.1505e-25
105.8 2.1502e-25
106.11 2.15e-25
106.42 2.1497e-25
106.72 2.1494e-25
107.03 2.1492e-25
107.34 2.1489e-25
107.65 2.1486e-25
107.96 2.1484e-25
108.27 2.1481e-25
108.58 2.1479e-25
108.9 2.1476e-25
109.21 2.1474e-25
109.52 2.1471e-25
109.84 2.1469e-25
110.16 2.1466e-25
110.47 2.1464e-25
110.79 2.1462e-25
111.11 2.1459e-25
111.43 2.1457e-25
111.75 2.1455e-25
112.08 2.1452e-25
112.4 2.145e-25
112.72 2.1448e-25
113.05 2.1445e-25
113.37 2.1443e-25
113.7 2.1441e-25
114.03 2.1439e-25
114.36 2.1437e-25
114.69 2.1434e-25
115.02 2.1432e-25
115.35 2.143e-25
115.68 2.1428e-25
116.02 2.1426e-25
116.35 2.1425e-25
116.69 2.1424e-25
117.02 2.1423e-25
117.36 2.1422e-25
117.7 2.142e-25
118.04 2.1417e-25
118.38 2.1414e-25
118.72 2.1411e-25
119.06 2.1408e-25
119.4 2.1406e-25
119.75 2.1403e-25
120.09 2.1401e-25
120.44 2.1399e-25
120.79 2.1397e-25
121.14 2.1395e-25
121.48 2.1393e-25
121.83 2.1391e-25
122.19 2.1389e-25
122.54 2.1388e-25
122.89 2.1386e-25
123.25 2.1384e-25
123.6 2.1382e-25
123.96 2.138e-25
124.32 2.1379e-25
124.67 2.1377e-25
125.03 2.1375e-25
125.39 2.1373e-25
125.75 2.1372e-25
126.12 2.137e-25
126.48 2.1368e-25
126.85 2.1367e-25
127.21 2.1365e-25
127.58 2.1363e-25
127.95 2.1362e-25
128.31 2.136e-25
128.68 2.1359e-25
129.06 2.1357e-25
129.43 2.1356e-25
129.8 2.1354e-25
130.18 2.1353e-25
130.55 2.1351e-25
130.93 2.135e-25
131.3 2.1348e-25
131.68 2.1347e-25
132.06 2.1346e-25
132.44 2.1344e-25
132.83 2.1343e-25
133.21 2.1342e-25
133.59 2.134e-25
133.98 2.1339e-25
134.36 2.1338e-25
134.75 2.1336e-25
135.14 2.1335e-25
135.53 2.1334e-25
135.92 2.1333e-25
136.31 2.1332e-25
136.7 2.133e-25
137.1 2.1329e-25
137.49 2.1328e-25
137.89 2.1327e-25
138.29 2.1326e-25
138.69 2.1325e-25
139.09 2.1324e-25
139.49 2.1323e-25
139.89 2.1322e-25
140.29 2.1321e-25
140.7 2.132e-25
141.1 2.1319e-25
141.51 2.1318e-25
141.92 2.1317e-25
142.33 2.1316e-25
142.74 2.1315e-25
143.15 2.1314e-25
143.56 2.1313e-25
143.98 2.1312e-25
144.39 2.1312e-25
144.81 2.1311e-25
145.22 2.131e-25
145.64 2.1309e-25
146.06 2.1309e-25
146.48 2.1308e-25
146.91 2.1307e-25
147.33 2.1307e-25
147.76 2.1306e-25
148.18 2.1305e-25
148.61 2.1304e-25
149.04 2.1304e-25
149.47 2.1303e-25
149.9 2.1303e-25
150.33 2.1302e-25
150.76 2.1302e-25
151.2 2.1301e-25
151.63 2.1301e-25
152.07 2.13e-25
152.51 2.13e-25
152.95 2.1299e-25
153.39 2.1299e-25
153.83 2.1299e-25
154.28 2.1298e-25
154.72 2.1298e-25
155.17 2.1298e-25
155.61 2.1297e-25
156.06 2.1297e-25
156.51 2.1297e-25
156.96 2.1296e-25
157.42 2.1296e-25
157.87 2.1296e-25
158.33 2.1296e-25
158.78 2.1296e-25
159.24 2.1296e-25
159.7 2.1296e-25
160.16 2.1296e-25
160.62 2.1296e-25
161.08 2.1296e-25
161.55 2.1296e-25
162.01 2.1295e-25
162.48 2.1295e-25
162.95 2.1295e-25
163.42 2.1295e-25
163.89 2.1295e-25
164.36 2.1296e-25
164.84 2.1296e-25
165.31 2.1296e-25
165.79 2.1296e-25
166.27 2.1297e-25
166.75 2.1297e-25
167.23 2.1298e-25
167.71 2.1299e-25
168.19 2.13e-25
168.68 2.13e-25
169.16 2.13e-25
169.65 2.1299e-25
170.14 2.1299e-25
170.63 2.1299e-25
171.12 2.13e-25
171.62 2.13e-25
172.11 2.1301e-25
172.61 2.1301e-25
173.1 2.1302e-25
173.6 2.1302e-25
174.1 2.1303e-25
174.61 2.1304e-25
175.11 2.1305e-25
175.61 2.1305e-25
176.12 2.1306e-25
176.63 2.1307e-25
177.14 2.1308e-25
177.65 2.1309e-25
178.16 2.131e-25
178.67 2.1311e-25
179.19 2.1313e-25
179.71 2.1314e-25
180.22 2.1316e-25
180.74 2.1318e-25
181.27 2.1321e-25
181.79 2.1324e-25
182.31 2.1327e-25
182.84 2.1332e-25
183.36 2.1339e-25
183.89 2.135e-25
184.42 2.1367e-25
184.96 2.1399e-25
185.49 2.1475e-25
186.02 2.1734e-25
186.56 2.4358e-25
187.1 2.5829e-25
187.64 2.1785e-25
188.18 2.1485e-25
188.72 2.1405e-25
189.26 2.1374e-25
189.81 2.1359e-25
190.36 2.1351e-25
190.91 2.1347e-25
191.46 2.1344e-25
192.01 2.1343e-25
192.56 2.1342e-25
193.12 2.1342e-25
193.67 2.1343e-25
194.23 2.1343e-25
194.79 2.1344e-25
195.35 2.1345e-25
195.92 2.1346e-25
196.48 2.1347e-25
197.05 2.1348e-25
197.62 2.135e-25
198.19 2.1351e-25
198.76 2.1353e-25
199.33 2.1354e-25
199.91 2.1356e-25
200.48 2.1357e-25
201.06 2.1359e-25
201.64 2.1361e-25
202.22 2.1363e-25
202.8 2.1364e-25
203.39 2.1366e-25
203.98 2.1368e-25
204.56 2.137e-25
205.15 2.1372e-25
205.74 2.1374e-25
206.34 2.1376e-25
206.93 2.1378e-25
207.53 2.138e-25
208.13 2.1382e-25
208.73 2.1384e-25
209.33 2.1386e-25
209.93 2.1388e-25
210.54 2.139e-25
211.15 2.1393e-25
211.75 2.1395e-25
212.36 2.1397e-25
212.98 2.14e-25
213.59 2.1402e-25
214.21 2.1404e-25
214.82 2.1407e-25
215.44 2.1409e-25
216.06 2.1412e-25
216.69 2.1414e-25
217.31 2.1417e-25
217.94 2.1419e-25
218.57 2.1422e-25
219.2 2.1425e-25
219.83 2.1427e-25
220.46 2.143e-25
221.1 2.1433e-25
221.74 2.1435e-25
222.38 2.1438e-25
223.02 2.1441e-25
223.66 2.1444e-25
224.3 2.1447e-25
224.95 2.145e-25
225.6 2.1453e-25
226.25 2.1456e-25
226.9 2.1459e-25
227.56 2.1462e-25
228.21 2.1465e-25
228.87 2.1468e-25
229.53 2.1471e-25
230.19 2.1474e-25
230.86 2.1478e-25
231.52 2.1481e-25
232.19 2.1484e-25
232.86 2.1487e-25
233.53 2.1491e-25
234.2 2.1494e-25
234.88 2.1498e-25
235.56 2.1501e-25
236.23 2.1505e-25
236.92 2.1508e-25
237.6 2.1512e-25
238.28 2.1516e-25
238.97 2.152e-25
239.66 2.1523e-25
240.35 2.1526e-25
241.04 2.153e-25
241.74 2.1534e-25
242.44 2.1537e-25
243.13 2.1541e-25
243.84 2.1545e-25
244.54 2.1549e-25
245.24 2.1553e-25
245.95 2.1557e-25
246.66 2.1561e-25
247.37 2.1565e-25
248.08 2.1569e-25
248.8 2.1573e-25
249.52 2.1577e-25
250.24 2.1582e-25
250.96 2.1586e-25
251.68 2.159e-25
252.41 2.1595e-25
253.13 2.1599e-25
253.86 2.1603e-25
254.6 2.1608e-25
255.33 2.1612e-25
256.07 2.1617e-25
256.8 2.1621e-25
257.54 2.1626e-25
258.29 2.163e-25
259.03 2.1635e-25
259.78 2.164e-25
260.53 2.1644e-25
261.28 2.1649e-25
262.03 2.1654e-25
262.79 2.1659e-25
263.55 2.1664e-25
264.31 2.1669e-25
265.07 2.1674e-25
265.83 2.1679e-25
266.6 2.1684e-25
267.37 2.1689e-25
268.14 2.1694e-25
268.91 2.1699e-25
269.69 2.1704e-25
270.46 2.171e-25
271.24 2.1715e-25
272.02 2.172e-25
272.81 2.1726e-25
273.6 2.1731e-25
274.38 2.1736e-25
275.18 2.1742e-25
275.97 2.1748e-25
276.76 2.1753e-25
277.56 2.1759e-25
278.36 2.1764e-25
279.17 2.177e-25
279.97 2.1776e-25
280.78 2.1782e-25
281.59 2.1788e-25
282.4 2.1794e-25
283.21 2.1799e-25
284.03 2.1805e-25
284.85 2.1812e-25
285.67 2.1818e-25
286.49 2.1824e-25
287.32 2.183e-25
288.15 2.1836e-25
288.98 2.1842e-25
289.81 2.1849e-25
290.65 2.1855e-25
291.48 2.1861e-25
292.33 2.1868e-25
293.17 2.1874e-25
294.01 2.1881e-25
294.86 2.1887e-25
295.71 2.1894e-25
296.56 2.1901e-25
297.42 2.1908e-25
298.28 2.1914e-25
299.14 2.1921e-25
300 2.1928e-25
300.86 2.1935e-25
301.73 2.1942e-25
302.6 2.1949e-25
303.47 2.1956e-25
304.35 2.1963e-25
305.23 2.197e-25
306.11 2.1977e-25
306.99 2.1985e-25
307.87 2.1992e-25
308.76 2.1999e-25
309.65 2.2007e-25
310.54 2.2014e-25
311.44 2.2022e-25
312.34 2.2029e-25
313.24 2.2037e-25
314.14 2.2045e-25
315.05 2.2052e-25
315.95 2.206e-25
316.87 2.2068e-25
317.78 2.2076e-25
318.7 2.2084e-25
319.61 2.2092e-25
320.54 2.21e-25
321.46 2.2108e-25
322.39 2.2116e-25
323.32 2.2124e-25
324.25 2.2132e-25
325.18 2.2141e-25
326.12 2.2149e-25
327.06 2.2157e-25
328 2.2166e-25
328.95 2.2174e-25
329.9 2.2183e-25
330.85 2.2192e-25
331.8 2.22e-25
332.76 2.2209e-25
333.72 2.2218e-25
334.68 2.2227e-25
335.65 2.2235e-25
336.61 2.2244e-25
337.58 2.2253e-25
338.56 2.2262e-25
339.53 2.2272e-25
340.51 2.2281e-25
341.49 2.229e-25
342.48 2.2299e-25
343.47 2.2309e-25
344.46 2.2318e-25
345.45 2.2328e-25
346.45 2.2337e-25
347.44 2.2347e-25
348.45 2.2356e-25
349.45 2.2366e-25
350.46 2.2376e-25
351.47 2.2386e-25
352.48 2.2396e-25
353.5 2.2406e-25
354.52 2.2416e-25
355.54 2.2426e-25
356.56 2.2436e-25
357.59 2.2446e-25
358.62 2.2456e-25
359.66 2.2467e-25
360.69 2.2477e-25
361.73 2.2487e-25
362.78 2.2498e-25
363.82 2.2509e-25
364.87 2.2519e-25
365.92 2.253e-25
366.98 2.2541e-25
368.04 2.2552e-25
369.1 2.2564e-25
370.16 2.2576e-25
371.23 2.259e-25
372.3 2.2612e-25
373.37 2.2906e-25
374.45 2.2678e-25
375.53 2.2639e-25
376.61 2.2644e-25
377.7 2.2653e-25
378.79 2.2664e-25
379.88 2.2675e-25
380.97 2.2687e-25
382.07 2.2698e-25
383.17 2.271e-25
384.28 2.2721e-25
385.39 2.2733e-25
386.5 2.2745e-25
387.61 2.2757e-25
388.73 2.2769e-25
389.85 2.2781e-25
390.97 2.2793e-25
392.1 2.2806e-25
393.23 2.2818e-25
394.37 2.283e-25
395.5 2.2843e-25
396.64 2.2856e-25
397.79 2.2868e-25
398.93 2.2881e-25
400.08 2.2894e-25
401.24 2.2906e-25
402.39 2.2919e-25
403.55 2.2932e-25
404.72 2.2945e-25
405.88 2.2958e-25
407.05 2.2972e-25
408.23 2.2985e-25
409.4 2.2998e-25
410.59 2.3012e-25
411.77 2.3025e-25
412.96 2.3039e-25
414.15 2.3052e-25
415.34 2.3066e-25
416.54 2.308e-25
417.74 2.3094e-25
418.94 2.3108e-25
420.15 2.3122e-25
421.36 2.3136e-25
422.58 2.315e-25
423.8 2.3164e-25
425.02 2.3178e-25
426.24 2.3193e-25
427.47 2.3207e-25
428.7 2.3222e-25
429.94 2.3236e-25
431.18 2.3251e-25
432.42 2.3266e-25
433.67 2.3281e-25
434.92 2.3295e-25
436.17 2.331e-25
437.43 2.3326e-25
438.69 2.3341e-25
439.96 2.3356e-25
441.23 2.3371e-25
442.5 2.3387e-25
443.77 2.3402e-25
445.05 2.3418e-25
446.34 2.3433e-25
447.62 2.3449e-25
448.91 2.3465e-25
450.21 2.3481e-25
451.51 2.3497e-25
452.81 2.3513e-25
454.11 2.3529e-25
455.42 2.3545e-25
456.74 2.3561e-25
458.05 2.3578e-25
459.37 2.3594e-25
460.7 2.3611e-25
462.03 2.3627e-25
463.36 2.3644e-25
464.69 2.3661e-25
466.03 2.3678e-25
467.38 2.3695e-25
468.72 2.3712e-25
470.08 2.3729e-25
471.43 2.3746e-25
472.79 2.3763e-25
474.15 2.3781e-25
475.52 2.3798e-25
476.89 2.3816e-25
478.27 2.3833e-25
479.65 2.3851e-25
481.03 2.3869e-25
482.42 2.3887e-25
483.81 2.3905e-25
485.2 2.3923e-25
486.6 2.3941e-25
488 2.3959e-25
489.41 2.3977e-25
490.82 2.3996e-25
492.24 2.4014e-25
493.65 2.4033e-25
495.08 2.4052e-25
496.51 2.407e-25
497.94 2.4089e-25
499.37 2.4108e-25
500.81 2.4127e-25
502.26 2.4146e-25
503.7 2.4166e-25
505.16 2.4185e-25
506.61 2.4204e-25
508.07 2.4224e-25
509.54 2.4243e-25
511.01 2.4263e-25
512.48 2.4283e-25
513.96 2.4303e-25
515.44 2.4323e-25
516.93 2.4343e-25
518.42 2.4363e-25
519.91 2.4383e-25
521.41 2.4404e-25
522.91 2.4424e-25
524.42 2.4444e-25
525.93 2.4465e-25
527.45 2.4486e-25
528.97 2.4507e-25
530.49 2.4527e-25
532.02 2.4548e-25
533.56 2.457e-25
535.1 2.4591e-25
536.64 2.4612e-25
538.19 2.4633e-25
539.74 2.4655e-25
541.29 2.4676e-25
542.85 2.4698e-25
544.42 2.472e-25
545.99 2.4742e-25
547.56 2.4764e-25
549.14 2.4786e-25
550.73 2.4808e-25
552.31 2.483e-25
553.91 2.4853e-25
555.5 2.4875e-25
557.1 2.4898e-25
558.71 2.4923e-25
560.32 2.5119e-25
561.94 2.497e-25
563.56 2.499e-25
565.18 2.5012e-25
566.81 2.5035e-25
568.45 2.5058e-25
570.08 2.5082e-25
571.73 2.5105e-25
573.38 2.5129e-25
575.03 2.5152e-25
576.69 2.5176e-25
578.35 2.52e-25
580.02 2.5224e-25
581.69 2.5248e-25
583.37 2.5272e-25
585.05 2.5296e-25
586.74 2.532e-25
588.43 2.5345e-25
590.12 2.5369e-25
591.82 2.5394e-25
593.53 2.5419e-25
595.24 2.5444e-25
596.96 2.5469e-25
598.68 2.5494e-25
600.41 2.5519e-25
602.14 2.5544e-25
603.87 2.557e-25
605.61 2.5595e-25
607.36 2.5621e-25
609.11 2.5646e-25
610.87 2.5672e-25
612.63 2.5698e-25
614.39 2.5724e-25
616.17 2.575e-25
617.94 2.5776e-25
619.72 2.5803e-25
621.51 2.5829e-25
623.3 2.5856e-25
625.1 2.5882e-25
626.9 2.5909e-25
628.71 2.5936e-25
630.52 2.5963e-25
632.34 2.599e-25
634.16 2.6017e-25
635.99 2.6044e-25
637.82 2.6072e-25
639.66 2.6099e-25
641.51 2.6127e-25
643.36 2.6155e-25
645.21 2.6182e-25
647.07 2.621e-25
648.94 2.6238e-25
650.81 2.6266e-25
652.69 2.6295e-25
654.57 2.6323e-25
656.45 2.6352e-25
658.35 2.638e-25
660.24 2.6409e-25
662.15 2.6438e-25
664.06 2.6466e-25
665.97 2.6495e-25
667.89 2.6524e-25
669.82 2.6554e-25
671.75 2.6583e-25
673.69 2.6612e-25
675.63 2.6642e-25
677.58 2.6672e-25
679.53 2.6701e-25
681.49 2.6731e-25
683.45 2.6761e-25
685.42 2.6791e-25
687.4 2.6821e-25
689.38 2.6852e-25
691.37 2.6882e-25
693.36 2.6913e-25
695.36 2.6943e-25
697.37 2.6974e-25
699.38 2.7005e-25
701.39 2.7036e-25
703.42 2.7067e-25
705.44 2.7098e-25
707.48 2.7129e-25
709.52 2.7161e-25
711.56 2.7192e-25
713.61 2.7224e-25
715.67 2.7255e-25
717.73 2.7287e-25
719.8 2.7319e-25
721.88 2.7351e-25
723.96 2.7383e-25
726.05 2.7415e-25
728.14 2.7448e-25
730.24 2.748e-25
732.35 2.7513e-25
734.46 2.7546e-25
736.57 2.7579e-25
738.7 2.7612e-25
740.83 2.7645e-25
742.96 2.7679e-25
745.11 2.7713e-25
747.25 2.7999e-25
749.41 2.778e-25
751.57 2.7813e-25
753.74 2.7847e-25
755.91 2.7881e-25
758.09 2.7915e-25
760.27 2.7949e-25
762.47 2.7983e-25
764.66 2.8017e-25
766.87 2.8052e-25
769.08 2.8086e-25
771.3 2.8121e-25
773.52 2.8156e-25
775.75 2.8191e-25
777.99 2.8226e-25
780.23 2.8261e-25
782.48 2.8296e-25
784.74 2.8332e-25
787 2.8368e-25
789.27 2.8403e-25
791.54 2.8439e-25
793.83 2.8475e-25
796.11 2.8511e-25
798.41 2.8547e-25
800.71 2.8583e-25
803.02 2.862e-25
805.33 2.8656e-25
807.66 2.8693e-25
809.99 2.8729e-25
812.32 2.8766e-25
814.66 2.8803e-25
817.01 2.884e-25
819.37 2.8877e-25
821.73 2.8914e-25
824.1 2.8951e-25
826.47 2.8989e-25
828.86 2.9026e-25
831.25 2.9064e-25
833.64 2.9101e-25
836.05 2.9139e-25
838.46 2.9177e-25
840.87 2.9215e-25
843.3 2.9253e-25
845.73 2.9291e-25
848.17 2.9329e-25
850.61 2.9368e-25
853.07 2.9406e-25
855.53 2.9445e-25
857.99 2.9483e-25
860.47 2.9522e-25
862.95 2.9561e-25
865.43 2.96e-25
867.93 2.9639e-25
870.43 2.9678e-25
872.94 2.9717e-25
875.46 2.9757e-25
877.98 2.9796e-25
880.51 2.9835e-25
883.05 2.9875e-25
885.6 2.9915e-25
888.15 2.9955e-25
890.71 2.9994e-25
893.28 3.0034e-25
895.86 3.0074e-25
898.44 3.0115e-25
901.03 3.0155e-25
903.63 3.0195e-25
906.23 3.0236e-25
908.84 3.0276e-25
911.46 3.0317e-25
914.09 3.0357e-25
916.73 3.0398e-25
919.37 3.0439e-25
922.02 3.048e-25
924.68 3.0521e-25
927.35 3.0562e-25
930.02 3.0603e-25
932.7 3.0645e-25
935.39 3.0687e-25
938.09 3.0728e-25
940.79 3.0769e-25
943.5 3.0811e-25
946.22 3.0852e-25
948.95 3.0894e-25
951.69 3.0936e-25
954.43 3.0978e-25
957.18 3.102e-25
959.94 3.1062e-25
962.71 3.1104e-25
965.49 3.1146e-25
968.27 3.1189e-25
971.06 3.1231e-25
973.86 3.1274e-25
976.67 3.1316e-25
979.48 3.1359e-25
982.31 3.1402e-25
985.14 3.1445e-25
987.98 3.1488e-25
990.83 3.1531e-25
993.69 3.1574e-25
996.55 3.1617e-25
999.42 3.166e-25
1002.3 3.1704e-25
1005.2 3.1747e-25
1008.1 3.179e-25
1011 3.1834e-25
1013.9 3.1878e-25
1016.8 3.1921e-25
1019.8 3.1965e-25
1022.7 3.2009e-25
1025.7 3.2052e-25
1028.6 3.2096e-25
1031.6 3.214e-25
1034.6 3.2184e-25
1037.5 3.2228e-25
1040.5 3.2272e-25
1043.5 3.2316e-25
1046.5 3.2361e-25
1049.6 3.2405e-25
1052.6 3.2449e-25
1055.6 3.2493e-25
1058.7 3.2538e-25
1061.7 3.2582e-25
1064.8 3.2627e-25
1067.8 3.2671e-25
1070.9 3.2716e-25
1074 3.276e-25
1077.1 3.2805e-25
1080.2 3.285e-25
1083.3 3.2894e-25
1086.4 3.2939e-25
1089.6 3.2984e-25
1092.7 3.3029e-25
1095.9 3.3074e-25
1099 3.3119e-25
1102.2 3.3164e-25
1105.4 3.3209e-25
1108.6 3.3254e-25
1111.8 3.3299e-25
1115 3.3344e-25
1118.2 3.3389e-25
1121.4 3.3437e-25
1124.6 3.3479e-25
1127.9 3.3524e-25
1131.1 3.3569e-25
1134.4 3.3614e-25
1137.7 3.366e-25
1140.9 3.3705e-25
1144.2 3.375e-25
1147.5 3.3795e-25
1150.8 3.3841e-25
1154.2 3.3886e-25
1157.5 3.3931e-25
1160.8 3.3976e-25
1164.2 3.4022e-25
1167.5 3.4067e-25
1170.9 3.4112e-25
1174.3 3.4158e-25
1177.7 3.4203e-25
1181 3.4248e-25
1184.5 3.4294e-25
1187.9 3.4339e-25
1191.3 3.4384e-25
1194.7 3.4429e-25
1198.2 3.4475e-25
1201.6 3.452e-25
1205.1 3.4565e-25
1208.6 3.461e-25
1212.1 3.4656e-25
1215.5 3.4701e-25
1219 3.4746e-25
1222.6 3.4791e-25
1226.1 3.4836e-25
1229.6 3.4881e-25
1233.2 3.4927e-25
1236.7 3.4972e-25
1240.3 3.5017e-25
1243.9 3.5062e-25
1247.5 3.5107e-25
1251 3.5151e-25
1254.7 3.5196e-25
1258.3 3.5241e-25
1261.9 3.5286e-25
1265.5 3.5331e-25
1269.2 3.5375e-25
1272.8 3.542e-25
1276.5 3.5465e-25
1280.2 3.5509e-25
1283.9 3.5554e-25
1287.6 3.5598e-25
1291.3 3.5643e-25
1295 3.5687e-25
1298.8 3.5731e-25
1302.5 3.5775e-25
1306.3 3.582e-25
1310 3.5864e-25
1313.8 3.5908e-25
1317.6 3.5952e-25
1321.4 3.5995e-25
1325.2 3.6039e-25
1329 3.6083e-25
1332.8 3.6126e-25
1336.7 3.617e-25
1340.5 3.6213e-25
1344.4 3.6257e-25
1348.3 3.63e-25
1352.2 3.6343e-25
1356.1 3.6386e-25
1360 3.6429e-25
1363.9 3.6472e-25
1367.8 3.6515e-25
1371.8 3.6557e-25
1375.7 3.66e-25
1379.7 3.6642e-25
1383.7 3.6684e-25
1387.7 3.6727e-25
1391.7 3.6769e-25
1395.7 3.6811e-25
1399.7 3.6852e-25
1403.7 3.6894e-25
1407.8 3.6936e-25
1411.8 3.6977e-25
1415.9 3.7018e-25
1420 3.706e-25
1424.1 3.7101e-25
1428.2 3.7141e-25
1432.3 3.7182e-25
1436.4 3.7223e-25
1440.6 3.7263e-25
1444.7 3.7303e-25
1448.9 3.7343e-25
1453.1 3.7383e-25
1457.3 3.7423e-25
1461.5 3.7463e-25
1465.7 3.7502e-25
1469.9 3.7541e-25
1474.2 3.758e-25
1478.4 3.7619e-25
1482.7 3.7658e-25
1486.9 3.7696e-25
1491.2 3.7735e-25
1495.5 3.7773e-25
1499.8 3.7811e-25
1504.2 3.7848e-25
1508.5 3.7886e-25
1512.8 3.7923e-25
1517.2 3.796e-25
1521.6 3.7997e-25
1526 3.8034e-25
1530.4 3.807e-25
1534.8 3.8107e-25
1539.2 3.8143e-25
1543.6 3.8178e-25
1548.1 3.8214e-25
1552.6 3.8249e-25
1557 3.8284e-25
1561.5 3.8319e-25
1566 3.8354e-25
1570.5 3.8388e-25
1575.1 3.8422e-25
1579.6 3.8456e-25
1584.2 3.8489e-25
1588.7 3.8523e-25
1593.3 3.8556e-25
1597.9 3.8588e-25
1602.5 3.8621e-25
1607.1 3.8653e-25
1611.8 3.8685e-25
1616.4 3.8716e-25
1621.1 3.8748e-25
1625.7 3.8779e-25
1630.4 3.8809e-25
1635.1 3.884e-25
1639.8 3.887e-25
1644.6 3.89e-25
1649.3 3.8929e-25
1654.1 3.8958e-25
1658.8 3.8987e-25
1663.6 3.9015e-25
1668.4 3.9043e-25
1673.2 3.9071e-25
1678.1 3.9099e-25
1682.9 3.9126e-25
1687.7 3.9153e-25
1692.6 3.9179e-25
1697.5 3.9205e-25
1702.4 3.9231e-25
1707.3 3.9256e-25
1712.2 3.9281e-25
1717.2 3.9305e-25
1722.1 3.9329e-25
1727.1 3.9353e-25
1732 3.9377e-25
1737 3.94e-25
1742 3.9422e-25
1747.1 3.9444e-25
1752.1 3.9466e-25
1757.2 3.9487e-25
1762.2 3.9508e-25
1767.3 3.9529e-25
1772.4 3.9549e-25
1777.5 3.9569e-25
1782.6 3.9588e-25
1787.8 3.9607e-25
1792.9 3.9625e-25
1798.1 3.9643e-25
1803.3 3.966e-25
1808.5 3.9677e-25
1813.7 3.9694e-25
1818.9 3.971e-25
1824.2 3.9725e-25
1829.4 3.974e-25
1834.7 3.9755e-25
1840 3.9769e-25
1845.3 3.9782e-25
1850.6 3.9795e-25
1856 3.9808e-25
1861.3 3.982e-25
1866.7 3.9832e-25
1872.1 3.9842e-25
1877.5 3.9853e-25
1882.9 3.9863e-25
1888.3 3.9872e-25
1893.7 3.9881e-25
1899.2 3.9889e-25
1904.7 3.9897e-25
1910.2 3.9904e-25
1915.7 3.9911e-25
1921.2 3.9917e-25
1926.7 3.9922e-25
1932.3 3.9927e-25
1937.9 3.9932e-25
1943.4 3.9935e-25
1949 3.9938e-25
1954.7 3.9941e-25
1960.3 3.9943e-25
1966 3.9944e-25
1971.6 3.9945e-25
1977.3 3.9945e-25
1983 3.9944e-25
1988.7 3.9943e-25
1994.5 3.9941e-25
2000.2 3.9938e-25
2006 3.9935e-25
2011.8 3.9931e-25
2017.6 3.9927e-25
2023.4 3.9922e-25
2029.2 3.9916e-25
2035.1 3.9909e-25
2040.9 3.9902e-25
2046.8 3.9894e-25
2052.7 3.9885e-25
2058.6 3.9876e-25
2064.6 3.9866e-25
2070.5 3.9855e-25
2076.5 3.9844e-25
2082.5 3.9831e-25
2088.5 3.9818e-25
2094.5 3.9805e-25
2100.5 3.979e-25
2106.6 3.9775e-25
2112.7 3.9759e-25
2118.8 3.9742e-25
2124.9 3.9725e-25
2131 3.9706e-25
2137.1 3.9687e-25
2143.3 3.9667e-25
2149.5 3.9647e-25
2155.7 3.9625e-25
2161.9 3.9603e-25
2168.1 3.958e-25
2174.4 3.9556e-25
2180.6 3.9531e-25
2186.9 3.9506e-25
2193.2 3.9479e-25
2199.6 3.9452e-25
2205.9 3.9424e-25
2212.3 3.9395e-25
2218.6 3.9365e-25
2225 3.9334e-25
2231.4 3.9303e-25
2237.9 3.927e-25
2244.3 3.9237e-25
2250.8 3.9203e-25
2257.3 3.9167e-25
2263.8 3.9131e-25
2270.3 3.9094e-25
2276.9 3.9057e-25
2283.4 3.9018e-25
2290 3.8978e-25
2296.6 3.8937e-25
2303.2 3.8896e-25
2309.9 3.8853e-25
2316.5 3.881e-25
2323.2 3.8765e-25
2329.9 3.872e-25
2336.6 3.8674e-25
2343.4 3.8626e-25
2350.1 3.8578e-25
2356.9 3.8529e-25
2363.7 3.8479e-25
2370.5 3.8427e-25
2377.4 3.8375e-25
2384.2 3.8322e-25
2391.1 3.8267e-25
2398 3.8212e-25
2404.9 3.8156e-25
2411.8 3.8098e-25
2418.8 3.804e-25
2425.8 3.7981e-25
2432.7 3.792e-25
2439.8 3.7859e-25
2446.8 3.7796e-25
2453.8 3.7733e-25
2460.9 3.7668e-25
2468 3.7602e-25
2475.1 3.7535e-25
2482.3 3.7467e-25
2489.4 3.7398e-25
2496.6 3.7328e-25
2503.8 3.7257e-25
2511 3.7185e-25
2518.3 3.7112e-25
2525.5 3.7037e-25
2532.8 3.6962e-25
2540.1 3.6885e-25
2547.4 3.6807e-25
2554.8 3.6729e-25
2562.1 3.6649e-25
2569.5 3.6568e-25
2576.9 3.6485e-25
2584.4 3.6402e-25
2591.8 3.6318e-25
2599.3 3.6232e-25
2606.8 3.6145e-25
2614.3 3.6058e-25
2621.8 3.5968e-25
2629.4 3.5878e-25
2637 3.5787e-25
2644.6 3.5694e-25
2652.2 3.5601e-25
2659.8 3.5506e-25
2667.5 3.541e-25
2675.2 3.5313e-25
2682.9 3.5215e-25
2690.7 3.5116e-25
2698.4 3.5015e-25
2706.2 3.4913e-25
2714 3.4811e-25
2721.8 3.4707e-25
2729.7 3.4601e-25
2737.5 3.4495e-25
2745.4 3.4388e-25
2753.3 3.4279e-25
2761.3 3.4169e-25
2769.2 3.4058e-25
2777.2 3.3946e-25
2785.2 3.3833e-25
2793.3 3.3719e-25
2801.3 3.3603e-25
2809.4 3.3487e-25
2817.5 3.3369e-25
2825.6 3.325e-25
2833.8 3.313e-25
2841.9 3.3009e-25
2850.1 3.2887e-25
2858.3 3.2763e-25
2866.6 3.2639e-25
2874.8 3.2513e-25
2883.1 3.2386e-25
2891.4 3.2259e-25
2899.8 3.213e-25
2908.1 3.2e-25
2916.5 3.1869e-25
2924.9 3.1737e-25
2933.4 3.1604e-25
2941.8 3.1469e-25
2950.3 3.1334e-25
2958.8 3.1198e-25
2967.3 3.1061e-25
2975.9 3.0922e-25
2984.5 3.0783e-25
2993.1 3.0643e-25
3001.7 3.0502e-25
3010.4 3.036e-25
3019 3.0217e-25
3027.8 3.0073e-25
3036.5 2.9928e-25
3045.2 2.9782e-25
3054 2.9636e-25
3062.8 2.9488e-25
3071.7 2.934e-25
3080.5 2.9191e-25
3089.4 2.9041e-25
3098.3 2.889e-25
3107.2 2.8739e-25
3116.2 2.8587e-25
3125.2 2.8434e-25
3134.2 2.828e-25
3143.2 2.8126e-25
3152.3 2.7971e-25
3161.4 2.7816e-25
3170.5 2.766e-25
3179.6 2.7504e-25
3188.8 2.7347e-25
3198 2.7189e-25
3207.2 2.7031e-25
3216.5 2.6873e-25
3225.7 2.6715e-25
3235 2.6556e-25
3244.4 2.6397e-25
3253.7 2.6237e-25
3263.1 2.6077e-25
3272.5 2.5918e-25
3281.9 2.5758e-25
3291.4 2.5598e-25
3300.9 2.5438e-25
3310.4 2.5278e-25
3319.9 2.5118e-25
3329.5 2.4959e-25
3339.1 2.4799e-25
3348.7 2.464e-25
3358.4 2.4482e-25
3368.1 2.4323e-25
3377.8 2.4165e-25
3387.5 2.4008e-25
3397.3 2.3851e-25
3407.1 2.3695e-25
3416.9 2.3539e-25
3426.8 2.3384e-25
3436.6 2.3231e-25
3446.5 2.3078e-25
3456.5 2.2926e-25
3466.5 2.2776e-25
3476.4 2.2626e-25
3486.5 2.2478e-25
3496.5 2.2331e-25
3506.6 2.2186e-25
3516.7 2.2043e-25
3526.8 2.1901e-25
3537 2.1761e-25
3547.2 2.1622e-25
3557.4 2.1486e-25
3567.7 2.1352e-25
3578 2.122e-25
3588.3 2.1091e-25
3598.6 2.0964e-25
3609 2.0839e-25
3619.4 2.0717e-25
3629.9 2.0598e-25
3640.3 2.0482e-25
3650.8 2.0369e-25
3661.3 2.0259e-25
3671.9 2.0152e-25
3682.5 2.0049e-25
3693.1 1.9949e-25
3703.8 1.9853e-25
3714.4 1.9761e-25
3725.1 1.9673e-25
3735.9 1.9589e-25
3746.7 1.9508e-25
3757.5 1.9433e-25
3768.3 1.9361e-25
3779.2 1.9295e-25
3790 1.9232e-25
3801 1.9175e-25
3811.9 1.9123e-25
3822.9 1.9075e-25
3833.9 1.9033e-25
3845 1.8995e-25
3856.1 1.8964e-25
3867.2 1.8937e-25
3878.4 1.8916e-25
3889.5 1.8901e-25
3900.7 1.8891e-25
3912 1.8887e-25
3923.3 1.8889e-25
3934.6 1.8896e-25
3945.9 1.891e-25
3957.3 1.8929e-25
3968.7 1.8954e-25
3980.2 1.8986e-25
3991.6 1.9023e-25
4003.1 1.9067e-25
4014.7 1.9116e-25
4026.3 1.9171e-25
4037.9 1.9233e-25
4049.5 1.93e-25
4061.2 1.9374e-25
4072.9 1.9453e-25
4084.6 1.9539e-25
4096.4 1.963e-25
4108.2 1.9727e-25
4120.1 1.983e-25
4131.9 1.9938e-25
4143.9 2.0052e-25
4155.8 2.0172e-25
4167.8 2.0297e-25
4179.8 2.0428e-25
4191.8 2.0563e-25
4203.9 2.0705e-25
4216.1 2.0851e-25
4228.2 2.1002e-25
4240.4 2.1158e-25
4252.6 2.1319e-25
4264.9 2.1484e-25
4277.2 2.1654e-25
4289.5 2.1829e-25
4301.9 2.2007e-25
4314.3 2.219e-25
4326.7 2.2378e-25
4339.2 2.2569e-25
4351.7 2.2764e-25
4364.3 2.2962e-25
4376.8 2.3165e-25
4389.5 2.337e-25
4402.1 2.3579e-25
4414.8 2.3792e-25
4427.5 2.4007e-25
4440.3 2.4225e-25
4453.1 2.4447e-25
4465.9 2.467e-25
4478.8 2.4897e-25
4491.7 2.5126e-25
4504.7 2.5357e-25
4517.7 2.5591e-25
4530.7 2.5827e-25
4543.7 2.6064e-25
4556.8 2.6304e-25
4570 2.6545e-25
4583.2 2.6788e-25
4596.4 2.7033e-25
4609.6 2.7278e-25
4622.9 2.7526e-25
4636.2 2.7774e-25
4649.6 2.8023e-25
4663 2.8274e-25
4676.5 2.8525e-25
4689.9 2.8777e-25
4703.5 2.9029e-25
4717 2.9282e-25
4730.6 2.9535e-25
4744.3 2.9789e-25
4757.9 3.0043e-25
4771.7 3.0297e-25
4785.4 3.055e-25
4799.2 3.0804e-25
4813.1 3.1058e-25
4826.9 3.1311e-25
4840.8 3.1563e-25
4854.8 3.1815e-25
4868.8 3.2067e-25
4882.8 3.2317e-25
4896.9 3.2567e-25
4911 3.2816e-25
4925.2 3.3064e-25
4939.4 3.331e-25
4953.6 3.3555e-25
4967.9 3.3799e-25
4982.2 3.4042e-25
4996.6 3.4283e-25
5011 3.4522e-25
5025.5 3.4759e-25
5039.9 3.4995e-25
5054.5 3.5228e-25
5069 3.546e-25
5083.7 3.5689e-25
5098.3 3.5916e-25
5113 3.6141e-25
5127.8 3.6363e-25
5142.5 3.6583e-25
5157.4 3.68e-25
5172.2 3.7015e-25
5187.1 3.7226e-25
5202.1 3.7435e-25
5217.1 3.7641e-25
5232.1 3.7843e-25
5247.2 3.8043e-25
5262.4 3.8239e-25
5277.5 3.8432e-25
5292.7 3.8621e-25
5308 3.8807e-25
5323.3 3.8989e-25
5338.7 3.9167e-25
5354 3.9341e-25
5369.5 3.9512e-25
5385 3.9678e-25
5400.5 3.984e-25
5416.1 3.9999e-25
5431.7 4.0152e-25
5447.3 4.0302e-25
5463 4.0447e-25
5478.8 4.0587e-25
5494.6 4.0723e-25
5510.4 4.0854e-25
5526.3 4.098e-25
5542.2 4.1101e-25
5558.2 4.1217e-25
5574.3 4.1328e-25
5590.3 4.1434e-25
5606.4 4.1535e-25
5622.6 4.163e-25
5638.8 4.172e-25
5655.1 4.1805e-25
5671.4 4.1884e-25
5687.7 4.1957e-25
5704.1 4.2024e-25
5720.6 4.2086e-25
5737.1 4.2141e-25
5753.6 4.2191e-25
5770.2 4.2235e-25
5786.8 4.2272e-25
5803.5 4.2303e-25
5820.2 4.2328e-25
5837 4.2347e-25
5853.9 4.2359e-25
5870.7 4.2365e-25
5887.7 4.2364e-25
5904.6 4.2356e-25
5921.7 4.2342e-25
5938.7 4.2321e-25
5955.8 4.2293e-25
5973 4.2258e-25
5990.2 4.2216e-25
6007.5 4.2168e-25
6024.8 4.2112e-25
6042.2 4.2049e-25
6059.6 4.1979e-25
6077.1 4.1901e-25
6094.6 4.1817e-25
6112.2 4.1725e-25
6129.8 4.1625e-25
6147.5 4.1519e-25
6165.2 4.1404e-25
6183 4.1283e-25
6200.8 4.1154e-25
6218.7 4.1017e-25
6236.6 4.0872e-25
6254.6 4.0721e-25
6272.6 4.0561e-25
6290.7 4.0394e-25
6308.8 4.0219e-25
6327 4.0036e-25
6345.3 3.9846e-25
6363.6 3.9648e-25
6381.9 3.9443e-25
6400.3 3.9229e-25
6418.8 3.9008e-25
6437.3 3.878e-25
6455.8 3.8543e-25
6474.4 3.8299e-25
6493.1 3.8048e-25
6511.8 3.7789e-25
6530.6 3.7522e-25
6549.4 3.7248e-25
6568.3 3.6966e-25
6587.3 3.6677e-25
6606.2 3.6381e-25
6625.3 3.6077e-25
6644.4 3.5767e-25
6663.6 3.5449e-25
6682.8 3.5124e-25
6702 3.4792e-25
6721.4 3.4454e-25
6740.7 3.4109e-25
6760.2 3.3757e-25
6779.7 3.3399e-25
6799.2 3.3035e-25
6818.8 3.2664e-25
6838.5 3.2288e-25
6858.2 3.1906e-25
6878 3.1519e-25
6897.8 3.1126e-25
6917.7 3.0729e-25
6937.6 3.0326e-25
6957.6 2.9919e-25
6977.7 2.9508e-25
6997.8 2.9094e-25
7018 2.8675e-25
7038.2 2.8254e-25
7058.5 2.783e-25
7078.8 2.7403e-25
7099.3 2.6975e-25
7119.7 2.6545e-25
7140.3 2.6115e-25
7160.8 2.5684e-25
7181.5 2.5254e-25
7202.2 2.4824e-25
7223 2.4397e-25
7243.8 2.3972e-25
7264.7 2.355e-25
7285.6 2.3132e-25
7306.6 2.2719e-25
7327.7 2.2313e-25
7348.8 2.1913e-25
7370 2.1521e-25
7391.2 2.1139e-25
7412.5 2.0767e-25
7433.9 2.0407e-25
7455.4 2.006e-25
7476.8 1.9728e-25
7498.4 1.9412e-25
7520 1.9114e-25
7541.7 1.8834e-25
7563.4 1.8575e-25
7585.3 1.8339e-25
7607.1 1.8126e-25
7629.1 1.7938e-25
7651 1.7777e-25
7673.1 1.7644e-25
7695.2 1.754e-25
7717.4 1.7466e-25
7739.7 1.7424e-25
7762 1.7413e-25
7784.4 1.7435e-25
7806.8 1.7489e-25
7829.3 1.7575e-25
7851.9 1.7695e-25
7874.5 1.7846e-25
7897.2 1.8028e-25
7920 1.8242e-25
7942.8 1.8485e-25
7965.7 1.8757e-25
7988.7 1.9056e-25
8011.7 1.9382e-25
8034.8 1.9732e-25
8058 2.0106e-25
8081.2 2.0501e-25
8104.5 2.0917e-25
8127.9 2.1353e-25
8151.3 2.1806e-25
8174.8 2.2275e-25
8198.4 2.2759e-25
8222 2.3256e-25
8245.7 2.3766e-25
8269.5 2.4287e-25
8293.3 2.4817e-25
8317.3 2.5357e-25
8341.2 2.5904e-25
8365.3 2.6457e-25
8389.4 2.7016e-25
8413.6 2.7579e-25
8437.8 2.8146e-25
8462.2 2.8716e-25
8486.6 2.9287e-25
8511 2.9859e-25
8535.6 3.0432e-25
8560.2 3.1003e-25
8584.9 3.1574e-25
8609.6 3.2142e-25
8634.4 3.2707e-25
8659.3 3.3269e-25
8684.3 3.3826e-25
8709.3 3.4379e-25
8734.4 3.4926e-25
8759.6 3.5467e-25
8784.9 3.6001e-25
8810.2 3.6528e-25
8835.6 3.7047e-25
8861.1 3.7558e-25
8886.6 3.8059e-25
8912.3 3.8551e-25
8937.9 3.9033e-25
8963.7 3.9504e-25
8989.6 3.9964e-25
9015.5 4.0412e-25
9041.5 4.0849e-25
9067.5 4.1272e-25
9093.7 4.1682e-25
9119.9 4.2079e-25
9146.2 4.2462e-25
9172.6 4.283e-25
9199 4.3183e-25
9225.5 4.3521e-25
9252.1 4.3842e-25
9278.8 4.4148e-25
9305.6 4.4437e-25
9332.4 4.4709e-25
9359.3 4.4963e-25
9386.3 4.5199e-25
9413.3 4.5417e-25
9440.5 4.5617e-25
9467.7 4.5797e-25
9495 4.5958e-25
9522.4 4.61e-25
9549.8 4.6221e-25
9577.3 4.6322e-25
9605 4.6402e-25
9632.7 4.6462e-25
9660.4 4.65e-25
9688.3 4.6517e-25
9716.2 4.6512e-25
9744.2 4.6485e-25
9772.3 4.6435e-25
9800.5 4.6364e-25
9828.7 4.6269e-25
9857.1 4.6152e-25
9885.5 4.6012e-25
9914 4.5849e-25
9942.6 4.5662e-25
9971.3 4.5452e-25
10000 4.5219e-25
