0.1 1.1842e-11
0.10029 1.1854e-11
0.10058 1.1867e-11
0.10087 1.1879e-11
0.10116 1.1892e-11
0.10145 1.1904e-11
0.10174 1.1917e-11
0.10204 1.193e-11
0.10233 1.1943e-11
0.10262 1.1956e-11
0.10292 1.1969e-11
0.10322 1.1982e-11
0.10352 1.1995e-11
0.10381 1.2009e-11
0.10411 1.2022e-11
0.10441 1.2036e-11
0.10471 1.205e-11
0.10502 1.2063e-11
0.10532 1.2077e-11
0.10562 1.2091e-11
0.10593 1.2105e-11
0.10623 1.212e-11
0.10654 1.2134e-11
0.10685 1.2149e-11
0.10715 1.2163e-11
0.10746 1.2178e-11
0.10777 1.2193e-11
0.10808 1.2208e-11
0.10839 1.2223e-11
0.10871 1.2238e-11
0.10902 1.2253e-11
0.10934 1.2268e-11
0.10965 1.2284e-11
0.10997 1.23e-11
0.11028 1.2315e-11
0.1106 1.2331e-11
0.11092 1.2347e-11
0.11124 1.2364e-11
0.11156 1.238e-11
0.11188 1.2396e-11
0.11221 1.2413e-11
0.11253 1.2429e-11
0.11285 1.2446e-11
0.11318 1.2463e-11
0.1135 1.248e-11
0.11383 1.2498e-11
0.11416 1.2515e-11
0.11449 1.2532e-11
0.11482 1.255e-11
0.11515 1.2568e-11
0.11548 1.2586e-11
0.11582 1.2604e-11
0.11615 1.2622e-11
0.11648 1.264e-11
0.11682 1.2659e-11
0.11716 1.2678e-11
0.11749 1.2697e-11
0.11783 1.2716e-11
0.11817 1.2735e-11
0.11851 1.2754e-11
0.11886 1.2773e-11
0.1192 1.2793e-11
0.11954 1.2813e-11
0.11989 1.2833e-11
0.12023 1.2853e-11
0.12058 1.2873e-11
0.12093 1.2894e-11
0.12127 1.2914e-11
0.12162 1.2935e-11
0.12198 1.2956e-11
0.12233 1.2977e-11
0.12268 1.2999e-11
0.12303 1.302e-11
0.12339 1.3042e-11
0.12374 1.3064e-11
0.1241 1.3086e-11
0.12446 1.3108e-11
0.12482 1.3131e-11
0.12518 1.3154e-11
0.12554 1.3177e-11
0.1259 1.32e-11
0.12626 1.3223e-11
0.12663 1.3246e-11
0.12699 1.327e-11
0.12736 1.3294e-11
0.12773 1.3318e-11
0.12809 1.3343e-11
0.12846 1.3367e-11
0.12883 1.3392e-11
0.1292 1.3417e-11
0.12958 1.3442e-11
0.12995 1.3467e-11
0.13033 1.3493e-11
0.1307 1.3519e-11
0.13108 1.3545e-11
0.13146 1.3572e-11
0.13183 1.3598e-11
0.13221 1.3625e-11
0.1326 1.3652e-11
0.13298 1.368e-11
0.13336 1.3707e-11
0.13375 1.3735e-11
0.13413 1.3763e-11
0.13452 1.3791e-11
0.13491 1.382e-11
0.1353 1.3849e-11
0.13569 1.3878e-11
0.13608 1.3908e-11
0.13647 1.3937e-11
0.13686 1.3967e-11
0.13726 1.3998e-11
0.13765 1.4028e-11
0.13805 1.4059e-11
0.13845 1.409e-11
0.13885 1.4122e-11
0.13925 1.4154e-11
0.13965 1.4186e-11
0.14005 1.4218e-11
0.14045 1.4251e-11
0.14086 1.4284e-11
0.14127 1.4317e-11
0.14167 1.4351e-11
0.14208 1.4385e-11
0.14249 1.4419e-11
0.1429 1.4454e-11
0.14331 1.4489e-11
0.14373 1.4524e-11
0.14414 1.456e-11
0.14456 1.4596e-11
0.14497 1.4632e-11
0.14539 1.4669e-11
0.14581 1.4706e-11
0.14623 1.4744e-11
0.14665 1.4782e-11
0.14708 1.482e-11
0.1475 1.4859e-11
0.14793 1.4898e-11
0.14835 1.4937e-11
0.14878 1.4977e-11
0.14921 1.5018e-11
0.14964 1.5058e-11
0.15007 1.5099e-11
0.1505 1.5141e-11
0.15094 1.5183e-11
0.15137 1.5226e-11
0.15181 1.5269e-11
0.15225 1.5312e-11
0.15268 1.5356e-11
0.15313 1.54e-11
0.15357 1.5445e-11
0.15401 1.549e-11
0.15445 1.5536e-11
0.1549 1.5582e-11
0.15535 1.5629e-11
0.15579 1.5676e-11
0.15624 1.5724e-11
0.15669 1.5773e-11
0.15714 1.5821e-11
0.1576 1.5871e-11
0.15805 1.5921e-11
0.15851 1.5971e-11
0.15896 1.6022e-11
0.15942 1.6074e-11
0.15988 1.6126e-11
0.16034 1.6179e-11
0.16081 1.6233e-11
0.16127 1.6287e-11
0.16173 1.6342e-11
0.1622 1.6397e-11
0.16267 1.6453e-11
0.16314 1.651e-11
0.16361 1.6567e-11
0.16408 1.6625e-11
0.16455 1.6684e-11
0.16503 1.6743e-11
0.1655 1.6803e-11
0.16598 1.6864e-11
0.16646 1.6926e-11
0.16694 1.6988e-11
0.16742 1.7051e-11
0.1679 1.7115e-11
0.16839 1.7179e-11
0.16887 1.7245e-11
0.16936 1.7311e-11
0.16985 1.7378e-11
0.17034 1.7446e-11
0.17083 1.7515e-11
0.17132 1.7584e-11
0.17181 1.7655e-11
0.17231 1.7726e-11
0.17281 1.7799e-11
0.1733 1.7872e-11
0.1738 1.7946e-11
0.17431 1.8021e-11
0.17481 1.8098e-11
0.17531 1.8175e-11
0.17582 1.8253e-11
0.17632 1.8332e-11
0.17683 1.8412e-11
0.17734 1.8494e-11
0.17785 1.8576e-11
0.17837 1.866e-11
0.17888 1.8745e-11
0.1794 1.8831e-11
0.17991 1.8918e-11
0.18043 1.9006e-11
0.18095 1.9096e-11
0.18147 1.9187e-11
0.182 1.9279e-11
0.18252 1.9372e-11
0.18305 1.9467e-11
0.18358 1.9563e-11
0.18411 1.9661e-11
0.18464 1.976e-11
0.18517 1.986e-11
0.1857 1.9962e-11
0.18624 2.0065e-11
0.18677 2.017e-11
0.18731 2.0277e-11
0.18785 2.0385e-11
0.18839 2.0495e-11
0.18894 2.0606e-11
0.18948 2.0719e-11
0.19003 2.0834e-11
0.19058 2.0951e-11
0.19113 2.107e-11
0.19168 2.119e-11
0.19223 2.1312e-11
0.19278 2.1437e-11
0.19334 2.1563e-11
0.1939 2.1692e-11
0.19446 2.1822e-11
0.19502 2.1955e-11
0.19558 2.209e-11
0.19614 2.2227e-11
0.19671 2.2366e-11
0.19728 2.2508e-11
0.19784 2.2652e-11
0.19841 2.2799e-11
0.19899 2.2948e-11
0.19956 2.31e-11
0.20014 2.3255e-11
0.20071 2.3411e-11
0.20129 2.3567e-11
0.20187 2.3724e-11
0.20245 2.3881e-11
0.20304 2.4039e-11
0.20362 2.4198e-11
0.20421 2.4357e-11
0.2048 2.4517e-11
0.20539 2.4677e-11
0.20598 2.4838e-11
0.20658 2.5e-11
0.20717 2.5163e-11
0.20777 2.5327e-11
0.20837 2.5491e-11
0.20897 2.5656e-11
0.20957 2.5822e-11
0.21017 2.5989e-11
0.21078 2.6157e-11
0.21139 2.6326e-11
0.212 2.6496e-11
0.21261 2.6668e-11
0.21322 2.684e-11
0.21384 2.7013e-11
0.21445 2.7188e-11
0.21507 2.7364e-11
0.21569 2.7542e-11
0.21631 2.7721e-11
0.21694 2.7901e-11
0.21756 2.8084e-11
0.21819 2.8267e-11
0.21882 2.8453e-11
0.21945 2.864e-11
0.22008 2.883e-11
0.22072 2.9021e-11
0.22135 2.9215e-11
0.22199 2.941e-11
0.22263 2.9609e-11
0.22327 2.9809e-11
0.22392 3.0013e-11
0.22456 3.0219e-11
0.22521 3.0428e-11
0.22586 3.064e-11
0.22651 3.0856e-11
0.22716 3.1074e-11
0.22782 3.1297e-11
0.22848 3.1523e-11
0.22913 3.1753e-11
0.22979 3.1988e-11
0.23046 3.2226e-11
0.23112 3.247e-11
0.23179 3.2718e-11
0.23246 3.2972e-11
0.23313 3.3231e-11
0.2338 3.3496e-11
0.23447 3.3768e-11
0.23515 3.4046e-11
0.23583 3.433e-11
0.23651 3.4622e-11
0.23719 3.4922e-11
0.23787 3.523e-11
0.23856 3.5547e-11
0.23925 3.5873e-11
0.23994 3.6208e-11
0.24063 3.6554e-11
0.24132 3.6912e-11
0.24202 3.7281e-11
0.24271 3.7662e-11
0.24341 3.8057e-11
0.24412 3.8466e-11
0.24482 3.8891e-11
0.24553 3.9331e-11
0.24623 3.9789e-11
0.24694 4.0266e-11
0.24766 4.0763e-11
0.24837 4.1281e-11
0.24909 4.1822e-11
0.2498 4.2387e-11
0.25052 4.298e-11
0.25125 4.3601e-11
0.25197 4.4254e-11
0.2527 4.494e-11
0.25343 4.5662e-11
0.25416 4.6425e-11
0.25489 4.723e-11
0.25562 4.8083e-11
0.25636 4.8988e-11
0.2571 4.9948e-11
0.25784 5.0972e-11
0.25858 5.2063e-11
0.25933 5.3231e-11
0.26008 5.4483e-11
0.26083 5.5828e-11
0.26158 5.7278e-11
0.26233 5.8845e-11
0.26309 6.0544e-11
0.26385 6.2393e-11
0.26461 6.4411e-11
0.26537 6.6625e-11
0.26614 6.9062e-11
0.2669 7.176e-11
0.26767 7.476e-11
0.26845 7.8118e-11
0.26922 8.19e-11
0.27 8.6192e-11
0.27077 9.1103e-11
0.27156 9.6776e-11
0.27234 1.034e-10
0.27312 1.1125e-10
0.27391 1.2067e-10
0.2747 1.3221e-10
0.27549 1.4664e-10
0.27629 1.6524e-10
0.27708 1.9007e-10
0.27788 2.2491e-10
0.27868 2.7731e-10
0.27949 3.6498e-10
0.28029 5.4154e-10
0.2811 1.0808e-09
0.28191 3.9721e-08
0.28272 9.9429e-10
0.28354 4.9564e-10
0.28436 3.266e-10
0.28518 2.4156e-10
0.286 1.9039e-10
0.28682 1.5622e-10
0.28765 1.318e-10
0.28848 1.1347e-10
0.28931 9.9226e-11
0.29015 8.7835e-11
0.29098 7.8521e-11
0.29182 7.0769e-11
0.29266 6.4217e-11
0.29351 5.8609e-11
0.29435 5.3758e-11
0.2952 4.9521e-11
0.29605 4.579e-11
0.29691 4.2481e-11
0.29776 3.9528e-11
0.29862 3.6877e-11
0.29948 3.4485e-11
0.30034 3.2318e-11
0.30121 3.0345e-11
0.30208 2.8543e-11
0.30295 2.6891e-11
0.30382 2.5372e-11
0.3047 2.3971e-11
0.30558 2.2675e-11
0.30646 2.1474e-11
0.30734 2.0358e-11
0.30823 1.932e-11
0.30912 1.835e-11
0.31001 1.7445e-11
0.3109 1.6597e-11
0.3118 1.5802e-11
0.3127 1.5055e-11
0.3136 1.4353e-11
0.3145 1.3692e-11
0.31541 1.3069e-11
0.31632 1.2481e-11
0.31723 1.1925e-11
0.31815 1.14e-11
0.31906 1.0902e-11
0.31998 1.0431e-11
0.32091 9.9837e-12
0.32183 9.5593e-12
0.32276 9.1562e-12
0.32369 8.773e-12
0.32462 8.4084e-12
0.32556 8.0615e-12
0.3265 7.731e-12
0.32744 7.4161e-12
0.32838 7.1158e-12
0.32933 6.8293e-12
0.33028 6.5559e-12
0.33123 6.2947e-12
0.33219 6.0452e-12
0.33314 5.8068e-12
0.3341 5.5788e-12
0.33507 5.3607e-12
0.33603 5.152e-12
0.337 4.9522e-12
0.33797 4.7609e-12
0.33895 4.5776e-12
0.33992 4.4021e-12
0.3409 4.2338e-12
0.34189 4.0725e-12
0.34287 3.9178e-12
0.34386 3.7694e-12
0.34485 3.627e-12
0.34585 3.4904e-12
0.34684 3.3592e-12
0.34784 3.2334e-12
0.34885 3.1125e-12
0.34985 2.9964e-12
0.35086 2.8849e-12
0.35187 2.7777e-12
0.35289 2.6748e-12
0.35391 2.5759e-12
0.35493 2.4808e-12
0.35595 2.3894e-12
0.35698 2.3015e-12
0.358 2.217e-12
0.35904 2.1358e-12
0.36007 2.0576e-12
0.36111 1.9825e-12
0.36215 1.9102e-12
0.3632 1.8406e-12
0.36424 1.7737e-12
0.36529 1.7093e-12
0.36635 1.6473e-12
0.3674 1.5877e-12
0.36846 1.5303e-12
0.36952 1.4751e-12
0.37059 1.4219e-12
0.37166 1.3708e-12
0.37273 1.3215e-12
0.3738 1.2741e-12
0.37488 1.2284e-12
0.37596 1.1845e-12
0.37705 1.1421e-12
0.37813 1.1014e-12
0.37922 1.0621e-12
0.38032 1.0243e-12
0.38141 9.8793e-13
0.38251 9.5288e-13
0.38362 9.1912e-13
0.38472 8.8661e-13
0.38583 8.553e-13
0.38694 8.2514e-13
0.38806 7.961e-13
0.38918 7.6812e-13
0.3903 7.4117e-13
0.39142 7.1521e-13
0.39255 6.902e-13
0.39368 6.6612e-13
0.39482 6.4291e-13
0.39596 6.2056e-13
0.3971 5.9903e-13
0.39824 5.7829e-13
0.39939 5.5831e-13
0.40054 5.3905e-13
0.4017 5.2051e-13
0.40286 5.0264e-13
0.40402 4.8543e-13
0.40518 4.6884e-13
0.40635 4.5287e-13
0.40752 4.3747e-13
0.4087 4.2264e-13
0.40988 4.0836e-13
0.41106 3.9459e-13
0.41224 3.8133e-13
0.41343 3.6855e-13
0.41462 3.5623e-13
0.41582 3.4437e-13
0.41702 3.3294e-13
0.41822 3.2193e-13
0.41943 3.1132e-13
0.42064 3.0109e-13
0.42185 2.9124e-13
0.42306 2.8175e-13
0.42428 2.726e-13
0.42551 2.6379e-13
0.42673 2.5529e-13
0.42796 2.4711e-13
0.4292 2.3923e-13
0.43044 2.3163e-13
0.43168 2.2431e-13
0.43292 2.1726e-13
0.43417 2.1046e-13
0.43542 2.0391e-13
0.43668 1.976e-13
0.43794 1.9152e-13
0.4392 1.8566e-13
0.44046 1.8002e-13
0.44173 1.7458e-13
0.44301 1.6934e-13
0.44429 1.6429e-13
0.44557 1.5943e-13
0.44685 1.5475e-13
0.44814 1.5023e-13
0.44943 1.4589e-13
0.45073 1.417e-13
0.45203 1.3767e-13
0.45333 1.3379e-13
0.45464 1.3006e-13
0.45595 1.2647e-13
0.45726 1.2302e-13
0.45858 1.1971e-13
0.4599 1.1655e-13
0.46123 1.1356e-13
0.46256 1.1077e-13
0.46389 1.0831e-13
0.46523 1.0668e-13
0.46657 1.0927e-13
0.46792 3.5562e-13
0.46926 1.0797e-13
0.47062 9.6875e-14
0.47197 9.3122e-14
0.47334 9.0429e-14
0.4747 8.8087e-14
0.47607 8.5928e-14
0.47744 8.3895e-14
0.47882 8.1962e-14
0.4802 8.0116e-14
0.48158 7.835e-14
0.48297 7.6659e-14
0.48436 7.5037e-14
0.48576 7.3483e-14
0.48716 7.1994e-14
0.48856 7.0566e-14
0.48997 6.9198e-14
0.49139 6.7889e-14
0.4928 6.6636e-14
0.49422 6.5437e-14
0.49565 6.4291e-14
0.49708 6.3197e-14
0.49851 6.2154e-14
0.49995 6.1159e-14
0.50139 6.02e-14
0.50283 5.9262e-14
0.50428 5.8345e-14
0.50574 5.7448e-14
0.5072 5.6571e-14
0.50866 5.5713e-14
0.51013 5.4875e-14
0.5116 5.4056e-14
0.51307 5.3256e-14
0.51455 5.2474e-14
0.51603 5.171e-14
0.51752 5.0964e-14
0.51901 5.0236e-14
0.52051 4.9525e-14
0.52201 4.8831e-14
0.52352 4.8154e-14
0.52503 4.7494e-14
0.52654 4.6851e-14
0.52806 4.6224e-14
0.52958 4.5613e-14
0.53111 4.5018e-14
0.53264 4.4439e-14
0.53417 4.3876e-14
0.53571 4.3328e-14
0.53726 4.2795e-14
0.53881 4.2278e-14
0.54036 4.1777e-14
0.54192 4.129e-14
0.54348 4.0819e-14
0.54505 4.0362e-14
0.54662 3.9921e-14
0.54819 3.9495e-14
0.54978 3.9084e-14
0.55136 3.8687e-14
0.55295 3.8306e-14
0.55454 3.7941e-14
0.55614 3.759e-14
0.55775 3.7255e-14
0.55935 3.6935e-14
0.56097 3.6631e-14
0.56258 3.6343e-14
0.56421 3.6071e-14
0.56583 3.5816e-14
0.56746 3.5577e-14
0.5691 3.5356e-14
0.57074 3.5152e-14
0.57239 3.4966e-14
0.57404 3.4798e-14
0.57569 3.465e-14
0.57735 3.4522e-14
0.57902 3.4414e-14
0.58069 3.4328e-14
0.58236 3.4265e-14
0.58404 3.4225e-14
0.58572 3.421e-14
0.58741 3.4222e-14
0.5891 3.4261e-14
0.5908 3.433e-14
0.59251 3.4431e-14
0.59421 3.4566e-14
0.59593 3.4738e-14
0.59765 3.495e-14
0.59937 3.5206e-14
0.6011 3.5509e-14
0.60283 3.5865e-14
0.60457 3.6278e-14
0.60631 3.6756e-14
0.60806 3.7306e-14
0.60981 3.7938e-14
0.61157 3.8661e-14
0.61333 3.949e-14
0.6151 4.0439e-14
0.61688 4.153e-14
0.61865 4.2785e-14
0.62044 4.4235e-14
0.62223 4.5919e-14
0.62402 4.7886e-14
0.62582 5.0203e-14
0.62762 5.2956e-14
0.62943 5.6266e-14
0.63125 6.0302e-14
0.63307 6.5312e-14
0.63489 7.167e-14
0.63672 7.9969e-14
0.63856 9.1217e-14
0.6404 1.0726e-13
0.64225 1.3191e-13
0.6441 1.7447e-13
0.64596 2.6516e-13
0.64782 5.9002e-13
0.64969 1.9897e-12
0.65156 3.5385e-13
0.65344 1.8936e-13
0.65532 1.2702e-13
0.65721 9.428e-14
0.65911 7.4135e-14
0.66101 6.0513e-14
0.66291 5.0704e-14
0.66482 4.3316e-14
0.66674 3.7561e-14
0.66866 3.2959e-14
0.67059 2.9201e-14
0.67252 2.6079e-14
0.67446 2.3449e-14
0.67641 2.1206e-14
0.67836 1.9273e-14
0.68031 1.7593e-14
0.68227 1.6122e-14
0.68424 1.4824e-14
0.68621 1.3672e-14
0.68819 1.2644e-14
0.69018 1.1723e-14
0.69217 1.0894e-14
0.69416 1.0144e-14
0.69616 9.4639e-15
0.69817 8.8449e-15
0.70018 8.2798e-15
0.7022 7.7626e-15
0.70423 7.2878e-15
0.70626 6.8511e-15
0.70829 6.4485e-15
0.71033 6.0766e-15
0.71238 5.7323e-15
0.71444 5.4131e-15
0.7165 5.1167e-15
0.71856 4.8409e-15
0.72063 4.584e-15
0.72271 4.3444e-15
0.72479 4.1205e-15
0.72688 3.9112e-15
0.72898 3.7152e-15
0.73108 3.5315e-15
0.73319 3.3592e-15
0.7353 3.1973e-15
0.73742 3.0451e-15
0.73955 2.9018e-15
0.74168 2.767e-15
0.74382 2.6398e-15
0.74596 2.5199e-15
0.74812 2.4067e-15
0.75027 2.2998e-15
0.75244 2.1987e-15
0.7546 2.1031e-15
0.75678 2.0126e-15
0.75896 1.9269e-15
0.76115 1.8456e-15
0.76334 1.7686e-15
0.76555 1.6955e-15
0.76775 1.6262e-15
0.76997 1.5603e-15
0.77219 1.4977e-15
0.77441 1.4382e-15
0.77665 1.3817e-15
0.77888 1.3278e-15
0.78113 1.2766e-15
0.78338 1.2278e-15
0.78564 1.1814e-15
0.78791 1.1371e-15
0.79018 1.0949e-15
0.79246 1.0546e-15
0.79474 1.0162e-15
0.79703 9.7956e-16
0.79933 9.4457e-16
0.80163 9.1117e-16
0.80394 8.7926e-16
0.80626 8.4877e-16
0.80859 8.1963e-16
0.81092 7.9178e-16
0.81326 7.6514e-16
0.8156 7.3966e-16
0.81795 7.1528e-16
0.82031 6.9196e-16
0.82268 6.6963e-16
0.82505 6.4825e-16
0.82743 6.2778e-16
0.82981 6.0818e-16
0.8322 5.894e-16
0.8346 5.714e-16
0.83701 5.5416e-16
0.83942 5.3763e-16
0.84184 5.2178e-16
0.84427 5.0659e-16
0.8467 4.9202e-16
0.84915 4.7805e-16
0.85159 4.6466e-16
0.85405 4.5181e-16
0.85651 4.3948e-16
0.85898 4.2765e-16
0.86146 4.1631e-16
0.86394 4.0542e-16
0.86643 3.9498e-16
0.86893 3.8495e-16
0.87144 3.7534e-16
0.87395 3.6611e-16
0.87647 3.5726e-16
0.87899 3.4877e-16
0.88153 3.4063e-16
0.88407 3.3282e-16
0.88662 3.2533e-16
0.88918 3.1815e-16
0.89174 3.1126e-16
0.89431 3.0467e-16
0.89689 2.9835e-16
0.89947 2.9229e-16
0.90207 2.865e-16
0.90467 2.8095e-16
0.90728 2.7565e-16
0.90989 2.7058e-16
0.91252 2.6574e-16
0.91515 2.6112e-16
0.91778 2.5671e-16
0.92043 2.5251e-16
0.92308 2.4851e-16
0.92575 2.4471e-16
0.92841 2.411e-16
0.93109 2.3769e-16
0.93378 2.3445e-16
0.93647 2.314e-16
0.93917 2.2852e-16
0.94188 2.2582e-16
0.94459 2.2329e-16
0.94731 2.2093e-16
0.95005 2.1874e-16
0.95278 2.1671e-16
0.95553 2.1485e-16
0.95829 2.1316e-16
0.96105 2.1163e-16
0.96382 2.1026e-16
0.9666 2.0906e-16
0.96939 2.0803e-16
0.97218 2.0717e-16
0.97498 2.0648e-16
0.97779 2.0596e-16
0.98061 2.0562e-16
0.98344 2.0546e-16
0.98628 2.0548e-16
0.98912 2.057e-16
0.99197 2.0612e-16
0.99483 2.0674e-16
0.9977 2.0758e-16
1.0006 2.0865e-16
1.0035 2.0989e-16
1.0064 2.1129e-16
1.0093 2.1287e-16
1.0122 2.1463e-16
1.0151 2.166e-16
1.018 2.1878e-16
1.0209 2.2119e-16
1.0239 2.2385e-16
1.0268 2.268e-16
1.0298 2.3004e-16
1.0328 2.3361e-16
1.0357 2.3756e-16
1.0387 2.419e-16
1.0417 2.467e-16
1.0447 2.5199e-16
1.0477 2.5786e-16
1.0508 2.6436e-16
1.0538 2.7159e-16
1.0568 2.7966e-16
1.0599 2.8868e-16
1.0629 2.9882e-16
1.066 3.1026e-16
1.0691 3.2325e-16
1.0722 3.3809e-16
1.0752 3.5516e-16
1.0783 3.7497e-16
1.0815 3.9819e-16
1.0846 4.2572e-16
1.0877 4.5883e-16
1.0908 4.9935e-16
1.094 5.4996e-16
1.0971 6.1487e-16
1.1003 7.01e-16
1.1035 8.2059e-16
1.1067 9.9753e-16
1.1098 1.2856e-15
1.113 1.8364e-15
1.1163 3.3075e-15
1.1195 1.9591e-14
1.1227 4.7705e-15
1.1259 2.0841e-15
1.1292 1.3161e-15
1.1324 9.5256e-16
1.1357 7.4071e-16
1.139 6.0212e-16
1.1423 5.0447e-16
1.1456 4.3201e-16
1.1489 3.7615e-16
1.1522 3.3182e-16
1.1555 2.958e-16
1.1588 2.6598e-16
1.1622 2.4091e-16
1.1655 2.1955e-16
1.1689 2.0115e-16
1.1722 1.8515e-16
1.1756 1.7111e-16
1.179 1.587e-16
1.1824 1.4767e-16
1.1858 1.378e-16
1.1892 1.2893e-16
1.1927 1.2091e-16
1.1961 1.1364e-16
1.1996 1.0701e-16
1.203 1.0096e-16
1.2065 9.541e-17
1.21 9.0307e-17
1.2134 8.5603e-17
1.2169 8.1257e-17
1.2205 7.7233e-17
1.224 7.35e-17
1.2275 7.0032e-17
1.231 6.6806e-17
1.2346 6.3806e-17
1.2381 6.1015e-17
1.2417 5.8425e-17
1.2453 5.6032e-17
1.2489 5.3842e-17
1.2525 5.1884e-17
1.2561 5.0225e-17
1.2597 4.9042e-17
1.2634 4.8839e-17
1.267 5.1478e-17
1.2707 6.806e-17
1.2743 9.2017e-16
1.278 7.0547e-17
1.2817 4.6733e-17
1.2854 4.0273e-17
1.2891 3.7072e-17
1.2928 3.493e-17
1.2965 3.3254e-17
1.3003 3.1829e-17
1.304 3.0562e-17
1.3078 2.9406e-17
1.3115 2.8335e-17
1.3153 2.7332e-17
1.3191 2.6388e-17
1.3229 2.5495e-17
1.3267 2.4647e-17
1.3305 2.384e-17
1.3344 2.3071e-17
1.3382 2.2337e-17
1.3421 2.1635e-17
1.346 2.0963e-17
1.3498 2.0319e-17
1.3537 1.9702e-17
1.3576 1.9111e-17
1.3615 1.8543e-17
1.3655 1.7997e-17
1.3694 1.7473e-17
1.3734 1.6969e-17
1.3773 1.6484e-17
1.3813 1.6017e-17
1.3853 1.5568e-17
1.3893 1.5136e-17
1.3933 1.4719e-17
1.3973 1.4317e-17
1.4013 1.393e-17
1.4054 1.3557e-17
1.4094 1.3196e-17
1.4135 1.2849e-17
1.4175 1.2513e-17
1.4216 1.2189e-17
1.4257 1.1876e-17
1.4298 1.1574e-17
1.434 1.1282e-17
1.4381 1.1e-17
1.4422 1.0727e-17
1.4464 1.0463e-17
1.4506 1.0208e-17
1.4548 9.9611e-18
1.459 9.7224e-18
1.4632 9.4913e-18
1.4674 9.2677e-18
1.4716 9.0512e-18
1.4759 8.8416e-18
1.4801 8.6387e-18
1.4844 8.4422e-18
1.4887 8.2518e-18
1.4929 8.0674e-18
1.4972 7.8888e-18
1.5016 7.7157e-18
1.5059 7.5479e-18
1.5102 7.3853e-18
1.5146 7.2277e-18
1.519 7.075e-18
1.5233 6.9269e-18
1.5277 6.7833e-18
1.5321 6.6442e-18
1.5365 6.5092e-18
1.541 6.3784e-18
1.5454 6.2515e-18
1.5499 6.1284e-18
1.5543 6.0091e-18
1.5588 5.8934e-18
1.5633 5.7812e-18
1.5678 5.6725e-18
1.5723 5.567e-18
1.5769 5.4647e-18
1.5814 5.3656e-18
1.586 5.2695e-18
1.5906 5.1763e-18
1.5951 5.0861e-18
1.5997 4.9986e-18
1.6044 4.9138e-18
1.609 4.8317e-18
1.6136 4.7522e-18
1.6183 4.6753e-18
1.6229 4.6008e-18
1.6276 4.5287e-18
1.6323 4.459e-18
1.637 4.3916e-18
1.6417 4.3265e-18
1.6465 4.2636e-18
1.6512 4.2029e-18
1.656 4.1443e-18
1.6608 4.0879e-18
1.6655 4.0335e-18
1.6703 3.9812e-18
1.6752 3.9309e-18
1.68 3.8826e-18
1.6848 3.8363e-18
1.6897 3.7919e-18
1.6946 3.7496e-18
1.6994 3.7091e-18
1.7043 3.6706e-18
1.7093 3.6341e-18
1.7142 3.5995e-18
1.7191 3.5668e-18
1.7241 3.5361e-18
1.7291 3.5074e-18
1.734 3.4807e-18
1.739 3.456e-18
1.7441 3.4334e-18
1.7491 3.4129e-18
1.7541 3.3945e-18
1.7592 3.3783e-18
1.7643 3.3645e-18
1.7693 3.353e-18
1.7744 3.3439e-18
1.7796 3.3374e-18
1.7847 3.3335e-18
1.7898 3.3325e-18
1.795 3.3344e-18
1.8002 3.3395e-18
1.8054 3.3479e-18
1.8106 3.3599e-18
1.8158 3.3757e-18
1.821 3.3958e-18
1.8263 3.4203e-18
1.8315 3.4498e-18
1.8368 3.4848e-18
1.8421 3.5258e-18
1.8474 3.5735e-18
1.8528 3.6287e-18
1.8581 3.6924e-18
1.8634 3.7657e-18
1.8688 3.8501e-18
1.8742 3.9472e-18
1.8796 4.0593e-18
1.885 4.1889e-18
1.8905 4.3394e-18
1.8959 4.5152e-18
1.9014 4.7219e-18
1.9069 4.967e-18
1.9124 5.2607e-18
1.9179 5.6173e-18
1.9234 6.0574e-18
1.929 6.6117e-18
1.9345 7.328e-18
1.9401 8.2856e-18
1.9457 9.6258e-18
1.9513 1.1627e-17
1.9569 1.4925e-17
1.9626 2.1355e-17
1.9682 3.9326e-17
1.9739 3.6227e-16
1.9796 4.709e-17
1.9853 2.1458e-17
1.991 1.3625e-17
1.9968 9.8376e-18
2.0025 7.6093e-18
2.0083 6.1454e-18
2.0141 5.1132e-18
2.0199 4.3488e-18
2.0257 3.7627e-18
2.0315 3.3018e-18
2.0374 2.9334e-18
2.0433 2.6369e-18
2.0492 2.3998e-18
2.0551 2.2168e-18
2.061 2.091e-18
2.0669 2.0399e-18
2.0729 2.116e-18
2.0789 2.4833e-18
2.0849 3.8663e-18
2.0909 2.1201e-17
2.0969 5.3521e-18
2.103 2.5083e-18
2.109 1.7358e-18
2.1151 1.3791e-18
2.1212 1.1697e-18
2.1273 1.0277e-18
2.1334 9.2219e-19
2.1396 8.3871e-19
2.1458 7.698e-19
2.152 7.1119e-19
2.1582 6.6027e-19
2.1644 6.1532e-19
2.1706 5.7518e-19
2.1769 5.3899e-19
2.1832 5.0613e-19
2.1895 4.7613e-19
2.1958 4.486e-19
2.2021 4.2325e-19
2.2084 3.9981e-19
2.2148 3.7809e-19
2.2212 3.579e-19
2.2276 3.391e-19
2.234 3.2156e-19
2.2405 3.0517e-19
2.2469 2.8982e-19
2.2534 2.7543e-19
2.2599 2.6192e-19
2.2664 2.4923e-19
2.2729 2.3728e-19
2.2795 2.2602e-19
2.2861 2.1541e-19
2.2927 2.054e-19
2.2993 1.9594e-19
2.3059 1.87e-19
2.3125 1.7854e-19
2.3192 1.7054e-19
2.3259 1.6295e-19
2.3326 1.5576e-19
2.3393 1.4895e-19
2.3461 1.4247e-19
2.3528 1.3633e-19
2.3596 1.3049e-19
2.3664 1.2494e-19
2.3733 1.1966e-19
2.3801 1.1464e-19
2.387 1.0986e-19
2.3938 1.0531e-19
2.4007 1.0097e-19
2.4077 9.6834e-20
2.4146 9.2892e-20
2.4216 8.9132e-20
2.4285 8.5544e-20
2.4355 8.2119e-20
2.4426 7.8849e-20
2.4496 7.5725e-20
2.4567 7.2741e-20
2.4638 6.9888e-20
2.4709 6.7161e-20
2.478 6.4553e-20
2.4851 6.2058e-20
2.4923 5.9671e-20
2.4995 5.7386e-20
2.5067 5.5198e-20
2.5139 5.3104e-20
2.5212 5.1097e-20
2.5284 4.9175e-20
2.5357 4.7333e-20
2.543 4.5567e-20
2.5504 4.3875e-20
2.5577 4.2252e-20
2.5651 4.0695e-20
2.5725 3.9201e-20
2.5799 3.7768e-20
2.5873 3.6393e-20
2.5948 3.5073e-20
2.6023 3.3805e-20
2.6098 3.2589e-20
2.6173 3.142e-20
2.6249 3.0297e-20
2.6324 2.9218e-20
2.64 2.8182e-20
2.6476 2.7186e-20
2.6553 2.6229e-20
2.6629 2.5308e-20
2.6706 2.4423e-20
2.6783 2.3572e-20
2.686 2.2754e-20
2.6938 2.1967e-20
2.7015 2.1209e-20
2.7093 2.0481e-20
2.7171 1.9779e-20
2.725 1.9104e-20
2.7328 1.8455e-20
2.7407 1.7829e-20
2.7486 1.7227e-20
2.7565 1.6647e-20
2.7645 1.6089e-20
2.7724 1.5551e-20
2.7804 1.5033e-20
2.7884 1.4534e-20
2.7965 1.4053e-20
2.8045 1.359e-20
2.8126 1.3143e-20
2.8207 1.2713e-20
2.8289 1.2298e-20
2.837 1.1898e-20
2.8452 1.1513e-20
2.8534 1.1141e-20
2.8616 1.0783e-20
2.8699 1.0437e-20
2.8782 1.0104e-20
2.8865 9.7825e-21
2.8948 9.4724e-21
2.9031 9.1733e-21
2.9115 8.8847e-21
2.9199 8.6063e-21
2.9283 8.3376e-21
2.9367 8.0783e-21
2.9452 7.8281e-21
2.9537 7.5866e-21
2.9622 7.3536e-21
2.9708 7.1286e-21
2.9793 6.9114e-21
2.9879 6.7017e-21
2.9965 6.4993e-21
3.0052 6.3039e-21
3.0138 6.1151e-21
3.0225 5.9329e-21
3.0312 5.7569e-21
3.04 5.587e-21
3.0487 5.4229e-21
3.0575 5.2643e-21
3.0663 5.1112e-21
3.0752 4.9633e-21
3.0841 4.8205e-21
3.0929 4.6825e-21
3.1019 4.5492e-21
3.1108 4.4204e-21
3.1198 4.296e-21
3.1288 4.1758e-21
3.1378 4.0597e-21
3.1468 3.9476e-21
3.1559 3.8392e-21
3.165 3.7345e-21
3.1741 3.6333e-21
3.1833 3.5356e-21
3.1925 3.4412e-21
3.2017 3.35e-21
3.2109 3.2619e-21
3.2202 3.1767e-21
3.2294 3.0945e-21
3.2388 3.0151e-21
3.2481 2.9384e-21
3.2575 2.8643e-21
3.2668 2.7927e-21
3.2763 2.7236e-21
3.2857 2.6569e-21
3.2952 2.5925e-21
3.3047 2.5303e-21
3.3142 2.4703e-21
3.3238 2.4124e-21
3.3333 2.3565e-21
3.343 2.3026e-21
3.3526 2.2506e-21
3.3623 2.2005e-21
3.372 2.1521e-21
3.3817 2.1056e-21
3.3914 2.0607e-21
3.4012 2.0175e-21
3.411 1.976e-21
3.4208 1.9359e-21
3.4307 1.8975e-21
3.4406 1.8605e-21
3.4505 1.825e-21
3.4605 1.7909e-21
3.4704 1.7583e-21
3.4805 1.727e-21
3.4905 1.697e-21
3.5005 1.6684e-21
3.5106 1.641e-21
3.5208 1.615e-21
3.5309 1.5902e-21
3.5411 1.5666e-21
3.5513 1.5443e-21
3.5615 1.5231e-21
3.5718 1.5032e-21
3.5821 1.4845e-21
3.5924 1.4671e-21
3.6028 1.4508e-21
3.6132 1.4357e-21
3.6236 1.4219e-21
3.634 1.4093e-21
3.6445 1.3979e-21
3.655 1.3878e-21
3.6656 1.3791e-21
3.6761 1.3717e-21
3.6867 1.3657e-21
3.6974 1.3611e-21
3.708 1.358e-21
3.7187 1.3565e-21
3.7294 1.3567e-21
3.7402 1.3586e-21
3.751 1.3624e-21
3.7618 1.3682e-21
3.7726 1.3763e-21
3.7835 1.3867e-21
3.7944 1.3997e-21
3.8054 1.4156e-21
3.8163 1.4347e-21
3.8273 1.4574e-21
3.8384 1.4841e-21
3.8494 1.5156e-21
3.8605 1.5523e-21
3.8717 1.5953e-21
3.8828 1.6457e-21
3.894 1.7048e-21
3.9052 1.7746e-21
3.9165 1.8573e-21
3.9278 1.9563e-21
3.9391 2.076e-21
3.9505 2.2226e-21
3.9619 2.4053e-21
3.9733 2.6379e-21
3.9847 2.9426e-21
3.9962 3.3567e-21
4.0078 3.9493e-21
4.0193 4.8628e-21
4.0309 6.4475e-21
4.0425 9.854e-21
4.0542 2.2378e-20
4.0659 6.4966e-20
4.0776 1.268e-20
4.0893 6.8569e-21
4.1011 4.6205e-21
4.113 3.4394e-21
4.1248 2.7107e-21
4.1367 2.2171e-21
4.1486 1.8613e-21
4.1606 1.5932e-21
4.1726 1.3842e-21
4.1846 1.2171e-21
4.1967 1.0806e-21
4.2088 9.6715e-22
4.2209 8.7158e-22
4.2331 7.9007e-22
4.2453 7.1984e-22
4.2575 6.5878e-22
4.2698 6.0528e-22
4.2821 5.5809e-22
4.2945 5.1619e-22
4.3068 4.7881e-22
4.3193 4.4528e-22
4.3317 4.1508e-22
4.3442 3.8777e-22
4.3567 3.6298e-22
4.3693 3.4039e-22
4.3819 3.1977e-22
4.3945 3.0087e-22
4.4072 2.8351e-22
4.4199 2.6752e-22
4.4326 2.5277e-22
4.4454 2.3913e-22
4.4582 2.2648e-22
4.4711 2.1475e-22
4.484 2.0383e-22
4.4969 1.9366e-22
4.5099 1.8418e-22
4.5229 1.7532e-22
4.5359 1.6702e-22
4.549 1.5926e-22
4.5621 1.5197e-22
4.5753 1.4513e-22
4.5884 1.3871e-22
4.6017 1.3266e-22
4.6149 1.2696e-22
4.6282 1.2158e-22
4.6416 1.1651e-22
4.655 1.1172e-22
4.6684 1.072e-22
4.6819 1.0291e-22
4.6953 9.886e-23
4.7089 9.5019e-23
4.7225 9.1376e-23
4.7361 8.7921e-23
4.7497 8.464e-23
4.7634 8.1524e-23
4.7772 7.8562e-23
4.7909 7.5745e-23
4.8047 7.3064e-23
4.8186 7.0512e-23
4.8325 6.808e-23
4.8464 6.5763e-23
4.8604 6.3553e-23
4.8744 6.1445e-23
4.8885 5.9433e-23
4.9026 5.7512e-23
4.9167 5.5677e-23
4.9309 5.3923e-23
4.9451 5.2246e-23
4.9593 5.0642e-23
4.9736 4.9107e-23
4.988 4.7638e-23
5.0024 4.6231e-23
5.0168 4.4884e-23
5.0312 4.3592e-23
5.0458 4.2354e-23
5.0603 4.1166e-23
5.0749 4.0027e-23
5.0895 3.8934e-23
5.1042 3.7884e-23
5.1189 3.6876e-23
5.1337 3.5907e-23
5.1485 3.4976e-23
5.1633 3.4081e-23
5.1782 3.3221e-23
5.1931 3.2393e-23
5.2081 3.1596e-23
5.2231 3.0828e-23
5.2382 3.0089e-23
5.2533 2.9378e-23
5.2684 2.8691e-23
5.2836 2.803e-23
5.2988 2.7392e-23
5.3141 2.6776e-23
5.3294 2.6182e-23
5.3448 2.5609e-23
5.3602 2.5055e-23
5.3757 2.452e-23
5.3912 2.4002e-23
5.4067 2.3502e-23
5.4223 2.3019e-23
5.4379 2.2551e-23
5.4536 2.2097e-23
5.4693 2.1659e-23
5.4851 2.1234e-23
5.5009 2.0822e-23
5.5168 2.0423e-23
5.5327 2.0036e-23
5.5486 1.966e-23
5.5646 1.9296e-23
5.5807 1.8942e-23
5.5968 1.8599e-23
5.6129 1.8265e-23
5.6291 1.7941e-23
5.6453 1.7625e-23
5.6616 1.7318e-23
5.6779 1.702e-23
5.6943 1.6729e-23
5.7107 1.6447e-23
5.7272 1.6171e-23
5.7437 1.5903e-23
5.7602 1.5641e-23
5.7768 1.5386e-23
5.7935 1.5137e-23
5.8102 1.4894e-23
5.827 1.4657e-23
5.8438 1.4426e-23
5.8606 1.42e-23
5.8775 1.3979e-23
5.8944 1.3762e-23
5.9114 1.3549e-23
5.9285 1.3341e-23
5.9456 1.3137e-23
5.9627 1.2938e-23
5.9799 1.2742e-23
5.9971 1.2551e-23
6.0144 1.2364e-23
6.0318 1.2181e-23
6.0492 1.2001e-23
6.0666 1.1826e-23
6.0841 1.1653e-23
6.1016 1.1484e-23
6.1192 1.1318e-23
6.1369 1.1155e-23
6.1546 1.0996e-23
6.1723 1.0839e-23
6.1901 1.0685e-23
6.208 1.0534e-23
6.2258 1.0386e-23
6.2438 1.024e-23
6.2618 1.0097e-23
6.2799 9.9564e-24
6.298 9.8183e-24
6.3161 9.6824e-24
6.3343 9.5489e-24
6.3526 9.4177e-24
6.3709 9.2886e-24
6.3893 9.1616e-24
6.4077 9.0367e-24
6.4262 8.9138e-24
6.4447 8.7929e-24
6.4633 8.674e-24
6.4819 8.5569e-24
6.5006 8.4416e-24
6.5193 8.3282e-24
6.5381 8.2165e-24
6.557 8.1065e-24
6.5759 7.9982e-24
6.5948 7.8915e-24
6.6139 7.7865e-24
6.6329 7.683e-24
6.6521 7.581e-24
6.6712 7.4805e-24
6.6905 7.3814e-24
6.7098 7.2838e-24
6.7291 7.1876e-24
6.7485 7.0928e-24
6.768 6.9994e-24
6.7875 6.9073e-24
6.807 6.8166e-24
6.8267 6.7271e-24
6.8463 6.6389e-24
6.8661 6.552e-24
6.8859 6.4663e-24
6.9057 6.3818e-24
6.9256 6.2985e-24
6.9456 6.2163e-24
6.9656 6.1353e-24
6.9857 6.0555e-24
7.0059 5.9767e-24
7.0261 5.899e-24
7.0463 5.8224e-24
7.0666 5.7469e-24
7.087 5.6723e-24
7.1074 5.5989e-24
7.1279 5.5264e-24
7.1485 5.4549e-24
7.1691 5.3844e-24
7.1898 5.3148e-24
7.2105 5.2462e-24
7.2313 5.1786e-24
7.2521 5.1118e-24
7.273 5.046e-24
7.294 4.981e-24
7.315 4.9169e-24
7.3361 4.8538e-24
7.3573 4.7914e-24
7.3785 4.7299e-24
7.3998 4.6692e-24
7.4211 4.6094e-24
7.4425 4.5503e-24
7.4639 4.4921e-24
7.4855 4.4346e-24
7.507 4.3779e-24
7.5287 4.322e-24
7.5504 4.2668e-24
7.5722 4.2124e-24
7.594 4.1587e-24
7.6159 4.1057e-24
7.6378 4.0535e-24
7.6599 4.0019e-24
7.6819 3.9511e-24
7.7041 3.9009e-24
7.7263 3.8514e-24
7.7486 3.8026e-24
7.7709 3.7544e-24
7.7933 3.7069e-24
7.8158 3.66e-24
7.8383 3.6137e-24
7.8609 3.5681e-24
7.8836 3.5231e-24
7.9063 3.4787e-24
7.9291 3.4349e-24
7.952 3.3917e-24
7.9749 3.349e-24
7.9979 3.307e-24
8.021 3.2655e-24
8.0441 3.2246e-24
8.0673 3.1842e-24
8.0905 3.1444e-24
8.1139 3.1051e-24
8.1372 3.0663e-24
8.1607 3.0281e-24
8.1842 2.9904e-24
8.2078 2.9532e-24
8.2315 2.9165e-24
8.2552 2.8803e-24
8.279 2.8446e-24
8.3029 2.8093e-24
8.3268 2.7746e-24
8.3508 2.7403e-24
8.3749 2.7065e-24
8.3991 2.6732e-24
8.4233 2.6402e-24
8.4476 2.6078e-24
8.4719 2.5758e-24
8.4963 2.5442e-24
8.5208 2.513e-24
8.5454 2.4823e-24
8.57 2.452e-24
8.5948 2.4221e-24
8.6195 2.3926e-24
8.6444 2.3636e-24
8.6693 2.3349e-24
8.6943 2.3066e-24
8.7194 2.2786e-24
8.7445 2.2511e-24
8.7697 2.224e-24
8.795 2.1972e-24
8.8204 2.1708e-24
8.8458 2.1447e-24
8.8713 2.119e-24
8.8969 2.0937e-24
8.9225 2.0687e-24
8.9482 2.044e-24
8.974 2.0197e-24
8.9999 1.9957e-24
9.0259 1.9721e-24
9.0519 1.9488e-24
9.078 1.9258e-24
9.1042 1.9031e-24
9.1304 1.8807e-24
9.1567 1.8586e-24
9.1831 1.8369e-24
9.2096 1.8154e-24
9.2362 1.7942e-24
9.2628 1.7734e-24
9.2895 1.7528e-24
9.3163 1.7325e-24
9.3431 1.7124e-24
9.3701 1.6927e-24
9.3971 1.6732e-24
9.4242 1.654e-24
9.4514 1.6351e-24
9.4786 1.6164e-24
9.5059 1.598e-24
9.5333 1.5798e-24
9.5608 1.5619e-24
9.5884 1.5442e-24
9.616 1.5268e-24
9.6438 1.5097e-24
9.6716 1.4927e-24
9.6994 1.476e-24
9.7274 1.4595e-24
9.7555 1.4433e-24
9.7836 1.4273e-24
9.8118 1.4115e-24
9.8401 1.3959e-24
9.8684 1.3806e-24
9.8969 1.3654e-24
9.9254 1.3505e-24
9.954 1.3358e-24
9.9827 1.3213e-24
10.012 1.3071e-24
10.04 1.2931e-24
10.069 1.2794e-24
10.098 1.2659e-24
10.127 1.2526e-24
10.157 1.2394e-24
10.186 1.2265e-24
10.215 1.2137e-24
10.245 1.2011e-24
10.274 1.1887e-24
10.304 1.1764e-24
10.334 1.1643e-24
10.363 1.1524e-24
10.393 1.1406e-24
10.423 1.1291e-24
10.453 1.1176e-24
10.483 1.1064e-24
10.514 1.0953e-24
10.544 1.0843e-24
10.574 1.0735e-24
10.605 1.0629e-24
10.635 1.0524e-24
10.666 1.042e-24
10.697 1.0318e-24
10.728 1.0218e-24
10.759 1.0119e-24
10.79 1.0021e-24
10.821 9.9246e-25
10.852 9.8297e-25
10.883 9.736e-25
10.915 9.6438e-25
10.946 9.5528e-25
10.978 9.4631e-25
11.009 9.3747e-25
11.041 9.2876e-25
11.073 9.2017e-25
11.105 9.117e-25
11.137 9.0336e-25
11.169 8.9513e-25
11.201 8.8703e-25
11.233 8.7903e-25
11.266 8.7116e-25
11.298 8.6339e-25
11.331 8.5575e-25
11.364 8.4821e-25
11.396 8.4077e-25
11.429 8.3345e-25
11.462 8.2624e-25
11.495 8.1913e-25
11.528 8.1212e-25
11.562 8.0521e-25
11.595 7.9842e-25
11.628 7.917e-25
11.662 7.8509e-25
11.695 7.7859e-25
11.729 7.7217e-25
11.763 7.6585e-25
11.797 7.5962e-25
11.831 7.5348e-25
11.865 7.4744e-25
11.899 7.4149e-25
11.934 7.3562e-25
11.968 7.2983e-25
12.002 7.2414e-25
12.037 7.1853e-25
12.072 7.1301e-25
12.107 7.0756e-25
12.141 7.022e-25
12.176 6.9692e-25
12.212 6.9172e-25
12.247 6.866e-25
12.282 6.8154e-25
12.318 6.7658e-25
12.353 6.7169e-25
12.389 6.6686e-25
12.424 6.6211e-25
12.46 6.5744e-25
12.496 6.5284e-25
12.532 6.4831e-25
12.568 6.4385e-25
12.604 6.3945e-25
12.641 6.3512e-25
12.677 6.3086e-25
12.714 6.2666e-25
12.75 6.2255e-25
12.787 6.1847e-25
12.824 6.1445e-25
12.861 6.1052e-25
12.898 6.0663e-25
12.935 6.0283e-25
12.973 5.9907e-25
13.01 5.9538e-25
13.048 5.9174e-25
13.085 5.8817e-25
13.123 5.8465e-25
13.161 5.8118e-25
13.199 5.7778e-25
13.237 5.7438e-25
13.275 5.7107e-25
13.313 5.6783e-25
13.352 5.6465e-25
13.39 5.6149e-25
13.429 5.5837e-25
13.467 5.5537e-25
13.506 5.5236e-25
13.545 5.494e-25
13.584 5.4648e-25
13.623 5.436e-25
13.663 5.4078e-25
13.702 5.3803e-25
13.742 5.3525e-25
13.781 5.3263e-25
13.821 5.3001e-25
13.861 5.2737e-25
13.901 5.2475e-25
13.941 5.2221e-25
13.981 5.1972e-25
14.021 5.1724e-25
14.062 5.149e-25
14.102 5.1256e-25
14.143 5.1018e-25
14.184 5.0778e-25
14.225 5.0557e-25
14.266 5.0328e-25
14.307 5.0111e-25
14.348 4.9886e-25
14.389 4.9675e-25
14.431 4.9466e-25
14.472 4.9248e-25
14.514 4.9047e-25
14.556 4.8848e-25
14.598 4.8643e-25
14.64 4.8448e-25
14.682 4.8264e-25
14.725 4.8063e-25
14.767 4.7875e-25
14.81 4.7689e-25
14.852 4.7501e-25
14.895 4.7328e-25
14.938 4.7156e-25
14.981 4.6971e-25
15.024 4.6802e-25
15.068 4.6633e-25
15.111 4.647e-25
15.155 4.6301e-25
15.198 4.6144e-25
15.242 4.5984e-25
15.286 4.5831e-25
15.33 4.5677e-25
15.374 4.5523e-25
15.419 4.5372e-25
15.463 4.5225e-25
15.508 4.5082e-25
15.552 4.4942e-25
15.597 4.4802e-25
15.642 4.4666e-25
15.687 4.453e-25
15.733 4.4398e-25
15.778 4.4267e-25
15.823 4.4138e-25
15.869 4.4016e-25
15.915 4.3891e-25
15.961 4.3768e-25
16.007 4.3648e-25
16.053 4.353e-25
16.099 4.3413e-25
16.146 4.3297e-25
16.192 4.3185e-25
16.239 4.3075e-25
16.286 4.2967e-25
16.333 4.2857e-25
16.38 4.2752e-25
16.427 4.2649e-25
16.474 4.2546e-25
16.522 4.2446e-25
16.569 4.2344e-25
16.617 4.2246e-25
16.665 4.2152e-25
16.713 4.2055e-25
16.761 4.1963e-25
16.81 4.187e-25
16.858 4.1779e-25
16.907 4.1694e-25
16.955 4.1601e-25
17.004 4.1513e-25
17.053 4.1428e-25
17.102 4.1344e-25
17.152 4.1262e-25
17.201 4.1178e-25
17.251 4.1097e-25
17.301 4.1017e-25
17.35 4.094e-25
17.4 4.0862e-25
17.451 4.0788e-25
17.501 4.0712e-25
17.551 4.0638e-25
17.602 4.0565e-25
17.653 4.0494e-25
17.704 4.0423e-25
17.755 4.0353e-25
17.806 4.0285e-25
17.857 4.0217e-25
17.909 4.015e-25
17.96 4.0085e-25
18.012 4.002e-25
18.064 3.9957e-25
18.116 3.9894e-25
18.168 3.9832e-25
18.221 3.9771e-25
18.273 3.971e-25
18.326 3.9651e-25
18.379 3.9593e-25
18.432 3.9535e-25
18.485 3.9478e-25
18.538 3.9422e-25
18.592 3.9367e-25
18.645 3.9312e-25
18.699 3.9258e-25
18.753 3.9205e-25
18.807 3.9153e-25
18.861 3.9101e-25
18.916 3.905e-25
18.97 3.9e-25
19.025 3.895e-25
19.08 3.8901e-25
19.135 3.8853e-25
19.19 3.8805e-25
19.245 3.8759e-25
19.301 3.8712e-25
19.356 3.8666e-25
19.412 3.8621e-25
19.468 3.8577e-25
19.524 3.8533e-25
19.58 3.8489e-25
19.637 3.8446e-25
19.694 3.8403e-25
19.75 3.8362e-25
19.807 3.832e-25
19.864 3.8279e-25
19.922 3.824e-25
19.979 3.8199e-25
20.037 3.8161e-25
20.094 3.8122e-25
20.152 3.8083e-25
20.21 3.8046e-25
20.269 3.8008e-25
20.327 3.7971e-25
20.386 3.7935e-25
20.445 3.7898e-25
20.503 3.7863e-25
20.563 3.7828e-25
20.622 3.7793e-25
20.681 3.7759e-25
20.741 3.7724e-25
20.801 3.7691e-25
20.861 3.7658e-25
20.921 3.7625e-25
20.981 3.7593e-25
21.042 3.756e-25
21.102 3.7529e-25
21.163 3.7498e-25
21.224 3.7466e-25
21.285 3.7436e-25
21.347 3.7406e-25
21.408 3.7376e-25
21.47 3.7347e-25
21.532 3.7317e-25
21.594 3.7288e-25
21.656 3.726e-25
21.719 3.7231e-25
21.781 3.7205e-25
21.844 3.7175e-25
21.907 3.7148e-25
21.97 3.7121e-25
22.034 3.7094e-25
22.097 3.7068e-25
22.161 3.7042e-25
22.225 3.7015e-25
22.289 3.6989e-25
22.353 3.6964e-25
22.418 3.6938e-25
22.482 3.6914e-25
22.547 3.689e-25
22.612 3.6865e-25
22.677 3.6841e-25
22.743 3.6815e-25
22.808 3.6793e-25
22.874 3.6768e-25
22.94 3.6745e-25
23.006 3.6722e-25
23.072 3.6698e-25
23.139 3.6676e-25
23.206 3.6653e-25
23.272 3.6631e-25
23.34 3.6609e-25
23.407 3.6587e-25
23.474 3.6565e-25
23.542 3.6544e-25
23.61 3.6523e-25
23.678 3.6502e-25
23.746 3.648e-25
23.815 3.646e-25
23.883 3.6439e-25
23.952 3.6419e-25
24.021 3.6399e-25
24.09 3.638e-25
24.16 3.636e-25
24.23 3.6341e-25
24.299 3.6322e-25
24.37 3.6302e-25
24.44 3.6283e-25
24.51 3.6264e-25
24.581 3.6245e-25
24.652 3.6227e-25
24.723 3.6209e-25
24.794 3.619e-25
24.866 3.6173e-25
24.937 3.6155e-25
25.009 3.6137e-25
25.081 3.612e-25
25.154 3.6102e-25
25.226 3.6085e-25
25.299 3.6068e-25
25.372 3.6051e-25
25.445 3.6034e-25
25.518 3.6018e-25
25.592 3.6001e-25
25.666 3.5985e-25
25.74 3.5969e-25
25.814 3.5953e-25
25.888 3.5937e-25
25.963 3.5922e-25
26.038 3.5906e-25
26.113 3.589e-25
26.188 3.5875e-25
26.264 3.586e-25
26.339 3.5845e-25
26.415 3.5829e-25
26.491 3.5815e-25
26.568 3.58e-25
26.644 3.5785e-25
26.721 3.5771e-25
26.798 3.5756e-25
26.876 3.5741e-25
26.953 3.5727e-25
27.031 3.5712e-25
27.109 3.5698e-25
27.187 3.5684e-25
27.265 3.567e-25
27.344 3.5656e-25
27.423 3.5642e-25
27.502 3.5628e-25
27.581 3.5615e-25
27.661 3.5601e-25
27.74 3.5588e-25
27.82 3.5575e-25
27.9 3.5562e-25
27.981 3.555e-25
28.062 3.5535e-25
28.142 3.5521e-25
28.224 3.5508e-25
28.305 3.5497e-25
28.387 3.5485e-25
28.468 3.5471e-25
28.551 3.5458e-25
28.633 3.5446e-25
28.715 3.5435e-25
28.798 3.5422e-25
28.881 3.5409e-25
28.964 3.5398e-25
29.048 3.5386e-25
29.132 3.5373e-25
29.216 3.5361e-25
29.3 3.5348e-25
29.384 3.5337e-25
29.469 3.5325e-25
29.554 3.5313e-25
29.639 3.5302e-25
29.725 3.5289e-25
29.81 3.5278e-25
29.896 3.5266e-25
29.983 3.5256e-25
30.069 3.5244e-25
30.156 3.5233e-25
30.243 3.5222e-25
30.33 3.5211e-25
30.417 3.52e-25
30.505 3.5189e-25
30.593 3.5178e-25
30.681 3.5167e-25
30.77 3.5157e-25
30.858 3.5146e-25
30.947 3.5136e-25
31.037 3.5125e-25
31.126 3.5115e-25
31.216 3.5104e-25
31.306 3.5094e-25
31.396 3.5084e-25
31.487 3.5074e-25
31.577 3.5064e-25
31.668 3.5054e-25
31.76 3.5044e-25
31.851 3.5034e-25
31.943 3.5024e-25
32.035 3.5014e-25
32.127 3.5004e-25
32.22 3.4995e-25
32.313 3.4985e-25
32.406 3.4976e-25
32.5 3.4966e-25
32.593 3.4957e-25
32.687 3.4947e-25
32.782 3.4938e-25
32.876 3.4928e-25
32.971 3.4919e-25
33.066 3.491e-25
33.161 3.4901e-25
33.257 3.4892e-25
33.353 3.4883e-25
33.449 3.4874e-25
33.545 3.4865e-25
33.642 3.4856e-25
33.739 3.4847e-25
33.836 3.4838e-25
33.934 3.4829e-25
34.032 3.4821e-25
34.13 3.4812e-25
34.228 3.4803e-25
34.327 3.4795e-25
34.426 3.4786e-25
34.525 3.4778e-25
34.625 3.4769e-25
34.724 3.4761e-25
34.825 3.4752e-25
34.925 3.4744e-25
35.026 3.4736e-25
35.127 3.4727e-25
35.228 3.4719e-25
35.329 3.4711e-25
35.431 3.4703e-25
35.533 3.4695e-25
35.636 3.4687e-25
35.739 3.4679e-25
35.842 3.4671e-25
35.945 3.4663e-25
36.049 3.4655e-25
36.153 3.4647e-25
36.257 3.4639e-25
36.361 3.4632e-25
36.466 3.4624e-25
36.571 3.4616e-25
36.677 3.4608e-25
36.783 3.4601e-25
36.889 3.4593e-25
36.995 3.4586e-25
37.102 3.4578e-25
37.209 3.457e-25
37.316 3.4563e-25
37.423 3.4556e-25
37.531 3.4548e-25
37.64 3.4541e-25
37.748 3.4533e-25
37.857 3.4526e-25
37.966 3.4519e-25
38.075 3.4512e-25
38.185 3.4504e-25
38.295 3.4497e-25
38.406 3.449e-25
38.516 3.4483e-25
38.628 3.4476e-25
38.739 3.4469e-25
38.851 3.4462e-25
38.963 3.4455e-25
39.075 3.4448e-25
39.188 3.4441e-25
39.301 3.4434e-25
39.414 3.4427e-25
39.527 3.4421e-25
39.641 3.4414e-25
39.756 3.4407e-25
39.87 3.44e-25
39.985 3.4394e-25
40.101 3.4387e-25
40.216 3.4381e-25
40.332 3.4374e-25
40.448 3.4367e-25
40.565 3.4361e-25
40.682 3.4354e-25
40.799 3.4348e-25
40.917 3.4341e-25
41.035 3.4335e-25
41.153 3.4328e-25
41.272 3.4322e-25
41.391 3.4316e-25
41.51 3.431e-25
41.63 3.4303e-25
41.75 3.4297e-25
41.87 3.4291e-25
41.991 3.4285e-25
42.112 3.4278e-25
42.233 3.4272e-25
42.355 3.4266e-25
42.477 3.426e-25
42.6 3.4254e-25
42.723 3.4248e-25
42.846 3.4242e-25
42.969 3.4236e-25
43.093 3.423e-25
43.217 3.4224e-25
43.342 3.4218e-25
43.467 3.4212e-25
43.592 3.4206e-25
43.718 3.42e-25
43.844 3.4194e-25
43.97 3.4188e-25
44.097 3.4183e-25
44.224 3.4177e-25
44.352 3.4171e-25
44.48 3.4165e-25
44.608 3.4159e-25
44.737 3.4154e-25
44.866 3.4148e-25
44.995 3.4142e-25
45.125 3.4137e-25
45.255 3.4131e-25
45.385 3.4125e-25
45.516 3.412e-25
45.647 3.4114e-25
45.779 3.4109e-25
45.911 3.4103e-25
46.043 3.4098e-25
46.176 3.4093e-25
46.309 3.4087e-25
46.443 3.4082e-25
46.577 3.4076e-25
46.711 3.4071e-25
46.845 3.4066e-25
46.981 3.4061e-25
47.116 3.4055e-25
47.252 3.405e-25
47.388 3.4045e-25
47.525 3.404e-25
47.662 3.4035e-25
47.799 3.4029e-25
47.937 3.4024e-25
48.075 3.4019e-25
48.214 3.4014e-25
48.353 3.4009e-25
48.492 3.4004e-25
48.632 3.3999e-25
48.772 3.3994e-25
48.913 3.3989e-25
49.054 3.3984e-25
49.195 3.3979e-25
49.337 3.3974e-25
49.479 3.3969e-25
49.622 3.3964e-25
49.765 3.3959e-25
49.909 3.3954e-25
50.052 3.3949e-25
50.197 3.3944e-25
50.341 3.3939e-25
50.487 3.3934e-25
50.632 3.393e-25
50.778 3.3925e-25
50.924 3.392e-25
51.071 3.3915e-25
51.219 3.3911e-25
51.366 3.3906e-25
51.514 3.3901e-25
51.663 3.3897e-25
51.812 3.3892e-25
51.961 3.3887e-25
52.111 3.3883e-25
52.261 3.3878e-25
52.412 3.3874e-25
52.563 3.3869e-25
52.715 3.3865e-25
52.867 3.386e-25
53.019 3.3856e-25
53.172 3.3851e-25
53.325 3.3847e-25
53.479 3.3842e-25
53.633 3.3838e-25
53.788 3.3833e-25
53.943 3.3829e-25
54.098 3.3825e-25
54.254 3.382e-25
54.411 3.3816e-25
54.568 3.3812e-25
54.725 3.3807e-25
54.883 3.3803e-25
55.041 3.3799e-25
55.2 3.3794e-25
55.359 3.379e-25
55.518 3.3786e-25
55.678 3.3782e-25
55.839 3.3778e-25
56 3.3773e-25
56.161 3.3769e-25
56.323 3.3765e-25
56.486 3.3761e-25
56.648 3.3757e-25
56.812 3.3753e-25
56.976 3.3749e-25
57.14 3.3745e-25
57.305 3.3741e-25
57.47 3.3737e-25
57.636 3.3733e-25
57.802 3.3729e-25
57.968 3.3725e-25
58.135 3.3721e-25
58.303 3.3717e-25
58.471 3.3714e-25
58.64 3.371e-25
58.809 3.3706e-25
58.978 3.3702e-25
59.148 3.3698e-25
59.319 3.3694e-25
59.49 3.369e-25
59.661 3.3686e-25
59.833 3.3682e-25
60.006 3.3678e-25
60.179 3.3675e-25
60.352 3.3671e-25
60.526 3.3667e-25
60.701 3.3663e-25
60.876 3.3659e-25
61.052 3.3656e-25
61.228 3.3652e-25
61.404 3.3648e-25
61.581 3.3645e-25
61.759 3.3641e-25
61.937 3.3637e-25
62.115 3.3634e-25
62.294 3.363e-25
62.474 3.3626e-25
62.654 3.3623e-25
62.835 3.3619e-25
63.016 3.3616e-25
63.198 3.3612e-25
63.38 3.3609e-25
63.562 3.3605e-25
63.746 3.3602e-25
63.93 3.3598e-25
64.114 3.3595e-25
64.299 3.3591e-25
64.484 3.3588e-25
64.67 3.3584e-25
64.856 3.3581e-25
65.043 3.3578e-25
65.231 3.3574e-25
65.419 3.3571e-25
65.608 3.3568e-25
65.797 3.3564e-25
65.986 3.3561e-25
66.177 3.3558e-25
66.368 3.3554e-25
66.559 3.3551e-25
66.751 3.3548e-25
66.943 3.3544e-25
67.136 3.3541e-25
67.33 3.3538e-25
67.524 3.3535e-25
67.719 3.3532e-25
67.914 3.3528e-25
68.11 3.3525e-25
68.306 3.3522e-25
68.503 3.3519e-25
68.7 3.3516e-25
68.898 3.3513e-25
69.097 3.351e-25
69.296 3.3507e-25
69.496 3.3503e-25
69.696 3.35e-25
69.897 3.3497e-25
70.099 3.3494e-25
70.301 3.3491e-25
70.504 3.3488e-25
70.707 3.3485e-25
70.911 3.3482e-25
71.115 3.3479e-25
71.32 3.3476e-25
71.526 3.3474e-25
71.732 3.3471e-25
71.939 3.3468e-25
72.146 3.3465e-25
72.354 3.3462e-25
72.563 3.3459e-25
72.772 3.3456e-25
72.982 3.3453e-25
73.192 3.3451e-25
73.403 3.3448e-25
73.615 3.3445e-25
73.827 3.3442e-25
74.04 3.3439e-25
74.254 3.3437e-25
74.468 3.3434e-25
74.682 3.3431e-25
74.898 3.3428e-25
75.114 3.3426e-25
75.33 3.3423e-25
75.547 3.3421e-25
75.765 3.3418e-25
75.984 3.3415e-25
76.203 3.3413e-25
76.422 3.341e-25
76.643 3.3408e-25
76.864 3.3405e-25
77.085 3.3402e-25
77.308 3.34e-25
77.53 3.3397e-25
77.754 3.3394e-25
77.978 3.3392e-25
78.203 3.3389e-25
78.428 3.3387e-25
78.655 3.3384e-25
78.881 3.3382e-25
79.109 3.3379e-25
79.337 3.3377e-25
79.566 3.3374e-25
79.795 3.3372e-25
80.025 3.3369e-25
80.256 3.3367e-25
80.487 3.3364e-25
80.719 3.3362e-25
80.952 3.336e-25
81.185 3.3357e-25
81.419 3.3355e-25
81.654 3.3353e-25
81.89 3.335e-25
82.126 3.3348e-25
82.362 3.3346e-25
82.6 3.3344e-25
82.838 3.3341e-25
83.077 3.3339e-25
83.316 3.3337e-25
83.557 3.3335e-25
83.797 3.3333e-25
84.039 3.3331e-25
84.281 3.3329e-25
84.524 3.3326e-25
84.768 3.3324e-25
85.012 3.3322e-25
85.258 3.332e-25
85.503 3.3317e-25
85.75 3.3315e-25
85.997 3.3313e-25
86.245 3.3311e-25
86.494 3.3309e-25
86.743 3.3307e-25
86.993 3.3304e-25
87.244 3.3302e-25
87.495 3.33e-25
87.748 3.3298e-25
88.001 3.3297e-25
88.254 3.3295e-25
88.509 3.3293e-25
88.764 3.3291e-25
89.02 3.3289e-25
89.277 3.3287e-25
89.534 3.3285e-25
89.792 3.3283e-25
90.051 3.3281e-25
90.311 3.3279e-25
90.571 3.3277e-25
90.832 3.3275e-25
91.094 3.3273e-25
91.357 3.3272e-25
91.62 3.327e-25
91.884 3.3268e-25
92.149 3.3266e-25
92.415 3.3264e-25
92.681 3.3262e-25
92.948 3.3261e-25
93.216 3.3259e-25
93.485 3.3257e-25
93.755 3.3255e-25
94.025 3.3254e-25
94.296 3.3252e-25
94.568 3.325e-25
94.841 3.3249e-25
95.114 3.3247e-25
95.388 3.3245e-25
95.663 3.3244e-25
95.939 3.3242e-25
96.216 3.3241e-25
96.493 3.3239e-25
96.771 3.3237e-25
97.05 3.3236e-25
97.33 3.3234e-25
97.611 3.3233e-25
97.892 3.3231e-25
98.174 3.323e-25
98.457 3.3228e-25
98.741 3.3227e-25
99.026 3.3225e-25
99.311 3.3224e-25
99.598 3.3222e-25
99.885 3.3221e-25
100.17 3.3219e-25
100.46 3.3218e-25
100.75 3.3217e-25
101.04 3.3215e-25
101.33 3.3214e-25
101.63 3.3212e-25
101.92 3.3211e-25
102.21 3.321e-25
102.51 3.3208e-25
102.8 3.3207e-25
103.1 3.3206e-25
103.4 3.3205e-25
103.69 3.3203e-25
103.99 3.3202e-25
104.29 3.3201e-25
104.59 3.32e-25
104.9 3.3198e-25
105.2 3.3197e-25
105.5 3.3196e-25
105.8 3.3195e-25
106.11 3.3194e-25
106.42 3.3193e-25
106.72 3.3191e-25
107.03 3.319e-25
107.34 3.3189e-25
107.65 3.3188e-25
107.96 3.3187e-25
108.27 3.3186e-25
108.58 3.3185e-25
108.9 3.3184e-25
109.21 3.3183e-25
109.52 3.3182e-25
109.84 3.3181e-25
110.16 3.318e-25
110.47 3.3179e-25
110.79 3.3178e-25
111.11 3.3177e-25
111.43 3.3176e-25
111.75 3.3175e-25
112.08 3.3174e-25
112.4 3.3173e-25
112.72 3.3173e-25
113.05 3.3172e-25
113.37 3.3171e-25
113.7 3.317e-25
114.03 3.3169e-25
114.36 3.3169e-25
114.69 3.3168e-25
115.02 3.3167e-25
115.35 3.3167e-25
115.68 3.3166e-25
116.02 3.3165e-25
116.35 3.3165e-25
116.69 3.3165e-25
117.02 3.3165e-25
117.36 3.3165e-25
117.7 3.3165e-25
118.04 3.3164e-25
118.38 3.3162e-25
118.72 3.3161e-25
119.06 3.316e-25
119.4 3.3159e-25
119.75 3.3158e-25
120.09 3.3158e-25
120.44 3.3157e-25
120.79 3.3156e-25
121.14 3.3156e-25
121.48 3.3155e-25
121.83 3.3155e-25
122.19 3.3154e-25
122.54 3.3154e-25
122.89 3.3153e-25
123.25 3.3153e-25
123.6 3.3152e-25
123.96 3.3152e-25
124.32 3.3152e-25
124.67 3.3151e-25
125.03 3.3151e-25
125.39 3.3151e-25
125.75 3.315e-25
126.12 3.315e-25
126.48 3.315e-25
126.85 3.3149e-25
127.21 3.3149e-25
127.58 3.3149e-25
127.95 3.3149e-25
128.31 3.3149e-25
128.68 3.3148e-25
129.06 3.3148e-25
129.43 3.3148e-25
129.8 3.3148e-25
130.18 3.3148e-25
130.55 3.3148e-25
130.93 3.3148e-25
131.3 3.3148e-25
131.68 3.3147e-25
132.06 3.3147e-25
132.44 3.3147e-25
132.83 3.3147e-25
133.21 3.3147e-25
133.59 3.3147e-25
133.98 3.3147e-25
134.36 3.3148e-25
134.75 3.3148e-25
135.14 3.3148e-25
135.53 3.3148e-25
135.92 3.3148e-25
136.31 3.3148e-25
136.7 3.3148e-25
137.1 3.3148e-25
137.49 3.3149e-25
137.89 3.3149e-25
138.29 3.3149e-25
138.69 3.3149e-25
139.09 3.315e-25
139.49 3.315e-25
139.89 3.315e-25
140.29 3.3151e-25
140.7 3.3151e-25
141.1 3.3151e-25
141.51 3.3152e-25
141.92 3.3152e-25
142.33 3.3152e-25
142.74 3.3153e-25
143.15 3.3153e-25
143.56 3.3154e-25
143.98 3.3154e-25
144.39 3.3155e-25
144.81 3.3155e-25
145.22 3.3156e-25
145.64 3.3156e-25
146.06 3.3157e-25
146.48 3.3157e-25
146.91 3.3158e-25
147.33 3.3159e-25
147.76 3.3159e-25
148.18 3.316e-25
148.61 3.3161e-25
149.04 3.3161e-25
149.47 3.3162e-25
149.9 3.3163e-25
150.33 3.3163e-25
150.76 3.3164e-25
151.2 3.3165e-25
151.63 3.3166e-25
152.07 3.3167e-25
152.51 3.3167e-25
152.95 3.3168e-25
153.39 3.3169e-25
153.83 3.317e-25
154.28 3.3171e-25
154.72 3.3172e-25
155.17 3.3173e-25
155.61 3.3174e-25
156.06 3.3175e-25
156.51 3.3176e-25
156.96 3.3177e-25
157.42 3.3178e-25
157.87 3.3179e-25
158.33 3.318e-25
158.78 3.3182e-25
159.24 3.3183e-25
159.7 3.3184e-25
160.16 3.3185e-25
160.62 3.3186e-25
161.08 3.3188e-25
161.55 3.3189e-25
162.01 3.319e-25
162.48 3.3191e-25
162.95 3.3193e-25
163.42 3.3194e-25
163.89 3.3195e-25
164.36 3.3197e-25
164.84 3.3198e-25
165.31 3.32e-25
165.79 3.3201e-25
166.27 3.3203e-25
166.75 3.3204e-25
167.23 3.3206e-25
167.71 3.3209e-25
168.19 3.321e-25
168.68 3.3212e-25
169.16 3.3213e-25
169.65 3.3214e-25
170.14 3.3215e-25
170.63 3.3217e-25
171.12 3.3219e-25
171.62 3.322e-25
172.11 3.3222e-25
172.61 3.3224e-25
173.1 3.3226e-25
173.6 3.3228e-25
174.1 3.3229e-25
174.61 3.3231e-25
175.11 3.3233e-25
175.61 3.3235e-25
176.12 3.3238e-25
176.63 3.324e-25
177.14 3.3242e-25
177.65 3.3244e-25
178.16 3.3246e-25
178.67 3.3249e-25
179.19 3.3251e-25
179.71 3.3254e-25
180.22 3.3256e-25
180.74 3.3259e-25
181.27 3.3262e-25
181.79 3.3266e-25
182.31 3.327e-25
182.84 3.3275e-25
183.36 3.3281e-25
183.89 3.3289e-25
184.42 3.3302e-25
184.96 3.3325e-25
185.49 3.3375e-25
186.02 3.3546e-25
186.56 3.5318e-25
187.1 3.6358e-25
187.64 3.3584e-25
188.18 3.339e-25
188.72 3.3341e-25
189.26 3.3322e-25
189.81 3.3314e-25
190.36 3.3311e-25
190.91 3.3309e-25
191.46 3.331e-25
192.01 3.3311e-25
192.56 3.3312e-25
193.12 3.3314e-25
193.67 3.3316e-25
194.23 3.3318e-25
194.79 3.332e-25
195.35 3.3323e-25
195.92 3.3326e-25
196.48 3.3328e-25
197.05 3.3331e-25
197.62 3.3334e-25
198.19 3.3336e-25
198.76 3.3339e-25
199.33 3.3342e-25
199.91 3.3345e-25
200.48 3.3348e-25
201.06 3.3351e-25
201.64 3.3354e-25
202.22 3.3357e-25
202.8 3.3361e-25
203.39 3.3364e-25
203.98 3.3367e-25
204.56 3.337e-25
205.15 3.3374e-25
205.74 3.3377e-25
206.34 3.338e-25
206.93 3.3384e-25
207.53 3.3387e-25
208.13 3.339e-25
208.73 3.3394e-25
209.33 3.3397e-25
209.93 3.3401e-25
210.54 3.3405e-25
211.15 3.3408e-25
211.75 3.3412e-25
212.36 3.3415e-25
212.98 3.3419e-25
213.59 3.3423e-25
214.21 3.3427e-25
214.82 3.3431e-25
215.44 3.3434e-25
216.06 3.3438e-25
216.69 3.3442e-25
217.31 3.3446e-25
217.94 3.345e-25
218.57 3.3454e-25
219.2 3.3458e-25
219.83 3.3462e-25
220.46 3.3466e-25
221.1 3.347e-25
221.74 3.3475e-25
222.38 3.3479e-25
223.02 3.3483e-25
223.66 3.3487e-25
224.3 3.3492e-25
224.95 3.3496e-25
225.6 3.35e-25
226.25 3.3505e-25
226.9 3.3509e-25
227.56 3.3514e-25
228.21 3.3518e-25
228.87 3.3523e-25
229.53 3.3527e-25
230.19 3.3532e-25
230.86 3.3537e-25
231.52 3.3541e-25
232.19 3.3546e-25
232.86 3.3551e-25
233.53 3.3556e-25
234.2 3.3561e-25
234.88 3.3566e-25
235.56 3.357e-25
236.23 3.3575e-25
236.92 3.358e-25
237.6 3.3586e-25
238.28 3.3591e-25
238.97 3.3596e-25
239.66 3.3601e-25
240.35 3.3606e-25
241.04 3.3611e-25
241.74 3.3616e-25
242.44 3.3622e-25
243.13 3.3627e-25
243.84 3.3633e-25
244.54 3.3638e-25
245.24 3.3643e-25
245.95 3.3649e-25
246.66 3.3655e-25
247.37 3.366e-25
248.08 3.3666e-25
248.8 3.3671e-25
249.52 3.3677e-25
250.24 3.3683e-25
250.96 3.3689e-25
251.68 3.3695e-25
252.41 3.3701e-25
253.13 3.3706e-25
253.86 3.3712e-25
254.6 3.3718e-25
255.33 3.3724e-25
256.07 3.3731e-25
256.8 3.3737e-25
257.54 3.3743e-25
258.29 3.3749e-25
259.03 3.3755e-25
259.78 3.3762e-25
260.53 3.3768e-25
261.28 3.3775e-25
262.03 3.3781e-25
262.79 3.3787e-25
263.55 3.3794e-25
264.31 3.3801e-25
265.07 3.3807e-25
265.83 3.3814e-25
266.6 3.3821e-25
267.37 3.3827e-25
268.14 3.3834e-25
268.91 3.3841e-25
269.69 3.3848e-25
270.46 3.3855e-25
271.24 3.3862e-25
272.02 3.3869e-25
272.81 3.3876e-25
273.6 3.3883e-25
274.38 3.3891e-25
275.18 3.3898e-25
275.97 3.3905e-25
276.76 3.3913e-25
277.56 3.392e-25
278.36 3.3928e-25
279.17 3.3935e-25
279.97 3.3943e-25
280.78 3.395e-25
281.59 3.3958e-25
282.4 3.3966e-25
283.21 3.3973e-25
284.03 3.3981e-25
284.85 3.3989e-25
285.67 3.3997e-25
286.49 3.4005e-25
287.32 3.4013e-25
288.15 3.4021e-25
288.98 3.4029e-25
289.81 3.4037e-25
290.65 3.4046e-25
291.48 3.4054e-25
292.33 3.4062e-25
293.17 3.4071e-25
294.01 3.4079e-25
294.86 3.4088e-25
295.71 3.4096e-25
296.56 3.4105e-25
297.42 3.4114e-25
298.28 3.4122e-25
299.14 3.4131e-25
300 3.414e-25
300.86 3.4149e-25
301.73 3.4158e-25
302.6 3.4167e-25
303.47 3.4176e-25
304.35 3.4185e-25
305.23 3.4194e-25
306.11 3.4204e-25
306.99 3.4213e-25
307.87 3.4222e-25
308.76 3.4232e-25
309.65 3.4241e-25
310.54 3.4251e-25
311.44 3.4261e-25
312.34 3.427e-25
313.24 3.428e-25
314.14 3.429e-25
315.05 3.43e-25
315.95 3.431e-25
316.87 3.432e-25
317.78 3.433e-25
318.7 3.434e-25
319.61 3.435e-25
320.54 3.436e-25
321.46 3.4371e-25
322.39 3.4381e-25
323.32 3.4392e-25
324.25 3.4402e-25
325.18 3.4413e-25
326.12 3.4423e-25
327.06 3.4434e-25
328 3.4445e-25
328.95 3.4456e-25
329.9 3.4467e-25
330.85 3.4478e-25
331.8 3.4489e-25
332.76 3.45e-25
333.72 3.4511e-25
334.68 3.4522e-25
335.65 3.4534e-25
336.61 3.4545e-25
337.58 3.4557e-25
338.56 3.4568e-25
339.53 3.458e-25
340.51 3.4591e-25
341.49 3.4603e-25
342.48 3.4615e-25
343.47 3.4627e-25
344.46 3.4639e-25
345.45 3.4651e-25
346.45 3.4663e-25
347.44 3.4675e-25
348.45 3.4688e-25
349.45 3.47e-25
350.46 3.4712e-25
351.47 3.4725e-25
352.48 3.4737e-25
353.5 3.475e-25
354.52 3.4763e-25
355.54 3.4776e-25
356.56 3.4789e-25
357.59 3.4802e-25
358.62 3.4815e-25
359.66 3.4828e-25
360.69 3.4841e-25
361.73 3.4854e-25
362.78 3.4868e-25
363.82 3.4881e-25
364.87 3.4895e-25
365.92 3.4908e-25
366.98 3.4922e-25
368.04 3.4936e-25
369.1 3.495e-25
370.16 3.4965e-25
371.23 3.4981e-25
372.3 3.5003e-25
373.37 3.5207e-25
374.45 3.506e-25
375.53 3.5041e-25
376.61 3.5051e-25
377.7 3.5065e-25
378.79 3.5079e-25
379.88 3.5093e-25
380.97 3.5108e-25
382.07 3.5122e-25
383.17 3.5137e-25
384.28 3.5152e-25
385.39 3.5167e-25
386.5 3.5183e-25
387.61 3.5198e-25
388.73 3.5213e-25
389.85 3.5229e-25
390.97 3.5244e-25
392.1 3.526e-25
393.23 3.5276e-25
394.37 3.5292e-25
395.5 3.5308e-25
396.64 3.5324e-25
397.79 3.534e-25
398.93 3.5356e-25
400.08 3.5372e-25
401.24 3.5389e-25
402.39 3.5405e-25
403.55 3.5422e-25
404.72 3.5439e-25
405.88 3.5456e-25
407.05 3.5472e-25
408.23 3.5489e-25
409.4 3.5507e-25
410.59 3.5524e-25
411.77 3.5541e-25
412.96 3.5558e-25
414.15 3.5576e-25
415.34 3.5594e-25
416.54 3.5611e-25
417.74 3.5629e-25
418.94 3.5647e-25
420.15 3.5665e-25
421.36 3.5683e-25
422.58 3.5701e-25
423.8 3.572e-25
425.02 3.5738e-25
426.24 3.5757e-25
427.47 3.5775e-25
428.7 3.5794e-25
429.94 3.5813e-25
431.18 3.5832e-25
432.42 3.5851e-25
433.67 3.587e-25
434.92 3.589e-25
436.17 3.5909e-25
437.43 3.5929e-25
438.69 3.5948e-25
439.96 3.5968e-25
441.23 3.5988e-25
442.5 3.6008e-25
443.77 3.6028e-25
445.05 3.6048e-25
446.34 3.6068e-25
447.62 3.6089e-25
448.91 3.6109e-25
450.21 3.613e-25
451.51 3.6151e-25
452.81 3.6172e-25
454.11 3.6193e-25
455.42 3.6214e-25
456.74 3.6235e-25
458.05 3.6256e-25
459.37 3.6278e-25
460.7 3.6299e-25
462.03 3.6321e-25
463.36 3.6343e-25
464.69 3.6365e-25
466.03 3.6387e-25
467.38 3.6409e-25
468.72 3.6432e-25
470.08 3.6454e-25
471.43 3.6477e-25
472.79 3.6499e-25
474.15 3.6522e-25
475.52 3.6545e-25
476.89 3.6568e-25
478.27 3.6592e-25
479.65 3.6615e-25
481.03 3.6639e-25
482.42 3.6662e-25
483.81 3.6686e-25
485.2 3.671e-25
486.6 3.6734e-25
488 3.6758e-25
489.41 3.6782e-25
490.82 3.6807e-25
492.24 3.6831e-25
493.65 3.6856e-25
495.08 3.6881e-25
496.51 3.6906e-25
497.94 3.6931e-25
499.37 3.6956e-25
500.81 3.6981e-25
502.26 3.7007e-25
503.7 3.7033e-25
505.16 3.7058e-25
506.61 3.7084e-25
508.07 3.711e-25
509.54 3.7137e-25
511.01 3.7163e-25
512.48 3.719e-25
513.96 3.7216e-25
515.44 3.7243e-25
516.93 3.727e-25
518.42 3.7297e-25
519.91 3.7324e-25
521.41 3.7352e-25
522.91 3.7379e-25
524.42 3.7407e-25
525.93 3.7435e-25
527.45 3.7463e-25
528.97 3.7491e-25
530.49 3.7519e-25
532.02 3.7548e-25
533.56 3.7577e-25
535.1 3.7605e-25
536.64 3.7634e-25
538.19 3.7663e-25
539.74 3.7693e-25
541.29 3.7722e-25
542.85 3.7752e-25
544.42 3.7781e-25
545.99 3.7811e-25
547.56 3.7841e-25
549.14 3.7871e-25
550.73 3.7902e-25
552.31 3.7932e-25
553.91 3.7963e-25
555.5 3.7994e-25
557.1 3.8025e-25
558.71 3.8058e-25
560.32 3.8212e-25
561.94 3.8122e-25
563.56 3.8151e-25
565.18 3.8183e-25
566.81 3.8215e-25
568.45 3.8247e-25
570.08 3.8279e-25
571.73 3.8312e-25
573.38 3.8345e-25
575.03 3.8378e-25
576.69 3.8411e-25
578.35 3.8444e-25
580.02 3.8477e-25
581.69 3.8511e-25
583.37 3.8545e-25
585.05 3.8579e-25
586.74 3.8613e-25
588.43 3.8647e-25
590.12 3.8682e-25
591.82 3.8716e-25
593.53 3.8751e-25
595.24 3.8786e-25
596.96 3.8822e-25
598.68 3.8857e-25
600.41 3.8893e-25
602.14 3.8929e-25
603.87 3.8965e-25
605.61 3.9001e-25
607.36 3.9037e-25
609.11 3.9074e-25
610.87 3.9111e-25
612.63 3.9148e-25
614.39 3.9185e-25
616.17 3.9222e-25
617.94 3.926e-25
619.72 3.9298e-25
621.51 3.9335e-25
623.3 3.9374e-25
625.1 3.9412e-25
626.9 3.9451e-25
628.71 3.9489e-25
630.52 3.9528e-25
632.34 3.9568e-25
634.16 3.9607e-25
635.99 3.9646e-25
637.82 3.9686e-25
639.66 3.9726e-25
641.51 3.9767e-25
643.36 3.9807e-25
645.21 3.9848e-25
647.07 3.9888e-25
648.94 3.9929e-25
650.81 3.9971e-25
652.69 4.0012e-25
654.57 4.0054e-25
656.45 4.0096e-25
658.35 4.0138e-25
660.24 4.018e-25
662.15 4.0223e-25
664.06 4.0266e-25
665.97 4.0309e-25
667.89 4.0352e-25
669.82 4.0396e-25
671.75 4.0439e-25
673.69 4.0483e-25
675.63 4.0527e-25
677.58 4.0572e-25
679.53 4.0616e-25
681.49 4.0661e-25
683.45 4.0706e-25
685.42 4.0751e-25
687.4 4.0797e-25
689.38 4.0843e-25
691.37 4.0889e-25
693.36 4.0935e-25
695.36 4.0982e-25
697.37 4.1028e-25
699.38 4.1075e-25
701.39 4.1122e-25
703.42 4.117e-25
705.44 4.1218e-25
707.48 4.1266e-25
709.52 4.1314e-25
711.56 4.1362e-25
713.61 4.1411e-25
715.67 4.146e-25
717.73 4.1509e-25
719.8 4.1558e-25
721.88 4.1608e-25
723.96 4.1658e-25
726.05 4.1708e-25
728.14 4.1759e-25
730.24 4.1809e-25
732.35 4.1861e-25
734.46 4.1912e-25
736.57 4.1964e-25
738.7 4.2015e-25
740.83 4.2068e-25
742.96 4.212e-25
745.11 4.2173e-25
747.25 4.2417e-25
749.41 4.2279e-25
751.57 4.2332e-25
753.74 4.2386e-25
755.91 4.244e-25
758.09 4.2494e-25
760.27 4.2549e-25
762.47 4.2604e-25
764.66 4.2659e-25
766.87 4.2714e-25
769.08 4.277e-25
771.3 4.2826e-25
773.52 4.2882e-25
775.75 4.2939e-25
777.99 4.2996e-25
780.23 4.3053e-25
782.48 4.311e-25
784.74 4.3168e-25
787 4.3226e-25
789.27 4.3285e-25
791.54 4.3343e-25
793.83 4.3402e-25
796.11 4.3462e-25
798.41 4.3521e-25
800.71 4.3581e-25
803.02 4.3641e-25
805.33 4.3702e-25
807.66 4.3763e-25
809.99 4.3824e-25
812.32 4.3885e-25
814.66 4.3947e-25
817.01 4.4009e-25
819.37 4.4071e-25
821.73 4.4134e-25
824.1 4.4197e-25
826.47 4.426e-25
828.86 4.4323e-25
831.25 4.4387e-25
833.64 4.4451e-25
836.05 4.4516e-25
838.46 4.4581e-25
840.87 4.4646e-25
843.3 4.4711e-25
845.73 4.4777e-25
848.17 4.4843e-25
850.61 4.491e-25
853.07 4.4977e-25
855.53 4.5044e-25
857.99 4.5111e-25
860.47 4.5179e-25
862.95 4.5247e-25
865.43 4.5316e-25
867.93 4.5385e-25
870.43 4.5454e-25
872.94 4.5523e-25
875.46 4.5593e-25
877.98 4.5663e-25
880.51 4.5734e-25
883.05 4.5805e-25
885.6 4.5876e-25
888.15 4.5947e-25
890.71 4.6019e-25
893.28 4.6092e-25
895.86 4.6164e-25
898.44 4.6237e-25
901.03 4.6311e-25
903.63 4.6384e-25
906.23 4.6458e-25
908.84 4.6533e-25
911.46 4.6608e-25
914.09 4.6683e-25
916.73 4.6759e-25
919.37 4.6834e-25
922.02 4.6911e-25
924.68 4.6987e-25
927.35 4.7065e-25
930.02 4.7142e-25
932.7 4.722e-25
935.39 4.7299e-25
938.09 4.7377e-25
940.79 4.7456e-25
943.5 4.7535e-25
946.22 4.7615e-25
948.95 4.7695e-25
951.69 4.7775e-25
954.43 4.7856e-25
957.18 4.7938e-25
959.94 4.8019e-25
962.71 4.8102e-25
965.49 4.8184e-25
968.27 4.8267e-25
971.06 4.8351e-25
973.86 4.8434e-25
976.67 4.8519e-25
979.48 4.8603e-25
982.31 4.8689e-25
985.14 4.8774e-25
987.98 4.886e-25
990.83 4.8946e-25
993.69 4.9033e-25
996.55 4.9121e-25
999.42 4.9208e-25
1002.3 4.9296e-25
1005.2 4.9385e-25
1008.1 4.9474e-25
1011 4.9563e-25
1013.9 4.9653e-25
1016.8 4.9743e-25
1019.8 4.9834e-25
1022.7 4.9925e-25
1025.7 5.0017e-25
1028.6 5.0109e-25
1031.6 5.0201e-25
1034.6 5.0294e-25
1037.5 5.0388e-25
1040.5 5.0482e-25
1043.5 5.0576e-25
1046.5 5.0671e-25
1049.6 5.0766e-25
1052.6 5.0862e-25
1055.6 5.0958e-25
1058.7 5.1055e-25
1061.7 5.1152e-25
1064.8 5.1249e-25
1067.8 5.1347e-25
1070.9 5.1446e-25
1074 5.1545e-25
1077.1 5.1645e-25
1080.2 5.1745e-25
1083.3 5.1845e-25
1086.4 5.1946e-25
1089.6 5.2048e-25
1092.7 5.215e-25
1095.9 5.2252e-25
1099 5.2355e-25
1102.2 5.2459e-25
1105.4 5.2563e-25
1108.6 5.2667e-25
1111.8 5.2772e-25
1115 5.2878e-25
1118.2 5.2984e-25
1121.4 5.3094e-25
1124.6 5.3198e-25
1127.9 5.3305e-25
1131.1 5.3414e-25
1134.4 5.3522e-25
1137.7 5.3632e-25
1140.9 5.3741e-25
1144.2 5.3852e-25
1147.5 5.3963e-25
1150.8 5.4074e-25
1154.2 5.4186e-25
1157.5 5.4298e-25
1160.8 5.4412e-25
1164.2 5.4525e-25
1167.5 5.4639e-25
1170.9 5.4754e-25
1174.3 5.4869e-25
1177.7 5.4985e-25
1181 5.5102e-25
1184.5 5.5219e-25
1187.9 5.5336e-25
1191.3 5.5455e-25
1194.7 5.5573e-25
1198.2 5.5693e-25
1201.6 5.5813e-25
1205.1 5.5933e-25
1208.6 5.6055e-25
1212.1 5.6176e-25
1215.5 5.6299e-25
1219 5.6422e-25
1222.6 5.6545e-25
1226.1 5.6669e-25
1229.6 5.6794e-25
1233.2 5.692e-25
1236.7 5.7046e-25
1240.3 5.7172e-25
1243.9 5.73e-25
1247.5 5.7428e-25
1251 5.7556e-25
1254.7 5.7686e-25
1258.3 5.7816e-25
1261.9 5.7946e-25
1265.5 5.8077e-25
1269.2 5.8209e-25
1272.8 5.8342e-25
1276.5 5.8475e-25
1280.2 5.8609e-25
1283.9 5.8743e-25
1287.6 5.8878e-25
1291.3 5.9014e-25
1295 5.9151e-25
1298.8 5.9288e-25
1302.5 5.9426e-25
1306.3 5.9565e-25
1310 5.9704e-25
1313.8 5.9844e-25
1317.6 5.9985e-25
1321.4 6.0126e-25
1325.2 6.0268e-25
1329 6.0411e-25
1332.8 6.0555e-25
1336.7 6.0699e-25
1340.5 6.0844e-25
1344.4 6.099e-25
1348.3 6.1136e-25
1352.2 6.1284e-25
1356.1 6.1432e-25
1360 6.1581e-25
1363.9 6.173e-25
1367.8 6.188e-25
1371.8 6.2032e-25
1375.7 6.2183e-25
1379.7 6.2336e-25
1383.7 6.2489e-25
1387.7 6.2644e-25
1391.7 6.2799e-25
1395.7 6.2955e-25
1399.7 6.3111e-25
1403.7 6.3269e-25
1407.8 6.3427e-25
1411.8 6.3586e-25
1415.9 6.3746e-25
1420 6.3906e-25
1424.1 6.4068e-25
1428.2 6.423e-25
1432.3 6.4394e-25
1436.4 6.4558e-25
1440.6 6.4722e-25
1444.7 6.4888e-25
1448.9 6.5055e-25
1453.1 6.5222e-25
1457.3 6.5391e-25
1461.5 6.556e-25
1465.7 6.573e-25
1469.9 6.5901e-25
1474.2 6.6073e-25
1478.4 6.6246e-25
1482.7 6.642e-25
1486.9 6.6596e-25
1491.2 6.677e-25
1495.5 6.6947e-25
1499.8 6.7124e-25
1504.2 6.7303e-25
1508.5 6.7482e-25
1512.8 6.7663e-25
1517.2 6.7844e-25
1521.6 6.8026e-25
1526 6.8209e-25
1530.4 6.8394e-25
1534.8 6.8579e-25
1539.2 6.8765e-25
1543.6 6.8952e-25
1548.1 6.914e-25
1552.6 6.933e-25
1557 6.952e-25
1561.5 6.9711e-25
1566 6.9904e-25
1570.5 7.0097e-25
1575.1 7.0292e-25
1579.6 7.0487e-25
1584.2 7.0684e-25
1588.7 7.0881e-25
1593.3 7.108e-25
1597.9 7.128e-25
1602.5 7.1481e-25
1607.1 7.1683e-25
1611.8 7.1886e-25
1616.4 7.209e-25
1621.1 7.2296e-25
1625.7 7.2502e-25
1630.4 7.271e-25
1635.1 7.2919e-25
1639.8 7.3129e-25
1644.6 7.334e-25
1649.3 7.3553e-25
1654.1 7.3766e-25
1658.8 7.3981e-25
1663.6 7.4197e-25
1668.4 7.4414e-25
1673.2 7.4633e-25
1678.1 7.4852e-25
1682.9 7.5073e-25
1687.7 7.5296e-25
1692.6 7.5519e-25
1697.5 7.5744e-25
1702.4 7.597e-25
1707.3 7.6197e-25
1712.2 7.6426e-25
1717.2 7.6656e-25
1722.1 7.6887e-25
1727.1 7.712e-25
1732 7.7354e-25
1737 7.759e-25
1742 7.7826e-25
1747.1 7.8065e-25
1752.1 7.8304e-25
1757.2 7.8545e-25
1762.2 7.8788e-25
1767.3 7.9031e-25
1772.4 7.9277e-25
1777.5 7.9523e-25
1782.6 7.9772e-25
1787.8 8.0021e-25
1792.9 8.0273e-25
1798.1 8.0525e-25
1803.3 8.078e-25
1808.5 8.1035e-25
1813.7 8.1293e-25
1818.9 8.1552e-25
1824.2 8.1812e-25
1829.4 8.2074e-25
1834.7 8.2338e-25
1840 8.2603e-25
1845.3 8.287e-25
1850.6 8.3139e-25
1856 8.3409e-25
1861.3 8.3681e-25
1866.7 8.3955e-25
1872.1 8.423e-25
1877.5 8.4507e-25
1882.9 8.4786e-25
1888.3 8.5066e-25
1893.7 8.5349e-25
1899.2 8.5633e-25
1904.7 8.5919e-25
1910.2 8.6206e-25
1915.7 8.6496e-25
1921.2 8.6787e-25
1926.7 8.7081e-25
1932.3 8.7376e-25
1937.9 8.7673e-25
1943.4 8.7972e-25
1949 8.8273e-25
1954.7 8.8576e-25
1960.3 8.8881e-25
1966 8.9188e-25
1971.6 8.9497e-25
1977.3 8.9808e-25
1983 9.0121e-25
1988.7 9.0436e-25
1994.5 9.0754e-25
2000.2 9.1073e-25
2006 9.1395e-25
2011.8 9.1719e-25
2017.6 9.2045e-25
2023.4 9.2373e-25
2029.2 9.2703e-25
2035.1 9.3036e-25
2040.9 9.3371e-25
2046.8 9.3708e-25
2052.7 9.4048e-25
2058.6 9.439e-25
2064.6 9.4734e-25
2070.5 9.5081e-25
2076.5 9.5431e-25
2082.5 9.5782e-25
2088.5 9.6137e-25
2094.5 9.6493e-25
2100.5 9.6853e-25
2106.6 9.7214e-25
2112.7 9.7579e-25
2118.8 9.7946e-25
2124.9 9.8316e-25
2131 9.8688e-25
2137.1 9.9064e-25
2143.3 9.9441e-25
2149.5 9.9822e-25
2155.7 1.0021e-24
2161.9 1.0059e-24
2168.1 1.0098e-24
2174.4 1.0137e-24
2180.6 1.0177e-24
2186.9 1.0217e-24
2193.2 1.0257e-24
2199.6 1.0297e-24
2205.9 1.0338e-24
2212.3 1.0379e-24
2218.6 1.042e-24
2225 1.0462e-24
2231.4 1.0504e-24
2237.9 1.0546e-24
2244.3 1.0589e-24
2250.8 1.0632e-24
2257.3 1.0675e-24
2263.8 1.0719e-24
2270.3 1.0763e-24
2276.9 1.0807e-24
2283.4 1.0852e-24
2290 1.0897e-24
2296.6 1.0943e-24
2303.2 1.0989e-24
2309.9 1.1035e-24
2316.5 1.1081e-24
2323.2 1.1128e-24
2329.9 1.1176e-24
2336.6 1.1224e-24
2343.4 1.1272e-24
2350.1 1.132e-24
2356.9 1.1369e-24
2363.7 1.1419e-24
2370.5 1.1468e-24
2377.4 1.1519e-24
2384.2 1.1569e-24
2391.1 1.162e-24
2398 1.1672e-24
2404.9 1.1724e-24
2411.8 1.1777e-24
2418.8 1.1829e-24
2425.8 1.1883e-24
2432.7 1.1937e-24
2439.8 1.1991e-24
2446.8 1.2046e-24
2453.8 1.2101e-24
2460.9 1.2157e-24
2468 1.2213e-24
2475.1 1.227e-24
2482.3 1.2327e-24
2489.4 1.2385e-24
2496.6 1.2444e-24
2503.8 1.2503e-24
2511 1.2562e-24
2518.3 1.2622e-24
2525.5 1.2683e-24
2532.8 1.2744e-24
2540.1 1.2806e-24
2547.4 1.2868e-24
2554.8 1.2931e-24
2562.1 1.2995e-24
2569.5 1.3059e-24
2576.9 1.3124e-24
2584.4 1.3189e-24
2591.8 1.3255e-24
2599.3 1.3322e-24
2606.8 1.3389e-24
2614.3 1.3457e-24
2621.8 1.3526e-24
2629.4 1.3595e-24
2637 1.3665e-24
2644.6 1.3736e-24
2652.2 1.3807e-24
2659.8 1.3879e-24
2667.5 1.3952e-24
2675.2 1.4025e-24
2682.9 1.41e-24
2690.7 1.4175e-24
2698.4 1.4251e-24
2706.2 1.4327e-24
2714 1.4404e-24
2721.8 1.4483e-24
2729.7 1.4561e-24
2737.5 1.4641e-24
2745.4 1.4722e-24
2753.3 1.4803e-24
2761.3 1.4885e-24
2769.2 1.4968e-24
2777.2 1.5052e-24
2785.2 1.5137e-24
2793.3 1.5222e-24
2801.3 1.5308e-24
2809.4 1.5396e-24
2817.5 1.5484e-24
2825.6 1.5573e-24
2833.8 1.5663e-24
2841.9 1.5753e-24
2850.1 1.5845e-24
2858.3 1.5937e-24
2866.6 1.6031e-24
2874.8 1.6125e-24
2883.1 1.622e-24
2891.4 1.6316e-24
2899.8 1.6413e-24
2908.1 1.6511e-24
2916.5 1.661e-24
2924.9 1.671e-24
2933.4 1.681e-24
2941.8 1.6912e-24
2950.3 1.7014e-24
2958.8 1.7117e-24
2967.3 1.7221e-24
2975.9 1.7326e-24
2984.5 1.7431e-24
2993.1 1.7538e-24
3001.7 1.7645e-24
3010.4 1.7753e-24
3019 1.7861e-24
3027.8 1.7971e-24
3036.5 1.8081e-24
3045.2 1.8191e-24
3054 1.8302e-24
3062.8 1.8414e-24
3071.7 1.8526e-24
3080.5 1.8638e-24
3089.4 1.8751e-24
3098.3 1.8864e-24
3107.2 1.8978e-24
3116.2 1.9091e-24
3125.2 1.9205e-24
3134.2 1.9318e-24
3143.2 1.9432e-24
3152.3 1.9545e-24
3161.4 1.9658e-24
3170.5 1.977e-24
3179.6 1.9882e-24
3188.8 1.9994e-24
3198 2.0104e-24
3207.2 2.0214e-24
3216.5 2.0322e-24
3225.7 2.0429e-24
3235 2.0535e-24
3244.4 2.0639e-24
3253.7 2.0741e-24
3263.1 2.0842e-24
3272.5 2.094e-24
3281.9 2.1035e-24
3291.4 2.1129e-24
3300.9 2.1219e-24
3310.4 2.1306e-24
3319.9 2.139e-24
3329.5 2.147e-24
3339.1 2.1547e-24
3348.7 2.1619e-24
3358.4 2.1688e-24
3368.1 2.1751e-24
3377.8 2.181e-24
3387.5 2.1864e-24
3397.3 2.1912e-24
3407.1 2.1955e-24
3416.9 2.1993e-24
3426.8 2.2024e-24
3436.6 2.2049e-24
3446.5 2.2067e-24
3456.5 2.2079e-24
3466.5 2.2084e-24
3476.4 2.2082e-24
3486.5 2.2073e-24
3496.5 2.2057e-24
3506.6 2.2033e-24
3516.7 2.2002e-24
3526.8 2.1964e-24
3537 2.1918e-24
3547.2 2.1865e-24
3557.4 2.1804e-24
3567.7 2.1736e-24
3578 2.166e-24
3588.3 2.1578e-24
3598.6 2.1488e-24
3609 2.1392e-24
3619.4 2.1289e-24
3629.9 2.1179e-24
3640.3 2.1064e-24
3650.8 2.0943e-24
3661.3 2.0816e-24
3671.9 2.0684e-24
3682.5 2.0547e-24
3693.1 2.0405e-24
3703.8 2.0259e-24
3714.4 2.011e-24
3725.1 1.9957e-24
3735.9 1.9801e-24
3746.7 1.9642e-24
3757.5 1.9481e-24
3768.3 1.9319e-24
3779.2 1.9154e-24
3790 1.8989e-24
3801 1.8822e-24
3811.9 1.8656e-24
3822.9 1.8489e-24
3833.9 1.8322e-24
3845 1.8157e-24
3856.1 1.7992e-24
3867.2 1.7828e-24
3878.4 1.7665e-24
3889.5 1.7505e-24
3900.7 1.7346e-24
3912 1.719e-24
3923.3 1.7036e-24
3934.6 1.6885e-24
3945.9 1.6737e-24
3957.3 1.6592e-24
3968.7 1.645e-24
3980.2 1.6311e-24
3991.6 1.6176e-24
4003.1 1.6045e-24
4014.7 1.5917e-24
4026.3 1.5793e-24
4037.9 1.5673e-24
4049.5 1.5557e-24
4061.2 1.5445e-24
4072.9 1.5337e-24
4084.6 1.5233e-24
4096.4 1.5134e-24
4108.2 1.5038e-24
4120.1 1.4947e-24
4131.9 1.486e-24
4143.9 1.4777e-24
4155.8 1.4698e-24
4167.8 1.4623e-24
4179.8 1.4553e-24
4191.8 1.4487e-24
4203.9 1.4424e-24
4216.1 1.4366e-24
4228.2 1.4312e-24
4240.4 1.4261e-24
4252.6 1.4215e-24
4264.9 1.4172e-24
4277.2 1.4133e-24
4289.5 1.4098e-24
4301.9 1.4067e-24
4314.3 1.4039e-24
4326.7 1.4015e-24
4339.2 1.3994e-24
4351.7 1.3976e-24
4364.3 1.3962e-24
4376.8 1.3951e-24
4389.5 1.3943e-24
4402.1 1.3939e-24
4414.8 1.3937e-24
4427.5 1.3939e-24
4440.3 1.3943e-24
4453.1 1.3951e-24
4465.9 1.3961e-24
4478.8 1.3973e-24
4491.7 1.3989e-24
4504.7 1.4007e-24
4517.7 1.4027e-24
4530.7 1.4051e-24
4543.7 1.4076e-24
4556.8 1.4104e-24
4570 1.4134e-24
4583.2 1.4166e-24
4596.4 1.4201e-24
4609.6 1.4237e-24
4622.9 1.4276e-24
4636.2 1.4317e-24
4649.6 1.436e-24
4663 1.4404e-24
4676.5 1.4451e-24
4689.9 1.4499e-24
4703.5 1.4549e-24
4717 1.4601e-24
4730.6 1.4655e-24
4744.3 1.471e-24
4757.9 1.4767e-24
4771.7 1.4826e-24
4785.4 1.4886e-24
4799.2 1.4947e-24
4813.1 1.501e-24
4826.9 1.5075e-24
4840.8 1.5141e-24
4854.8 1.5208e-24
4868.8 1.5277e-24
4882.8 1.5347e-24
4896.9 1.5418e-24
4911 1.5491e-24
4925.2 1.5565e-24
4939.4 1.564e-24
4953.6 1.5716e-24
4967.9 1.5794e-24
4982.2 1.5873e-24
4996.6 1.5953e-24
5011 1.6034e-24
5025.5 1.6116e-24
5039.9 1.6199e-24
5054.5 1.6284e-24
5069 1.6369e-24
5083.7 1.6456e-24
5098.3 1.6544e-24
5113 1.6633e-24
5127.8 1.6722e-24
5142.5 1.6813e-24
5157.4 1.6905e-24
5172.2 1.6998e-24
5187.1 1.7092e-24
5202.1 1.7187e-24
5217.1 1.7283e-24
5232.1 1.738e-24
5247.2 1.7478e-24
5262.4 1.7577e-24
5277.5 1.7676e-24
5292.7 1.7777e-24
5308 1.7879e-24
5323.3 1.7982e-24
5338.7 1.8086e-24
5354 1.8191e-24
5369.5 1.8296e-24
5385 1.8403e-24
5400.5 1.8511e-24
5416.1 1.862e-24
5431.7 1.8729e-24
5447.3 1.884e-24
5463 1.8952e-24
5478.8 1.9065e-24
5494.6 1.9178e-24
5510.4 1.9293e-24
5526.3 1.9409e-24
5542.2 1.9526e-24
5558.2 1.9643e-24
5574.3 1.9762e-24
5590.3 1.9882e-24
5606.4 2.0003e-24
5622.6 2.0125e-24
5638.8 2.0248e-24
5655.1 2.0373e-24
5671.4 2.0498e-24
5687.7 2.0624e-24
5704.1 2.0752e-24
5720.6 2.0881e-24
5737.1 2.1011e-24
5753.6 2.1142e-24
5770.2 2.1274e-24
5786.8 2.1408e-24
5803.5 2.1542e-24
5820.2 2.1678e-24
5837 2.1816e-24
5853.9 2.1954e-24
5870.7 2.2094e-24
5887.7 2.2235e-24
5904.6 2.2378e-24
5921.7 2.2522e-24
5938.7 2.2667e-24
5955.8 2.2814e-24
5973 2.2962e-24
5990.2 2.3112e-24
6007.5 2.3263e-24
6024.8 2.3416e-24
6042.2 2.357e-24
6059.6 2.3726e-24
6077.1 2.3884e-24
6094.6 2.4043e-24
6112.2 2.4204e-24
6129.8 2.4367e-24
6147.5 2.4532e-24
6165.2 2.4698e-24
6183 2.4867e-24
6200.8 2.5037e-24
6218.7 2.521e-24
6236.6 2.5385e-24
6254.6 2.5561e-24
6272.6 2.574e-24
6290.7 2.5921e-24
6308.8 2.6105e-24
6327 2.6291e-24
6345.3 2.6479e-24
6363.6 2.667e-24
6381.9 2.6864e-24
6400.3 2.706e-24
6418.8 2.7259e-24
6437.3 2.7461e-24
6455.8 2.7666e-24
6474.4 2.7875e-24
6493.1 2.8086e-24
6511.8 2.8301e-24
6530.6 2.8519e-24
6549.4 2.8741e-24
6568.3 2.8967e-24
6587.3 2.9196e-24
6606.2 2.943e-24
6625.3 2.9668e-24
6644.4 2.9911e-24
6663.6 3.0158e-24
6682.8 3.041e-24
6702 3.0667e-24
6721.4 3.0929e-24
6740.7 3.1197e-24
6760.2 3.147e-24
6779.7 3.175e-24
6799.2 3.2037e-24
6818.8 3.233e-24
6838.5 3.263e-24
6858.2 3.2937e-24
6878 3.3253e-24
6897.8 3.3577e-24
6917.7 3.3909e-24
6937.6 3.4251e-24
6957.6 3.4603e-24
6977.7 3.4965e-24
6997.8 3.5338e-24
7018 3.5722e-24
7038.2 3.6119e-24
7058.5 3.6529e-24
7078.8 3.6953e-24
7099.3 3.7391e-24
7119.7 3.7845e-24
7140.3 3.8315e-24
7160.8 3.8803e-24
7181.5 3.9309e-24
7202.2 3.9835e-24
7223 4.0382e-24
7243.8 4.095e-24
7264.7 4.1541e-24
7285.6 4.2156e-24
7306.6 4.2796e-24
7327.7 4.3463e-24
7348.8 4.4156e-24
7370 4.4876e-24
7391.2 4.5624e-24
7412.5 4.64e-24
7433.9 4.7202e-24
7455.4 4.803e-24
7476.8 4.8881e-24
7498.4 4.9752e-24
7520 5.0637e-24
7541.7 5.1531e-24
7563.4 5.2424e-24
7585.3 5.3307e-24
7607.1 5.4168e-24
7629.1 5.4991e-24
7651 5.576e-24
7673.1 5.6457e-24
7695.2 5.7065e-24
7717.4 5.7565e-24
7739.7 5.7942e-24
7762 5.8184e-24
7784.4 5.8282e-24
7806.8 5.8236e-24
7829.3 5.8047e-24
7851.9 5.7727e-24
7874.5 5.7289e-24
7897.2 5.6753e-24
7920 5.6139e-24
7942.8 5.547e-24
7965.7 5.4767e-24
7988.7 5.4048e-24
8011.7 5.3333e-24
8034.8 5.2634e-24
8058 5.1964e-24
8081.2 5.1332e-24
8104.5 5.0744e-24
8127.9 5.0204e-24
8151.3 4.9714e-24
8174.8 4.9276e-24
8198.4 4.889e-24
8222 4.8553e-24
8245.7 4.8266e-24
8269.5 4.8025e-24
8293.3 4.7828e-24
8317.3 4.7674e-24
8341.2 4.7559e-24
8365.3 4.7481e-24
8389.4 4.7438e-24
8413.6 4.7427e-24
8437.8 4.7446e-24
8462.2 4.7494e-24
8486.6 4.7569e-24
8511 4.7668e-24
8535.6 4.7791e-24
8560.2 4.7935e-24
8584.9 4.81e-24
8609.6 4.8285e-24
8634.4 4.8488e-24
8659.3 4.8708e-24
8684.3 4.8944e-24
8709.3 4.9197e-24
8734.4 4.9465e-24
8759.6 4.9747e-24
8784.9 5.0043e-24
8810.2 5.0353e-24
8835.6 5.0677e-24
8861.1 5.1013e-24
8886.6 5.1362e-24
8912.3 5.1723e-24
8937.9 5.2097e-24
8963.7 5.2484e-24
8989.6 5.2882e-24
9015.5 5.3293e-24
9041.5 5.3716e-24
9067.5 5.4151e-24
9093.7 5.4599e-24
9119.9 5.506e-24
9146.2 5.5533e-24
9172.6 5.602e-24
9199 5.652e-24
9225.5 5.7033e-24
9252.1 5.7561e-24
9278.8 5.8103e-24
9305.6 5.866e-24
9332.4 5.9233e-24
9359.3 5.9822e-24
9386.3 6.0427e-24
9413.3 6.105e-24
9440.5 6.169e-24
9467.7 6.235e-24
9495 6.3029e-24
9522.4 6.373e-24
9549.8 6.4451e-24
9577.3 6.5196e-24
9605 6.5965e-24
9632.7 6.676e-24
9660.4 6.7582e-24
9688.3 6.8432e-24
9716.2 6.9312e-24
9744.2 7.0226e-24
9772.3 7.1173e-24
9800.5 7.2158e-24
9828.7 7.3181e-24
9857.1 7.4248e-24
9885.5 7.5359e-24
9914 7.652e-24
9942.6 7.7734e-24
9971.3 7.9004e-24
10000 8.0337e-24
